<?xml version="1.0" encoding="UTF-8" standalone="no"?>
<!-- Created with Inkscape (http://www.inkscape.org/) -->

<svg
   xmlns:dc="http://purl.org/dc/elements/1.1/"
   xmlns:cc="http://creativecommons.org/ns#"
   xmlns:rdf="http://www.w3.org/1999/02/22-rdf-syntax-ns#"
   xmlns:svg="http://www.w3.org/2000/svg"
   xmlns="http://www.w3.org/2000/svg"
   xmlns:xlink="http://www.w3.org/1999/xlink"
   xmlns:sodipodi="http://sodipodi.sourceforge.net/DTD/sodipodi-0.dtd"
   xmlns:inkscape="http://www.inkscape.org/namespaces/inkscape"
   width="210mm"
   height="297mm"
   viewBox="0 0 744.09448819 1052.3622047"
   id="svg2"
   version="1.1"
   inkscape:version="0.91 r13725"
   sodipodi:docname="couleurs-balsa17-18.svg">
  <defs
     id="defs4">
    <linearGradient
       inkscape:collect="always"
       id="linearGradient4178">
      <stop
         style="stop-color:#ffee9e;stop-opacity:1"
         offset="0"
         id="stop4180" />
      <stop
         style="stop-color:#799591;stop-opacity:1"
         offset="0.06770726"
         id="stop4505" />
      <stop
         id="stop4507"
         offset="0.1347834"
         style="stop-color:#69351b;stop-opacity:1" />
      <stop
         id="stop4497"
         offset="0.20577914"
         style="stop-color:#c6a545;stop-opacity:1" />
      <stop
         style="stop-color:#72572d;stop-opacity:1"
         offset="0.26204103"
         id="stop4499" />
      <stop
         id="stop4501"
         offset="0.33366296"
         style="stop-color:#ff546d;stop-opacity:1" />
      <stop
         style="stop-color:#fce761;stop-opacity:1"
         offset="0.41433662"
         id="stop4440" />
      <stop
         id="stop4509"
         offset="0.46176195"
         style="stop-color:#c5b083;stop-opacity:1" />
      <stop
         id="stop4444"
         offset="0.50918728"
         style="stop-color:#ecb9b3;stop-opacity:1" />
      <stop
         id="stop4426"
         offset="0.58730453"
         style="stop-color:#95b497;stop-opacity:1" />
      <stop
         style="stop-color:#3b4086;stop-opacity:1"
         offset="0.65638155"
         id="stop4432" />
      <stop
         id="stop4436"
         offset="0.71932721"
         style="stop-color:#aa928c;stop-opacity:1" />
      <stop
         style="stop-color:#fac533;stop-opacity:1"
         offset="0.77831185"
         id="stop4428" />
      <stop
         id="stop4434"
         offset="0.83064002"
         style="stop-color:#46cea0;stop-opacity:1" />
      <stop
         id="stop4430"
         offset="0.89698595"
         style="stop-color:#d2d373;stop-opacity:1" />
      <stop
         style="stop-color:#bd7c7d;stop-opacity:1"
         offset="1"
         id="stop4182" />
    </linearGradient>
    <linearGradient
       inkscape:collect="always"
       xlink:href="#linearGradient4178"
       id="linearGradient4446"
       x1="-1402"
       y1="3247.9421"
       x2="-1398"
       y2="-50.494907"
       gradientUnits="userSpaceOnUse"
       gradientTransform="matrix(1.0192308,0,0,1.5626643,-989.44256,-989.82206)" />
  </defs>
  <sodipodi:namedview
     id="base"
     pagecolor="#ffffff"
     bordercolor="#666666"
     borderopacity="1.0"
     inkscape:pageopacity="0.0"
     inkscape:pageshadow="2"
     inkscape:zoom="0.12374369"
     inkscape:cx="-4281.8991"
     inkscape:cy="261.3971"
     inkscape:document-units="px"
     inkscape:current-layer="layer1"
     showgrid="false"
     inkscape:window-width="1366"
     inkscape:window-height="669"
     inkscape:window-x="1600"
     inkscape:window-y="28"
     inkscape:window-maximized="1" />
  <metadata
     id="metadata7">
    <rdf:RDF>
      <cc:Work
         rdf:about="">
        <dc:format>image/svg+xml</dc:format>
        <dc:type
           rdf:resource="http://purl.org/dc/dcmitype/StillImage" />
        <dc:title />
      </cc:Work>
    </rdf:RDF>
  </metadata>
  <g
     inkscape:label="Layer 1"
     inkscape:groupmode="layer"
     id="layer1">
    <rect
       style="color:#000000;clip-rule:nonzero;display:inline;overflow:visible;visibility:visible;opacity:1;isolation:auto;mix-blend-mode:normal;color-interpolation:sRGB;color-interpolation-filters:linearRGB;solid-color:#000000;solid-opacity:1;fill:url(#linearGradient4446);fill-opacity:1;fill-rule:nonzero;stroke:none;stroke-width:4;stroke-linecap:butt;stroke-linejoin:round;stroke-miterlimit:0;stroke-dasharray:none;stroke-dashoffset:28.077528;stroke-opacity:1;color-rendering:auto;image-rendering:auto;shape-rendering:auto;text-rendering:auto;enable-background:accumulate"
       id="rect4176"
       width="302.85718"
       height="5177.1431"
       x="-2515.3765"
       y="-1068.7288" />
    <g
       id="g4300"
       transform="translate(0,388.57143)">
      <path
         inkscape:connector-curvature="0"
         id="rect4136"
         d="m -3765.7142,2209.505 134.2857,0 0,268.5715 -134.2857,0 z"
         style="color:#000000;clip-rule:nonzero;display:inline;overflow:visible;visibility:visible;opacity:1;isolation:auto;mix-blend-mode:normal;color-interpolation:sRGB;color-interpolation-filters:linearRGB;solid-color:#000000;solid-opacity:1;fill:#bca658;fill-opacity:1;fill-rule:nonzero;stroke:#bca658;stroke-width:4;stroke-linecap:butt;stroke-linejoin:round;stroke-miterlimit:0;stroke-dasharray:none;stroke-dashoffset:28.077528;stroke-opacity:0;color-rendering:auto;image-rendering:auto;shape-rendering:auto;text-rendering:auto;enable-background:accumulate" />
      <path
         inkscape:connector-curvature="0"
         id="rect4136-3"
         d="m -3608.5713,2212.3622 122.8571,0 0,268.5714 -122.8571,0 z"
         style="color:#000000;clip-rule:nonzero;display:inline;overflow:visible;visibility:visible;opacity:1;isolation:auto;mix-blend-mode:normal;color-interpolation:sRGB;color-interpolation-filters:linearRGB;solid-color:#000000;solid-opacity:1;fill:#440203;fill-opacity:1;fill-rule:nonzero;stroke:#bca658;stroke-width:4;stroke-linecap:butt;stroke-linejoin:round;stroke-miterlimit:0;stroke-dasharray:none;stroke-dashoffset:28.077528;stroke-opacity:0;color-rendering:auto;image-rendering:auto;shape-rendering:auto;text-rendering:auto;enable-background:accumulate" />
      <path
         inkscape:connector-curvature="0"
         id="rect4136-3-6"
         d="m -3464.2856,2215.2193 122.8571,0 0,268.5715 -122.8571,0 z"
         style="color:#000000;clip-rule:nonzero;display:inline;overflow:visible;visibility:visible;opacity:1;isolation:auto;mix-blend-mode:normal;color-interpolation:sRGB;color-interpolation-filters:linearRGB;solid-color:#000000;solid-opacity:1;fill:#72572d;fill-opacity:1;fill-rule:nonzero;stroke:#bca658;stroke-width:4;stroke-linecap:butt;stroke-linejoin:round;stroke-miterlimit:0;stroke-dasharray:none;stroke-dashoffset:28.077528;stroke-opacity:0;color-rendering:auto;image-rendering:auto;shape-rendering:auto;text-rendering:auto;enable-background:accumulate" />
      <flowRoot
         transform="translate(222.85715,1977.1428)"
         style="font-style:normal;font-weight:normal;font-size:40px;line-height:1000%;font-family:sans-serif;letter-spacing:0px;word-spacing:0px;fill:#000000;fill-opacity:1;stroke:none;stroke-width:1px;stroke-linecap:butt;stroke-linejoin:miter;stroke-opacity:1"
         id="flowRoot4188"
         xml:space="preserve"><flowRegion
           id="flowRegion4190"><rect
             y="-181.92351"
             x="-4794.2856"
             height="651.42859"
             width="805.71429"
             id="rect4192" /></flowRegion><flowPara
           style="font-size:70px"
           id="flowPara4194">Les loups</flowPara></flowRoot>    </g>
    <g
       id="g4309"
       transform="translate(0,388.57143)">
      <path
         inkscape:connector-curvature="0"
         id="rect4136-3-6-7"
         d="m -3461.4285,2520.9336 122.8572,0 0,268.5715 -122.8572,0 z"
         style="color:#000000;clip-rule:nonzero;display:inline;overflow:visible;visibility:visible;opacity:1;isolation:auto;mix-blend-mode:normal;color-interpolation:sRGB;color-interpolation-filters:linearRGB;solid-color:#000000;solid-opacity:1;fill:#797255;fill-opacity:1;fill-rule:nonzero;stroke:#bca658;stroke-width:4;stroke-linecap:butt;stroke-linejoin:round;stroke-miterlimit:0;stroke-dasharray:none;stroke-dashoffset:28.077528;stroke-opacity:0;color-rendering:auto;image-rendering:auto;shape-rendering:auto;text-rendering:auto;enable-background:accumulate" />
      <path
         inkscape:connector-curvature="0"
         id="rect4136-3-6-7-5"
         d="m -3761.4285,2518.0765 122.8572,0 0,268.5715 -122.8572,0 z"
         style="color:#000000;clip-rule:nonzero;display:inline;overflow:visible;visibility:visible;opacity:1;isolation:auto;mix-blend-mode:normal;color-interpolation:sRGB;color-interpolation-filters:linearRGB;solid-color:#000000;solid-opacity:1;fill:#c5b083;fill-opacity:1;fill-rule:nonzero;stroke:#bca658;stroke-width:4;stroke-linecap:butt;stroke-linejoin:round;stroke-miterlimit:0;stroke-dasharray:none;stroke-dashoffset:28.077528;stroke-opacity:0;color-rendering:auto;image-rendering:auto;shape-rendering:auto;text-rendering:auto;enable-background:accumulate" />
      <path
         inkscape:connector-curvature="0"
         id="rect4136-3-6-7-5-3"
         d="m -3612.8571,2523.7908 122.8572,0 0,268.5715 -122.8572,0 z"
         style="color:#000000;clip-rule:nonzero;display:inline;overflow:visible;visibility:visible;opacity:1;isolation:auto;mix-blend-mode:normal;color-interpolation:sRGB;color-interpolation-filters:linearRGB;solid-color:#000000;solid-opacity:1;fill:#ffee9e;fill-opacity:1;fill-rule:nonzero;stroke:#bca658;stroke-width:4;stroke-linecap:butt;stroke-linejoin:round;stroke-miterlimit:0;stroke-dasharray:none;stroke-dashoffset:28.077528;stroke-opacity:0;color-rendering:auto;image-rendering:auto;shape-rendering:auto;text-rendering:auto;enable-background:accumulate" />
      <path
         inkscape:transform-center-y="17.142857"
         inkscape:transform-center-x="185.71429"
         inkscape:connector-curvature="0"
         id="rect4136-3-6-7-6"
         d="m -3309.9999,2529.505 122.8571,0 0,268.5715 -122.8571,0 z"
         style="color:#000000;clip-rule:nonzero;display:inline;overflow:visible;visibility:visible;opacity:1;isolation:auto;mix-blend-mode:normal;color-interpolation:sRGB;color-interpolation-filters:linearRGB;solid-color:#000000;solid-opacity:1;fill:#c6a545;fill-opacity:1;fill-rule:nonzero;stroke:#bca658;stroke-width:4;stroke-linecap:butt;stroke-linejoin:round;stroke-miterlimit:0;stroke-dasharray:none;stroke-dashoffset:28.077528;stroke-opacity:0;color-rendering:auto;image-rendering:auto;shape-rendering:auto;text-rendering:auto;enable-background:accumulate" />
      <flowRoot
         transform="translate(217.56363,2312.5609)"
         style="font-style:normal;font-weight:normal;font-size:40px;line-height:1000%;font-family:sans-serif;letter-spacing:0px;word-spacing:0px;fill:#000000;fill-opacity:1;stroke:none;stroke-width:1px;stroke-linecap:butt;stroke-linejoin:miter;stroke-opacity:1"
         id="flowRoot4188-3"
         xml:space="preserve"><flowRegion
           id="flowRegion4190-6"><rect
             y="-181.92351"
             x="-4794.2856"
             height="651.42859"
             width="805.71429"
             id="rect4192-7" /></flowRegion><flowPara
           style="font-size:70px"
           id="flowPara4194-5">trilogie de rome</flowPara><flowPara
           id="flowPara4220"
           style="font-size:70px" /></flowRoot>    </g>
    <g
       id="g4279"
       transform="translate(22.857142,-514.28572)">
      <path
         inkscape:connector-curvature="0"
         id="rect4136-3-6-7-5-3-5"
         d="m -3758.5714,1869.5051 122.8572,0 0,268.5715 -122.8572,0 z"
         style="color:#000000;clip-rule:nonzero;display:inline;overflow:visible;visibility:visible;opacity:1;isolation:auto;mix-blend-mode:normal;color-interpolation:sRGB;color-interpolation-filters:linearRGB;solid-color:#000000;solid-opacity:1;fill:#ecb9b3;fill-opacity:1;fill-rule:nonzero;stroke:#bca658;stroke-width:4;stroke-linecap:butt;stroke-linejoin:round;stroke-miterlimit:0;stroke-dasharray:none;stroke-dashoffset:28.077528;stroke-opacity:0;color-rendering:auto;image-rendering:auto;shape-rendering:auto;text-rendering:auto;enable-background:accumulate" />
      <path
         inkscape:connector-curvature="0"
         id="rect4136-3-6-7-5-3-5-1"
         d="m -3604.2857,1863.7908 122.8572,0 0,268.5715 -122.8572,0 z"
         style="color:#000000;clip-rule:nonzero;display:inline;overflow:visible;visibility:visible;opacity:1;isolation:auto;mix-blend-mode:normal;color-interpolation:sRGB;color-interpolation-filters:linearRGB;solid-color:#000000;solid-opacity:1;fill:#ff4f35;fill-opacity:1;fill-rule:nonzero;stroke:#bca658;stroke-width:4;stroke-linecap:butt;stroke-linejoin:round;stroke-miterlimit:0;stroke-dasharray:none;stroke-dashoffset:28.077528;stroke-opacity:0;color-rendering:auto;image-rendering:auto;shape-rendering:auto;text-rendering:auto;enable-background:accumulate" />
      <path
         inkscape:connector-curvature="0"
         id="rect4136-3-6-7-5-3-5-1-2"
         d="m -3458.5714,1866.648 122.8571,0 0,268.5714 -122.8571,0 z"
         style="color:#000000;clip-rule:nonzero;display:inline;overflow:visible;visibility:visible;opacity:1;isolation:auto;mix-blend-mode:normal;color-interpolation:sRGB;color-interpolation-filters:linearRGB;solid-color:#000000;solid-opacity:1;fill:#46cea0;fill-opacity:1;fill-rule:nonzero;stroke:#bca658;stroke-width:4;stroke-linecap:butt;stroke-linejoin:round;stroke-miterlimit:0;stroke-dasharray:none;stroke-dashoffset:28.077528;stroke-opacity:0;color-rendering:auto;image-rendering:auto;shape-rendering:auto;text-rendering:auto;enable-background:accumulate" />
      <path
         inkscape:connector-curvature="0"
         id="rect4136-3-6-7-5-3-5-1-2-9"
         d="m -3301.4286,1863.7908 122.8572,0 0,268.5715 -122.8572,0 z"
         style="color:#000000;clip-rule:nonzero;display:inline;overflow:visible;visibility:visible;opacity:1;isolation:auto;mix-blend-mode:normal;color-interpolation:sRGB;color-interpolation-filters:linearRGB;solid-color:#000000;solid-opacity:1;fill:#343594;fill-opacity:1;fill-rule:nonzero;stroke:#bca658;stroke-width:4;stroke-linecap:butt;stroke-linejoin:round;stroke-miterlimit:0;stroke-dasharray:none;stroke-dashoffset:28.077528;stroke-opacity:0;color-rendering:auto;image-rendering:auto;shape-rendering:auto;text-rendering:auto;enable-background:accumulate" />
      <path
         inkscape:connector-curvature="0"
         id="rect4136-3-6-7-5-3-5-1-2-9-3"
         d="m -3167.1429,1860.9337 122.8572,0 0,268.5714 -122.8572,0 z"
         style="color:#000000;clip-rule:nonzero;display:inline;overflow:visible;visibility:visible;opacity:1;isolation:auto;mix-blend-mode:normal;color-interpolation:sRGB;color-interpolation-filters:linearRGB;solid-color:#000000;solid-opacity:1;fill:#fac533;fill-opacity:1;fill-rule:nonzero;stroke:#bca658;stroke-width:4;stroke-linecap:butt;stroke-linejoin:round;stroke-miterlimit:0;stroke-dasharray:none;stroke-dashoffset:28.077528;stroke-opacity:0;color-rendering:auto;image-rendering:auto;shape-rendering:auto;text-rendering:auto;enable-background:accumulate" />
      <flowRoot
         transform="translate(237.17118,1643.1324)"
         style="font-style:normal;font-weight:normal;font-size:40px;line-height:1000%;font-family:sans-serif;letter-spacing:0px;word-spacing:0px;fill:#000000;fill-opacity:1;stroke:none;stroke-width:1px;stroke-linecap:butt;stroke-linejoin:miter;stroke-opacity:1"
         id="flowRoot4188-3-3"
         xml:space="preserve"><flowRegion
           id="flowRegion4190-6-5"><rect
             y="-181.92351"
             x="-4794.2856"
             height="651.42859"
             width="805.71429"
             id="rect4192-7-6" /></flowRegion><flowPara
           id="flowPara4220-9"
           style="font-size:70px">Fortunes de la viande</flowPara></flowRoot>    </g>
    <g
       id="g4290"
       transform="translate(17.142857,-1051.4286)">
      <path
         inkscape:connector-curvature="0"
         id="rect4136-3-6-7-5-3-5-6-2"
         d="m -3790,2958.0765 122.8572,0 0,268.5715 -122.8572,0 z"
         style="color:#000000;clip-rule:nonzero;display:inline;overflow:visible;visibility:visible;opacity:1;isolation:auto;mix-blend-mode:normal;color-interpolation:sRGB;color-interpolation-filters:linearRGB;solid-color:#000000;solid-opacity:1;fill:#fce761;fill-opacity:1;fill-rule:nonzero;stroke:#bca658;stroke-width:4;stroke-linecap:butt;stroke-linejoin:round;stroke-miterlimit:0;stroke-dasharray:none;stroke-dashoffset:28.077528;stroke-opacity:0;color-rendering:auto;image-rendering:auto;shape-rendering:auto;text-rendering:auto;enable-background:accumulate" />
      <path
         inkscape:connector-curvature="0"
         id="rect4136-3-6-7-5-3-5-6-2-9"
         d="m -3644.2857,2955.2194 122.8572,0 0,268.5714 -122.8572,0 z"
         style="color:#000000;clip-rule:nonzero;display:inline;overflow:visible;visibility:visible;opacity:1;isolation:auto;mix-blend-mode:normal;color-interpolation:sRGB;color-interpolation-filters:linearRGB;solid-color:#000000;solid-opacity:1;fill:#616d46;fill-opacity:1;fill-rule:nonzero;stroke:#bca658;stroke-width:4;stroke-linecap:butt;stroke-linejoin:round;stroke-miterlimit:0;stroke-dasharray:none;stroke-dashoffset:28.077528;stroke-opacity:0;color-rendering:auto;image-rendering:auto;shape-rendering:auto;text-rendering:auto;enable-background:accumulate" />
      <path
         inkscape:transform-center-y="-88.571429"
         inkscape:transform-center-x="197.14286"
         inkscape:connector-curvature="0"
         id="rect4136-3-6-7-5-3-5-6-2-9-1"
         d="m -3501.4285,2949.5051 122.8571,0 0,268.5714 -122.8571,0 z"
         style="color:#000000;clip-rule:nonzero;display:inline;overflow:visible;visibility:visible;opacity:1;isolation:auto;mix-blend-mode:normal;color-interpolation:sRGB;color-interpolation-filters:linearRGB;solid-color:#000000;solid-opacity:1;fill:#393f53;fill-opacity:1;fill-rule:nonzero;stroke:#bca658;stroke-width:4;stroke-linecap:butt;stroke-linejoin:round;stroke-miterlimit:0;stroke-dasharray:none;stroke-dashoffset:28.077528;stroke-opacity:0;color-rendering:auto;image-rendering:auto;shape-rendering:auto;text-rendering:auto;enable-background:accumulate" />
      <flowRoot
         transform="translate(216.65402,2739.3456)"
         style="font-style:normal;font-weight:normal;font-size:40px;line-height:1000%;font-family:sans-serif;letter-spacing:0px;word-spacing:0px;fill:#000000;fill-opacity:1;stroke:none;stroke-width:1px;stroke-linecap:butt;stroke-linejoin:miter;stroke-opacity:1"
         id="flowRoot4188-3-3-1"
         xml:space="preserve"><flowRegion
           id="flowRegion4190-6-5-2"><rect
             y="-181.92351"
             x="-4794.2856"
             height="651.42859"
             width="805.71429"
             id="rect4192-7-6-7" /></flowRegion><flowPara
           id="flowPara4220-9-0"
           style="font-size:70px">i-clit</flowPara><flowPara
           id="flowPara4275"
           style="font-size:70px" /></flowRoot>    </g>
    <g
       id="g4262"
       transform="translate(-131.42858,-817.14285)">
      <path
         inkscape:connector-curvature="0"
         id="rect4136-3-6-7-5-3-5-6"
         d="m -3450,1123.7908 122.8572,0 0,268.5714 -122.8572,0 z"
         style="color:#000000;clip-rule:nonzero;display:inline;overflow:visible;visibility:visible;opacity:1;isolation:auto;mix-blend-mode:normal;color-interpolation:sRGB;color-interpolation-filters:linearRGB;solid-color:#000000;solid-opacity:1;fill:#966263;fill-opacity:1;fill-rule:nonzero;stroke:#bca658;stroke-width:4;stroke-linecap:butt;stroke-linejoin:round;stroke-miterlimit:0;stroke-dasharray:none;stroke-dashoffset:28.077528;stroke-opacity:0;color-rendering:auto;image-rendering:auto;shape-rendering:auto;text-rendering:auto;enable-background:accumulate" />
      <path
         inkscape:transform-center-y="-88.571429"
         inkscape:transform-center-x="197.14286"
         inkscape:connector-curvature="0"
         id="rect4136-3-6-7-5-3-5-6-2-9-1-2"
         d="m -3592.8571,1115.2193 122.8571,0 0,268.5715 -122.8571,0 z"
         style="color:#000000;clip-rule:nonzero;display:inline;overflow:visible;visibility:visible;opacity:1;isolation:auto;mix-blend-mode:normal;color-interpolation:sRGB;color-interpolation-filters:linearRGB;solid-color:#000000;solid-opacity:1;fill:#8d8888;fill-opacity:1;fill-rule:nonzero;stroke:#bca658;stroke-width:4;stroke-linecap:butt;stroke-linejoin:round;stroke-miterlimit:0;stroke-dasharray:none;stroke-dashoffset:28.077528;stroke-opacity:0;color-rendering:auto;image-rendering:auto;shape-rendering:auto;text-rendering:auto;enable-background:accumulate" />
      <path
         inkscape:transform-center-y="-88.571429"
         inkscape:transform-center-x="197.14286"
         inkscape:connector-curvature="0"
         id="rect4136-3-6-7-5-3-5-6-2-9-1-2-7"
         d="m -3295.7143,1138.0765 122.8572,0 0,268.5715 -122.8572,0 z"
         style="color:#000000;clip-rule:nonzero;display:inline;overflow:visible;visibility:visible;opacity:1;isolation:auto;mix-blend-mode:normal;color-interpolation:sRGB;color-interpolation-filters:linearRGB;solid-color:#000000;solid-opacity:1;fill:#aa928c;fill-opacity:1;fill-rule:nonzero;stroke:#bca658;stroke-width:4;stroke-linecap:butt;stroke-linejoin:round;stroke-miterlimit:0;stroke-dasharray:none;stroke-dashoffset:28.077528;stroke-opacity:0;color-rendering:auto;image-rendering:auto;shape-rendering:auto;text-rendering:auto;enable-background:accumulate" />
      <flowRoot
         transform="translate(431.34187,880.48841)"
         style="font-style:normal;font-weight:normal;font-size:40px;line-height:1000%;font-family:sans-serif;letter-spacing:0px;word-spacing:0px;fill:#000000;fill-opacity:1;stroke:none;stroke-width:1px;stroke-linecap:butt;stroke-linejoin:miter;stroke-opacity:1"
         id="flowRoot4188-3-3-1-9"
         xml:space="preserve"><flowRegion
           id="flowRegion4190-6-5-2-3"><rect
             y="-181.92351"
             x="-4794.2856"
             height="651.42859"
             width="805.71429"
             id="rect4192-7-6-7-6" /></flowRegion><flowPara
           id="flowPara4275-6"
           style="font-size:70px">Lettre volée</flowPara></flowRoot>    </g>
    <g
       id="g4271"
       transform="translate(17.142857,-1514.2857)">
      <path
         inkscape:transform-center-y="-88.571429"
         inkscape:transform-center-x="197.14286"
         inkscape:connector-curvature="0"
         id="rect4136-3-6-7-5-3-5-6-2-9-1-2-7-0-9"
         d="m -3741.4285,2135.2193 122.8571,0 0,268.5715 -122.8571,0 z"
         style="color:#000000;clip-rule:nonzero;display:inline;overflow:visible;visibility:visible;opacity:1;isolation:auto;mix-blend-mode:normal;color-interpolation:sRGB;color-interpolation-filters:linearRGB;solid-color:#000000;solid-opacity:1;fill:#d96052;fill-opacity:1;fill-rule:nonzero;stroke:#bca658;stroke-width:4;stroke-linecap:butt;stroke-linejoin:round;stroke-miterlimit:0;stroke-dasharray:none;stroke-dashoffset:28.077528;stroke-opacity:0;color-rendering:auto;image-rendering:auto;shape-rendering:auto;text-rendering:auto;enable-background:accumulate" />
      <path
         inkscape:transform-center-y="-88.571429"
         inkscape:transform-center-x="197.14286"
         inkscape:connector-curvature="0"
         id="rect4136-3-6-7-5-3-5-6-2-9-1-2-7-0-9-3"
         d="m -3572.8571,2140.9336 122.8571,0 0,268.5715 -122.8571,0 z"
         style="color:#000000;clip-rule:nonzero;display:inline;overflow:visible;visibility:visible;opacity:1;isolation:auto;mix-blend-mode:normal;color-interpolation:sRGB;color-interpolation-filters:linearRGB;solid-color:#000000;solid-opacity:1;fill:#3b4086;fill-opacity:1;fill-rule:nonzero;stroke:#bca658;stroke-width:4;stroke-linecap:butt;stroke-linejoin:round;stroke-miterlimit:0;stroke-dasharray:none;stroke-dashoffset:28.077528;stroke-opacity:0;color-rendering:auto;image-rendering:auto;shape-rendering:auto;text-rendering:auto;enable-background:accumulate" />
      <flowRoot
         transform="translate(265.31585,1923.0326)"
         style="font-style:normal;font-weight:normal;font-size:40px;line-height:1000%;font-family:sans-serif;letter-spacing:0px;word-spacing:0px;fill:#000000;fill-opacity:1;stroke:none;stroke-width:1px;stroke-linecap:butt;stroke-linejoin:miter;stroke-opacity:1"
         id="flowRoot4188-3-3-1-9-2"
         xml:space="preserve"><flowRegion
           id="flowRegion4190-6-5-2-3-6"><rect
             y="-181.92351"
             x="-4794.2856"
             height="651.42859"
             width="805.71429"
             id="rect4192-7-6-7-6-1" /></flowRegion><flowPara
           id="flowPara4275-6-8"
           style="font-size:70px">should I stay</flowPara></flowRoot>    </g>
    <g
       id="g4320"
       transform="translate(-28.571429,348.57143)">
      <path
         inkscape:transform-center-y="-88.571429"
         inkscape:transform-center-x="197.14286"
         inkscape:connector-curvature="0"
         id="rect4136-3-6-7-5-3-5-6-2-9-1-2-7-0"
         d="m -3775.7142,3260.9335 122.8571,0 0,268.5715 -122.8571,0 z"
         style="color:#000000;clip-rule:nonzero;display:inline;overflow:visible;visibility:visible;opacity:1;isolation:auto;mix-blend-mode:normal;color-interpolation:sRGB;color-interpolation-filters:linearRGB;solid-color:#000000;solid-opacity:1;fill:#69351b;fill-opacity:1;fill-rule:nonzero;stroke:#bca658;stroke-width:4;stroke-linecap:butt;stroke-linejoin:round;stroke-miterlimit:0;stroke-dasharray:none;stroke-dashoffset:28.077528;stroke-opacity:0;color-rendering:auto;image-rendering:auto;shape-rendering:auto;text-rendering:auto;enable-background:accumulate" />
      <path
         inkscape:transform-center-y="-88.571429"
         inkscape:transform-center-x="197.14286"
         inkscape:connector-curvature="0"
         id="rect4136-3-6-7-5-3-5-6-2-9-1-2-7-0-9-3-6"
         d="m -3618.5714,3266.6478 122.8572,0 0,268.5715 -122.8572,0 z"
         style="color:#000000;clip-rule:nonzero;display:inline;overflow:visible;visibility:visible;opacity:1;isolation:auto;mix-blend-mode:normal;color-interpolation:sRGB;color-interpolation-filters:linearRGB;solid-color:#000000;solid-opacity:1;fill:#4c4b51;fill-opacity:1;fill-rule:nonzero;stroke:#bca658;stroke-width:4;stroke-linecap:butt;stroke-linejoin:round;stroke-miterlimit:0;stroke-dasharray:none;stroke-dashoffset:28.077528;stroke-opacity:0;color-rendering:auto;image-rendering:auto;shape-rendering:auto;text-rendering:auto;enable-background:accumulate" />
      <path
         inkscape:transform-center-y="-88.571429"
         inkscape:transform-center-x="197.14286"
         inkscape:connector-curvature="0"
         id="rect4136-3-6-7-5-3-5-6-2-9-1-2-7-0-9-3-6-0"
         d="m -3475.7142,3263.7906 122.8571,0 0,268.5715 -122.8571,0 z"
         style="color:#000000;clip-rule:nonzero;display:inline;overflow:visible;visibility:visible;opacity:1;isolation:auto;mix-blend-mode:normal;color-interpolation:sRGB;color-interpolation-filters:linearRGB;solid-color:#000000;solid-opacity:1;fill:#799591;fill-opacity:1;fill-rule:nonzero;stroke:#bca658;stroke-width:4;stroke-linecap:butt;stroke-linejoin:round;stroke-miterlimit:0;stroke-dasharray:none;stroke-dashoffset:28.077528;stroke-opacity:0;color-rendering:auto;image-rendering:auto;shape-rendering:auto;text-rendering:auto;enable-background:accumulate" />
      <path
         inkscape:transform-center-y="-88.571429"
         inkscape:transform-center-x="197.14286"
         inkscape:connector-curvature="0"
         id="rect4136-3-6-7-5-3-5-6-2-9-1-2-7-0-9-3-6-0-6"
         d="m -3321.4285,3269.5049 122.8572,0 0,268.5715 -122.8572,0 z"
         style="color:#000000;clip-rule:nonzero;display:inline;overflow:visible;visibility:visible;opacity:1;isolation:auto;mix-blend-mode:normal;color-interpolation:sRGB;color-interpolation-filters:linearRGB;solid-color:#000000;solid-opacity:1;fill:#5f4533;fill-opacity:1;fill-rule:nonzero;stroke:#bca658;stroke-width:4;stroke-linecap:butt;stroke-linejoin:round;stroke-miterlimit:0;stroke-dasharray:none;stroke-dashoffset:28.077528;stroke-opacity:0;color-rendering:auto;image-rendering:auto;shape-rendering:auto;text-rendering:auto;enable-background:accumulate" />
      <path
         inkscape:transform-center-y="-88.571429"
         inkscape:transform-center-x="197.14286"
         inkscape:connector-curvature="0"
         id="rect4136-3-6-7-5-3-5-6-2-9-1-2-7-0-9-3-6-0-6-2"
         d="m -3181.4285,3260.9335 122.8572,0 0,268.5715 -122.8572,0 z"
         style="color:#000000;clip-rule:nonzero;display:inline;overflow:visible;visibility:visible;opacity:1;isolation:auto;mix-blend-mode:normal;color-interpolation:sRGB;color-interpolation-filters:linearRGB;solid-color:#000000;solid-opacity:1;fill:#c6ccc7;fill-opacity:1;fill-rule:nonzero;stroke:#bca658;stroke-width:4;stroke-linecap:butt;stroke-linejoin:round;stroke-miterlimit:0;stroke-dasharray:none;stroke-dashoffset:28.077528;stroke-opacity:0;color-rendering:auto;image-rendering:auto;shape-rendering:auto;text-rendering:auto;enable-background:accumulate" />
      <flowRoot
         transform="translate(250.64746,3035.418)"
         style="font-style:normal;font-weight:normal;font-size:40px;line-height:1000%;font-family:sans-serif;letter-spacing:0px;word-spacing:0px;fill:#000000;fill-opacity:1;stroke:none;stroke-width:1px;stroke-linecap:butt;stroke-linejoin:miter;stroke-opacity:1"
         id="flowRoot4188-3-3-1-9-2-7"
         xml:space="preserve"><flowRegion
           id="flowRegion4190-6-5-2-3-6-9"><rect
             y="-181.92351"
             x="-4794.2856"
             height="651.42859"
             width="805.71429"
             id="rect4192-7-6-7-6-1-2" /></flowRegion><flowPara
           id="flowPara4275-6-8-0"
           style="font-size:70px">on pense à vous</flowPara></flowRoot>    </g>
    <g
       id="g4331"
       transform="translate(5.7142857,-1360)">
      <path
         inkscape:transform-center-y="-88.571429"
         inkscape:transform-center-x="197.14286"
         inkscape:connector-curvature="0"
         id="rect4136-3-6-7-5-3-5-6-2-9-1-2-7-0-9-3-6-6"
         d="m -3775.7142,3615.2193 122.8572,0 0,268.5715 -122.8572,0 z"
         style="color:#000000;clip-rule:nonzero;display:inline;overflow:visible;visibility:visible;opacity:1;isolation:auto;mix-blend-mode:normal;color-interpolation:sRGB;color-interpolation-filters:linearRGB;solid-color:#000000;solid-opacity:1;fill:#545178;fill-opacity:1;fill-rule:nonzero;stroke:#bca658;stroke-width:4;stroke-linecap:butt;stroke-linejoin:round;stroke-miterlimit:0;stroke-dasharray:none;stroke-dashoffset:28.077528;stroke-opacity:0;color-rendering:auto;image-rendering:auto;shape-rendering:auto;text-rendering:auto;enable-background:accumulate" />
      <path
         inkscape:transform-center-y="-88.571429"
         inkscape:transform-center-x="197.14286"
         inkscape:connector-curvature="0"
         id="rect4136-3-6-7-5-3-5-6-2-9-1-2-7-0-9-3-6-6-1"
         d="m -3635.7142,3626.6478 122.8571,0 0,268.5715 -122.8571,0 z"
         style="color:#000000;clip-rule:nonzero;display:inline;overflow:visible;visibility:visible;opacity:1;isolation:auto;mix-blend-mode:normal;color-interpolation:sRGB;color-interpolation-filters:linearRGB;solid-color:#000000;solid-opacity:1;fill:#ff546d;fill-opacity:1;fill-rule:nonzero;stroke:#bca658;stroke-width:4;stroke-linecap:butt;stroke-linejoin:round;stroke-miterlimit:0;stroke-dasharray:none;stroke-dashoffset:28.077528;stroke-opacity:0;color-rendering:auto;image-rendering:auto;shape-rendering:auto;text-rendering:auto;enable-background:accumulate" />
      <path
         inkscape:transform-center-y="-88.571429"
         inkscape:transform-center-x="197.14286"
         inkscape:connector-curvature="0"
         id="rect4136-3-6-7-5-3-5-6-2-9-1-2-7-0-9-3-6-6-1-8"
         d="m -3464.2857,3615.2192 122.8572,0 0,268.5715 -122.8572,0 z"
         style="color:#000000;clip-rule:nonzero;display:inline;overflow:visible;visibility:visible;opacity:1;isolation:auto;mix-blend-mode:normal;color-interpolation:sRGB;color-interpolation-filters:linearRGB;solid-color:#000000;solid-opacity:1;fill:#ff342d;fill-opacity:1;fill-rule:nonzero;stroke:#bca658;stroke-width:4;stroke-linecap:butt;stroke-linejoin:round;stroke-miterlimit:0;stroke-dasharray:none;stroke-dashoffset:28.077528;stroke-opacity:0;color-rendering:auto;image-rendering:auto;shape-rendering:auto;text-rendering:auto;enable-background:accumulate" />
      <path
         inkscape:transform-center-y="-88.571429"
         inkscape:transform-center-x="197.14286"
         inkscape:connector-curvature="0"
         id="rect4136-3-6-7-5-3-5-6-2-9-1-2-7-0-9-3-6-6-1-8-7"
         d="m -3324.2857,3623.7907 122.8572,0 0,268.5715 -122.8572,0 z"
         style="color:#000000;clip-rule:nonzero;display:inline;overflow:visible;visibility:visible;opacity:1;isolation:auto;mix-blend-mode:normal;color-interpolation:sRGB;color-interpolation-filters:linearRGB;solid-color:#000000;solid-opacity:1;fill:#e8dab3;fill-opacity:1;fill-rule:nonzero;stroke:#bca658;stroke-width:4;stroke-linecap:butt;stroke-linejoin:round;stroke-miterlimit:0;stroke-dasharray:none;stroke-dashoffset:28.077528;stroke-opacity:0;color-rendering:auto;image-rendering:auto;shape-rendering:auto;text-rendering:auto;enable-background:accumulate" />
      <path
         inkscape:transform-center-y="-88.571429"
         inkscape:transform-center-x="197.14286"
         inkscape:connector-curvature="0"
         id="rect4136-3-6-7-5-3-5-6-2-9-1-2-7-0-9-3-6-6-9"
         d="m -3184.2857,3629.5049 122.8572,0 0,268.5715 -122.8572,0 z"
         style="color:#000000;clip-rule:nonzero;display:inline;overflow:visible;visibility:visible;opacity:1;isolation:auto;mix-blend-mode:normal;color-interpolation:sRGB;color-interpolation-filters:linearRGB;solid-color:#000000;solid-opacity:1;fill:#e7c4a1;fill-opacity:1;fill-rule:nonzero;stroke:#bca658;stroke-width:4;stroke-linecap:butt;stroke-linejoin:round;stroke-miterlimit:0;stroke-dasharray:none;stroke-dashoffset:28.077528;stroke-opacity:0;color-rendering:auto;image-rendering:auto;shape-rendering:auto;text-rendering:auto;enable-background:accumulate" />
      <path
         inkscape:transform-center-y="-88.571429"
         inkscape:transform-center-x="197.14286"
         inkscape:connector-curvature="0"
         id="rect4136-3-6-7-5-3-5-6-2-9-1-2-7-0-9-3-6-6-9-2"
         d="m -3024.2857,3640.9334 122.8572,0 0,268.5715 -122.8572,0 z"
         style="color:#000000;clip-rule:nonzero;display:inline;overflow:visible;visibility:visible;opacity:1;isolation:auto;mix-blend-mode:normal;color-interpolation:sRGB;color-interpolation-filters:linearRGB;solid-color:#000000;solid-opacity:1;fill:#787f6c;fill-opacity:1;fill-rule:nonzero;stroke:#bca658;stroke-width:4;stroke-linecap:butt;stroke-linejoin:round;stroke-miterlimit:0;stroke-dasharray:none;stroke-dashoffset:28.077528;stroke-opacity:0;color-rendering:auto;image-rendering:auto;shape-rendering:auto;text-rendering:auto;enable-background:accumulate" />
      <path
         inkscape:transform-center-y="-88.571429"
         inkscape:transform-center-x="197.14286"
         inkscape:connector-curvature="0"
         id="rect4136-3-6-7-5-3-5-6-2-9-1-2-7-0-9-3-6-6-9-2-0"
         d="m -2864.2856,3629.5049 122.8572,0 0,268.5715 -122.8572,0 z"
         style="color:#000000;clip-rule:nonzero;display:inline;overflow:visible;visibility:visible;opacity:1;isolation:auto;mix-blend-mode:normal;color-interpolation:sRGB;color-interpolation-filters:linearRGB;solid-color:#000000;solid-opacity:1;fill:#ff4f13;fill-opacity:1;fill-rule:nonzero;stroke:#bca658;stroke-width:4;stroke-linecap:butt;stroke-linejoin:round;stroke-miterlimit:0;stroke-dasharray:none;stroke-dashoffset:28.077528;stroke-opacity:0;color-rendering:auto;image-rendering:auto;shape-rendering:auto;text-rendering:auto;enable-background:accumulate" />
      <flowRoot
         transform="translate(218.67272,3391.105)"
         style="font-style:normal;font-weight:normal;font-size:40px;line-height:1000%;font-family:sans-serif;letter-spacing:0px;word-spacing:0px;fill:#000000;fill-opacity:1;stroke:none;stroke-width:1px;stroke-linecap:butt;stroke-linejoin:miter;stroke-opacity:1"
         id="flowRoot4188-3-3-1-9-2-7-2"
         xml:space="preserve"><flowRegion
           id="flowRegion4190-6-5-2-3-6-9-3"><rect
             y="-181.92351"
             x="-4794.2856"
             height="651.42859"
             width="805.71429"
             id="rect4192-7-6-7-6-1-2-7" /></flowRegion><flowPara
           id="flowPara4275-6-8-0-5"
           style="font-size:70px">etna</flowPara></flowRoot>    </g>
    <g
       id="g4239"
       transform="translate(-137.14286,-3508.5714)">
      <path
         inkscape:transform-center-y="-88.571429"
         inkscape:transform-center-x="197.14286"
         inkscape:connector-curvature="0"
         id="rect4136-3-6-7-5-3-5-6-2-9-1-2-7-0-9-3-6-6-9-2-0-2"
         d="m -3278.5714,2426.6478 122.8571,0 0,268.5715 -122.8571,0 z"
         style="color:#000000;clip-rule:nonzero;display:inline;overflow:visible;visibility:visible;opacity:1;isolation:auto;mix-blend-mode:normal;color-interpolation:sRGB;color-interpolation-filters:linearRGB;solid-color:#000000;solid-opacity:1;fill:#8a8aa8;fill-opacity:0.99215686;fill-rule:nonzero;stroke:#bca658;stroke-width:4;stroke-linecap:butt;stroke-linejoin:round;stroke-miterlimit:0;stroke-dasharray:none;stroke-dashoffset:28.077528;stroke-opacity:0;color-rendering:auto;image-rendering:auto;shape-rendering:auto;text-rendering:auto;enable-background:accumulate" />
      <path
         inkscape:transform-center-y="-88.571429"
         inkscape:transform-center-x="197.14286"
         inkscape:connector-curvature="0"
         id="rect4136-3-6-7-5-3-5-6-2-9-1-2-7-0-9-3-6-6-9-3"
         d="m -3592.8572,2426.6478 122.8572,0 0,268.5715 -122.8572,0 z"
         style="color:#000000;clip-rule:nonzero;display:inline;overflow:visible;visibility:visible;opacity:1;isolation:auto;mix-blend-mode:normal;color-interpolation:sRGB;color-interpolation-filters:linearRGB;solid-color:#000000;solid-opacity:1;fill:#457770;fill-opacity:1;fill-rule:nonzero;stroke:#bca658;stroke-width:4;stroke-linecap:butt;stroke-linejoin:round;stroke-miterlimit:0;stroke-dasharray:none;stroke-dashoffset:28.077528;stroke-opacity:0;color-rendering:auto;image-rendering:auto;shape-rendering:auto;text-rendering:auto;enable-background:accumulate" />
      <path
         inkscape:transform-center-y="-88.571429"
         inkscape:transform-center-x="197.14286"
         inkscape:connector-curvature="0"
         id="rect4136-3-6-7-5-3-5-6-2-9-1-2-7-0-9-3-6-6-9-3-7"
         d="m -3432.8572,2432.3621 122.8572,0 0,268.5715 -122.8572,0 z"
         style="color:#000000;clip-rule:nonzero;display:inline;overflow:visible;visibility:visible;opacity:1;isolation:auto;mix-blend-mode:normal;color-interpolation:sRGB;color-interpolation-filters:linearRGB;solid-color:#000000;solid-opacity:1;fill:#8fa5b9;fill-opacity:1;fill-rule:nonzero;stroke:#bca658;stroke-width:4;stroke-linecap:butt;stroke-linejoin:round;stroke-miterlimit:0;stroke-dasharray:none;stroke-dashoffset:28.077528;stroke-opacity:0;color-rendering:auto;image-rendering:auto;shape-rendering:auto;text-rendering:auto;enable-background:accumulate" />
      <path
         inkscape:transform-center-y="-88.571429"
         inkscape:transform-center-x="197.14286"
         inkscape:connector-curvature="0"
         id="rect4136-3-6-7-5-3-5-6-2-9-1-2-7-0-9-3-6-6-9-2-0-2-5"
         d="m -3127.1429,2423.7907 122.8572,0 0,268.5715 -122.8572,0 z"
         style="color:#000000;clip-rule:nonzero;display:inline;overflow:visible;visibility:visible;opacity:1;isolation:auto;mix-blend-mode:normal;color-interpolation:sRGB;color-interpolation-filters:linearRGB;solid-color:#000000;solid-opacity:1;fill:#ffffd9;fill-opacity:1;fill-rule:nonzero;stroke:#bca658;stroke-width:4;stroke-linecap:butt;stroke-linejoin:round;stroke-miterlimit:0;stroke-dasharray:none;stroke-dashoffset:28.077528;stroke-opacity:0;color-rendering:auto;image-rendering:auto;shape-rendering:auto;text-rendering:auto;enable-background:accumulate" />
      <path
         inkscape:transform-center-y="-88.571429"
         inkscape:transform-center-x="197.14286"
         inkscape:connector-curvature="0"
         id="rect4136-3-6-7-5-3-5-6-2-9-1-2-7-0-9-3-6-6-9-2-0-2-5-9"
         d="m -2981.4286,2426.6479 122.8572,0 0,268.5715 -122.8572,0 z"
         style="color:#000000;clip-rule:nonzero;display:inline;overflow:visible;visibility:visible;opacity:1;isolation:auto;mix-blend-mode:normal;color-interpolation:sRGB;color-interpolation-filters:linearRGB;solid-color:#000000;solid-opacity:1;fill:#f4c8b9;fill-opacity:1;fill-rule:nonzero;stroke:#bca658;stroke-width:4;stroke-linecap:butt;stroke-linejoin:round;stroke-miterlimit:0;stroke-dasharray:none;stroke-dashoffset:28.077528;stroke-opacity:0;color-rendering:auto;image-rendering:auto;shape-rendering:auto;text-rendering:auto;enable-background:accumulate" />
      <path
         inkscape:transform-center-y="-88.571429"
         inkscape:transform-center-x="197.14286"
         inkscape:connector-curvature="0"
         id="rect4136-3-6-7-5-3-5-6-2-9-1-2-7-0-9-3-6-6-9-2-0-2-5-9-2"
         d="m -2827.1429,2438.0764 122.8572,0 0,268.5715 -122.8572,0 z"
         style="color:#000000;clip-rule:nonzero;display:inline;overflow:visible;visibility:visible;opacity:1;isolation:auto;mix-blend-mode:normal;color-interpolation:sRGB;color-interpolation-filters:linearRGB;solid-color:#000000;solid-opacity:1;fill:#bd7c7d;fill-opacity:1;fill-rule:nonzero;stroke:#bca658;stroke-width:4;stroke-linecap:butt;stroke-linejoin:round;stroke-miterlimit:0;stroke-dasharray:none;stroke-dashoffset:28.077528;stroke-opacity:0;color-rendering:auto;image-rendering:auto;shape-rendering:auto;text-rendering:auto;enable-background:accumulate" />
      <flowRoot
         transform="translate(428.0233,2200.1861)"
         style="font-style:normal;font-weight:normal;font-size:40px;line-height:1000%;font-family:sans-serif;letter-spacing:0px;word-spacing:0px;fill:#000000;fill-opacity:1;stroke:none;stroke-width:1px;stroke-linecap:butt;stroke-linejoin:miter;stroke-opacity:1"
         id="flowRoot4188-3-3-1-9-2-7-2-9"
         xml:space="preserve"><flowRegion
           id="flowRegion4190-6-5-2-3-6-9-3-2"><rect
             y="-181.92351"
             x="-4794.2856"
             height="651.42859"
             width="805.71429"
             id="rect4192-7-6-7-6-1-2-7-2" /></flowRegion><flowPara
           id="flowPara4275-6-8-0-5-8"
           style="font-size:70px">ecole des maitres</flowPara></flowRoot>    </g>
    <g
       id="g4251"
       transform="translate(-114.28571,-3411.4286)">
      <path
         inkscape:transform-center-y="-88.571429"
         inkscape:transform-center-x="197.14286"
         inkscape:connector-curvature="0"
         id="rect4136-3-6-7-5-3-5-6-2-9-1-2-7-0-9-3-6-6-9-3-2"
         d="m -3590,2715.2193 122.8572,0 0,268.5715 -122.8572,0 z"
         style="color:#000000;clip-rule:nonzero;display:inline;overflow:visible;visibility:visible;opacity:1;isolation:auto;mix-blend-mode:normal;color-interpolation:sRGB;color-interpolation-filters:linearRGB;solid-color:#000000;solid-opacity:1;fill:#697138;fill-opacity:1;fill-rule:nonzero;stroke:#bca658;stroke-width:4;stroke-linecap:butt;stroke-linejoin:round;stroke-miterlimit:0;stroke-dasharray:none;stroke-dashoffset:28.077528;stroke-opacity:0;color-rendering:auto;image-rendering:auto;shape-rendering:auto;text-rendering:auto;enable-background:accumulate" />
      <path
         inkscape:transform-center-y="-88.571429"
         inkscape:transform-center-x="197.14286"
         inkscape:connector-curvature="0"
         id="rect4136-3-6-7-5-3-5-6-2-9-1-2-7-0-9-3-6-6-9-3-2-8"
         d="m -3455.7143,2723.7907 122.8572,0 0,268.5715 -122.8572,0 z"
         style="color:#000000;clip-rule:nonzero;display:inline;overflow:visible;visibility:visible;opacity:1;isolation:auto;mix-blend-mode:normal;color-interpolation:sRGB;color-interpolation-filters:linearRGB;solid-color:#000000;solid-opacity:1;fill:#d2d373;fill-opacity:1;fill-rule:nonzero;stroke:#bca658;stroke-width:4;stroke-linecap:butt;stroke-linejoin:round;stroke-miterlimit:0;stroke-dasharray:none;stroke-dashoffset:28.077528;stroke-opacity:0;color-rendering:auto;image-rendering:auto;shape-rendering:auto;text-rendering:auto;enable-background:accumulate" />
      <path
         inkscape:transform-center-y="-88.571429"
         inkscape:transform-center-x="197.14286"
         inkscape:connector-curvature="0"
         id="rect4136-3-6-7-5-3-5-6-2-9-1-2-7-0-9-3-6-6-9-3-2-8-9"
         d="m -3287.1429,2712.3622 122.8572,0 0,268.5715 -122.8572,0 z"
         style="color:#000000;clip-rule:nonzero;display:inline;overflow:visible;visibility:visible;opacity:1;isolation:auto;mix-blend-mode:normal;color-interpolation:sRGB;color-interpolation-filters:linearRGB;solid-color:#000000;solid-opacity:1;fill:#ccb1ac;fill-opacity:1;fill-rule:nonzero;stroke:#bca658;stroke-width:4;stroke-linecap:butt;stroke-linejoin:round;stroke-miterlimit:0;stroke-dasharray:none;stroke-dashoffset:28.077528;stroke-opacity:0;color-rendering:auto;image-rendering:auto;shape-rendering:auto;text-rendering:auto;enable-background:accumulate" />
      <path
         inkscape:transform-center-y="-88.571429"
         inkscape:transform-center-x="197.14286"
         inkscape:connector-curvature="0"
         id="rect4136-3-6-7-5-3-5-6-2-9-1-2-7-0-9-3-6-6-9-3-2-8-9-7"
         d="m -3110,2726.6478 122.8572,0 0,268.5715 -122.8572,0 z"
         style="color:#000000;clip-rule:nonzero;display:inline;overflow:visible;visibility:visible;opacity:1;isolation:auto;mix-blend-mode:normal;color-interpolation:sRGB;color-interpolation-filters:linearRGB;solid-color:#000000;solid-opacity:1;fill:#95b497;fill-opacity:1;fill-rule:nonzero;stroke:#bca658;stroke-width:4;stroke-linecap:butt;stroke-linejoin:round;stroke-miterlimit:0;stroke-dasharray:none;stroke-dashoffset:28.077528;stroke-opacity:0;color-rendering:auto;image-rendering:auto;shape-rendering:auto;text-rendering:auto;enable-background:accumulate" />
      <path
         inkscape:transform-center-y="-88.571429"
         inkscape:transform-center-x="197.14286"
         inkscape:connector-curvature="0"
         id="rect4136-3-6-7-5-3-5-6-2-9-1-2-7-0-9-3-6-6-9-3-2-8-9-7-3"
         d="m -2975.7143,2718.0764 122.8572,0 0,268.5715 -122.8572,0 z"
         style="color:#000000;clip-rule:nonzero;display:inline;overflow:visible;visibility:visible;opacity:1;isolation:auto;mix-blend-mode:normal;color-interpolation:sRGB;color-interpolation-filters:linearRGB;solid-color:#000000;solid-opacity:1;fill:#ecd5a3;fill-opacity:1;fill-rule:nonzero;stroke:#bca658;stroke-width:4;stroke-linecap:butt;stroke-linejoin:round;stroke-miterlimit:0;stroke-dasharray:none;stroke-dashoffset:28.077528;stroke-opacity:0;color-rendering:auto;image-rendering:auto;shape-rendering:auto;text-rendering:auto;enable-background:accumulate" />
      <flowRoot
         transform="translate(401.75123,2503.1603)"
         style="font-style:normal;font-weight:normal;font-size:40px;line-height:1000%;font-family:sans-serif;letter-spacing:0px;word-spacing:0px;fill:#000000;fill-opacity:1;stroke:none;stroke-width:1px;stroke-linecap:butt;stroke-linejoin:miter;stroke-opacity:1"
         id="flowRoot4188-3-3-1-9-2-7-2-9-9"
         xml:space="preserve"><flowRegion
           id="flowRegion4190-6-5-2-3-6-9-3-2-7"><rect
             y="-181.92351"
             x="-4794.2856"
             height="651.42859"
             width="805.71429"
             id="rect4192-7-6-7-6-1-2-7-2-3" /></flowRegion><flowPara
           id="flowPara4275-6-8-0-5-8-6"
           style="font-size:70px">les oracles</flowPara></flowRoot>    </g>
    <rect
       style="color:#000000;clip-rule:nonzero;display:inline;overflow:visible;visibility:visible;opacity:1;isolation:auto;mix-blend-mode:normal;color-interpolation:sRGB;color-interpolation-filters:linearRGB;solid-color:#000000;solid-opacity:1;fill:#ffffff;fill-opacity:1;fill-rule:nonzero;stroke:#ffffff;stroke-width:10;stroke-linecap:butt;stroke-linejoin:round;stroke-miterlimit:0;stroke-dasharray:none;stroke-dashoffset:28.077528;stroke-opacity:1;color-rendering:auto;image-rendering:auto;shape-rendering:auto;text-rendering:auto;enable-background:accumulate"
       id="rect4450"
       width="41.158829"
       height="319.23911"
       x="-1417.1362"
       y="44.888382"
       rx="175.5"
       ry="46.467022" />
    <rect
       style="color:#000000;clip-rule:nonzero;display:inline;overflow:visible;visibility:visible;opacity:1;isolation:auto;mix-blend-mode:normal;color-interpolation:sRGB;color-interpolation-filters:linearRGB;solid-color:#000000;solid-opacity:1;fill:#ffffff;fill-opacity:1;fill-rule:nonzero;stroke:#ffffff;stroke-width:10;stroke-linecap:butt;stroke-linejoin:round;stroke-miterlimit:0;stroke-dasharray:none;stroke-dashoffset:28.077528;stroke-opacity:1;color-rendering:auto;image-rendering:auto;shape-rendering:auto;text-rendering:auto;enable-background:accumulate"
       id="rect4450-1"
       width="41.158829"
       height="319.23911"
       x="-1417.1362"
       y="378.8884"
       rx="175.5"
       ry="46.467022" />
    <rect
       style="color:#000000;clip-rule:nonzero;display:inline;overflow:visible;visibility:visible;opacity:1;isolation:auto;mix-blend-mode:normal;color-interpolation:sRGB;color-interpolation-filters:linearRGB;solid-color:#000000;solid-opacity:1;fill:#ffffff;fill-opacity:1;fill-rule:nonzero;stroke:#ffffff;stroke-width:10;stroke-linecap:butt;stroke-linejoin:round;stroke-miterlimit:0;stroke-dasharray:none;stroke-dashoffset:28.077528;stroke-opacity:1;color-rendering:auto;image-rendering:auto;shape-rendering:auto;text-rendering:auto;enable-background:accumulate"
       id="rect4450-1-2"
       width="41.158829"
       height="319.23911"
       x="-1414.59"
       y="537.16895"
       rx="175.5"
       ry="46.467022" />
    <rect
       style="color:#000000;clip-rule:nonzero;display:inline;overflow:visible;visibility:visible;opacity:1;isolation:auto;mix-blend-mode:normal;color-interpolation:sRGB;color-interpolation-filters:linearRGB;solid-color:#000000;solid-opacity:1;fill:#0000ff;fill-opacity:1;fill-rule:nonzero;stroke:#000000;stroke-width:3.99999976;stroke-linecap:butt;stroke-linejoin:round;stroke-miterlimit:0;stroke-dasharray:none;stroke-dashoffset:28.077528;stroke-opacity:1;color-rendering:auto;image-rendering:auto;shape-rendering:auto;text-rendering:auto;enable-background:accumulate"
       id="rect4482"
       width="222.85713"
       height="5177.1431"
       x="-1108.5714"
       y="-49.637794"
       rx="0"
       ry="0" />
    <rect
       style="color:#000000;clip-rule:nonzero;display:inline;overflow:visible;visibility:visible;opacity:1;isolation:auto;mix-blend-mode:normal;color-interpolation:sRGB;color-interpolation-filters:linearRGB;solid-color:#000000;solid-opacity:1;fill:#bca658;fill-opacity:1;fill-rule:nonzero;stroke:#bca658;stroke-width:10;stroke-linecap:butt;stroke-linejoin:round;stroke-miterlimit:0;stroke-dasharray:none;stroke-dashoffset:28.077528;stroke-opacity:1;color-rendering:auto;image-rendering:auto;shape-rendering:auto;text-rendering:auto;enable-background:accumulate"
       id="rect4450-9"
       width="41.158829"
       height="319.23911"
       x="-1058.2937"
       y="52.742653"
       rx="175.5"
       ry="46.467022" />
    <rect
       style="color:#000000;clip-rule:nonzero;display:inline;overflow:visible;visibility:visible;opacity:1;isolation:auto;mix-blend-mode:normal;color-interpolation:sRGB;color-interpolation-filters:linearRGB;solid-color:#000000;solid-opacity:1;fill:#797255;fill-opacity:1;fill-rule:nonzero;stroke:#797255;stroke-width:10;stroke-linecap:butt;stroke-linejoin:round;stroke-miterlimit:0;stroke-dasharray:none;stroke-dashoffset:28.077528;stroke-opacity:1;color-rendering:auto;image-rendering:auto;shape-rendering:auto;text-rendering:auto;enable-background:accumulate"
       id="rect4450-9-3"
       width="41.158829"
       height="319.23911"
       x="-1058.2937"
       y="312.74261"
       rx="175.5"
       ry="46.467022" />
    <rect
       style="color:#000000;clip-rule:nonzero;display:inline;overflow:visible;visibility:visible;opacity:1;isolation:auto;mix-blend-mode:normal;color-interpolation:sRGB;color-interpolation-filters:linearRGB;solid-color:#000000;solid-opacity:1;fill:#ecb9b3;fill-opacity:1;fill-rule:nonzero;stroke:#ecb9b3;stroke-width:10;stroke-linecap:butt;stroke-linejoin:round;stroke-miterlimit:0;stroke-dasharray:none;stroke-dashoffset:28.077528;stroke-opacity:1;color-rendering:auto;image-rendering:auto;shape-rendering:auto;text-rendering:auto;enable-background:accumulate"
       id="rect4450-9-3-1"
       width="41.158829"
       height="244.95338"
       x="-1058.2937"
       y="725.02832"
       rx="175.5"
       ry="46.467022" />
    <rect
       style="color:#000000;clip-rule:nonzero;display:inline;overflow:visible;visibility:visible;opacity:1;isolation:auto;mix-blend-mode:normal;color-interpolation:sRGB;color-interpolation-filters:linearRGB;solid-color:#000000;solid-opacity:1;fill:#fce761;fill-opacity:1;fill-rule:nonzero;stroke:#fce761;stroke-width:10;stroke-linecap:butt;stroke-linejoin:round;stroke-miterlimit:0;stroke-dasharray:none;stroke-dashoffset:28.077528;stroke-opacity:1;color-rendering:auto;image-rendering:auto;shape-rendering:auto;text-rendering:auto;enable-background:accumulate"
       id="rect4450-9-3-1-9"
       width="41.158829"
       height="244.95338"
       x="-1058.2937"
       y="1045.0283"
       rx="175.5"
       ry="46.467022" />
    <flowRoot
       transform="translate(173.45201,-559.22588)"
       style="font-style:normal;font-weight:normal;font-size:40px;line-height:1000%;font-family:sans-serif;letter-spacing:0px;word-spacing:0px;fill:#000000;fill-opacity:1;stroke:none;stroke-width:1px;stroke-linecap:butt;stroke-linejoin:miter;stroke-opacity:1"
       id="flowRoot4188-3-3-1-9-2-7-2-9-9-3"
       xml:space="preserve"><flowRegion
         id="flowRegion4190-6-5-2-3-6-9-3-2-7-6"><rect
           y="-181.92351"
           x="-4794.2856"
           height="651.42859"
           width="805.71429"
           id="rect4192-7-6-7-6-1-2-7-2-3-7" /></flowRegion><flowPara
         id="flowPara4275-6-8-0-5-8-6-5"
         style="font-size:70px">mardis contemporains</flowPara></flowRoot>    <flowRoot
       transform="translate(173.45203,-299.2259)"
       style="font-style:normal;font-weight:normal;font-size:40px;line-height:1000%;font-family:sans-serif;letter-spacing:0px;word-spacing:0px;fill:#000000;fill-opacity:1;stroke:none;stroke-width:1px;stroke-linecap:butt;stroke-linejoin:miter;stroke-opacity:1"
       id="flowRoot4188-3-3-1-9-2-7-2-9-9-3-3"
       xml:space="preserve"><flowRegion
         id="flowRegion4190-6-5-2-3-6-9-3-2-7-6-5"><rect
           y="-181.92351"
           x="-4794.2856"
           height="651.42859"
           width="805.71429"
           id="rect4192-7-6-7-6-1-2-7-2-3-7-6" /></flowRegion><flowPara
         id="flowPara4275-6-8-0-5-8-6-5-2"
         style="font-size:70px">up pen down</flowPara></flowRoot>    <flowRoot
       transform="translate(258.58971,821.13231)"
       style="font-style:normal;font-weight:normal;font-size:40px;line-height:1000%;font-family:sans-serif;letter-spacing:0px;word-spacing:0px;fill:#000000;fill-opacity:1;stroke:none;stroke-width:1px;stroke-linecap:butt;stroke-linejoin:miter;stroke-opacity:1"
       id="flowRoot4188-3-3-1-9-2-7-2-9-9-3-3-9"
       xml:space="preserve"><flowRegion
         id="flowRegion4190-6-5-2-3-6-9-3-2-7-6-5-1"><rect
           y="-181.92351"
           x="-4794.2856"
           height="651.42859"
           width="805.71429"
           id="rect4192-7-6-7-6-1-2-7-2-3-7-6-2" /></flowRegion><flowPara
         id="flowPara4275-6-8-0-5-8-6-5-2-7"
         style="font-size:70px">les lundis en coulisse</flowPara></flowRoot>    <flowRoot
       transform="translate(164.37863,1399.3455)"
       style="font-style:normal;font-weight:normal;font-size:40px;line-height:1000%;font-family:sans-serif;letter-spacing:0px;word-spacing:0px;fill:#000000;fill-opacity:1;stroke:none;stroke-width:1px;stroke-linecap:butt;stroke-linejoin:miter;stroke-opacity:1"
       id="flowRoot4188-3-3-1-9-2-7-2-9-9-3-3-9-0"
       xml:space="preserve"><flowRegion
         id="flowRegion4190-6-5-2-3-6-9-3-2-7-6-5-1-9"><rect
           y="-181.92351"
           x="-4794.2856"
           height="651.42859"
           width="805.71429"
           id="rect4192-7-6-7-6-1-2-7-2-3-7-6-2-3" /></flowRegion><flowPara
         id="flowPara4275-6-8-0-5-8-6-5-2-7-6"
         style="font-size:70px">scripta manent</flowPara><flowPara
         style="font-size:70px"
         id="flowPara4440" /></flowRoot>    <flowRoot
       transform="translate(150.59201,3066.8466)"
       style="font-style:normal;font-weight:normal;font-size:40px;line-height:1000%;font-family:sans-serif;letter-spacing:0px;word-spacing:0px;fill:#000000;fill-opacity:1;stroke:none;stroke-width:1px;stroke-linecap:butt;stroke-linejoin:miter;stroke-opacity:1"
       id="flowRoot4188-3-3-1-9-2-7-2-9-9-3-3-9-0-0"
       xml:space="preserve"><flowRegion
         id="flowRegion4190-6-5-2-3-6-9-3-2-7-6-5-1-9-6"><rect
           y="-181.92351"
           x="-4794.2856"
           height="651.42859"
           width="805.71429"
           id="rect4192-7-6-7-6-1-2-7-2-3-7-6-2-3-2" /></flowRegion><flowPara
         style="font-size:70px"
         id="flowPara4440-1">kunst</flowPara></flowRoot>    <flowRoot
       transform="translate(347.75474,3833.6313)"
       style="font-style:normal;font-weight:normal;font-size:40px;line-height:1000%;font-family:sans-serif;letter-spacing:0px;word-spacing:0px;fill:#000000;fill-opacity:1;stroke:none;stroke-width:1px;stroke-linecap:butt;stroke-linejoin:miter;stroke-opacity:1"
       id="flowRoot4188-3-3-1-9-2-7-2-9-9-3-3-9-0-0-8"
       xml:space="preserve"><flowRegion
         id="flowRegion4190-6-5-2-3-6-9-3-2-7-6-5-1-9-6-7"><rect
           y="-181.92351"
           x="-4794.2856"
           height="651.42859"
           width="805.71429"
           id="rect4192-7-6-7-6-1-2-7-2-3-7-6-2-3-2-9" /></flowRegion><flowPara
         style="font-size:70px"
         id="flowPara4440-1-2">pif</flowPara><flowPara
         style="font-size:70px"
         id="flowPara4495">3</flowPara></flowRoot>  </g>
</svg>
