<?xml version="1.0" encoding="UTF-8" standalone="no"?>
<!-- Created with Inkscape (http://www.inkscape.org/) -->

<svg
   xmlns:dc="http://purl.org/dc/elements/1.1/"
   xmlns:cc="http://creativecommons.org/ns#"
   xmlns:rdf="http://www.w3.org/1999/02/22-rdf-syntax-ns#"
   xmlns:svg="http://www.w3.org/2000/svg"
   xmlns="http://www.w3.org/2000/svg"
   xmlns:xlink="http://www.w3.org/1999/xlink"
   xmlns:sodipodi="http://sodipodi.sourceforge.net/DTD/sodipodi-0.dtd"
   xmlns:inkscape="http://www.inkscape.org/namespaces/inkscape"
   width="220mm"
   height="307mm"
   viewBox="0 0 220 307"
   version="1.1"
   id="svg8"
   inkscape:version="0.92.1 r15371"
   sodipodi:docname="damier.svg">
  <defs
     id="defs2">
    <pattern
       inkscape:collect="always"
       xlink:href="#pattern4491"
       id="pattern5960"
       patternTransform="matrix(0.26967738,0,0,0.26689109,-0.27801412,-10.405438)" />
    <pattern
       inkscape:collect="always"
       xlink:href="#pattern4491"
       id="pattern5956"
       patternTransform="matrix(0.26458333,0,0,0.26458333,2.4054257,-14.147211)" />
    <pattern
       patternUnits="userSpaceOnUse"
       width="9.9409473"
       height="9.9999997"
       patternTransform="matrix(0.26458333,0,0,0.26458333,0,-8.0000122)"
       id="pattern4491">
      <image
         y="0"
         x="0"
         id="image10"
         xlink:href="data:image/png;base64,iVBORw0KGgoAAAANSUhEUgAAAyAAAAMgCAYAAADbcAZoAAAABHNCSVQICAgIfAhkiAAAAAlwSFlz AAAuIwAALiMBeKU/dgAAABl0RVh0U29mdHdhcmUAd3d3Lmlua3NjYXBlLm9yZ5vuPBoAABCeSURB VHic7dlBEQMhAATBXFzg3xvI4DTkMxSVbgX7ndpnzrk/APCjMcbpCQBc6Ht6AAAA8D8ECAAAkBEg AABARoAAAAAZAQIAAGQECAAAkBEgAABARoAAAAAZAQIAAGQECAAAkBEgAABARoAAAAAZAQIAAGQE CAAAkBEgAABARoAAAAAZAQIAAGQECAAAkBEgAABARoAAAAAZAQIAAGQECAAAkBEgAABARoAAAAAZ AQIAAGQECAAAkBEgAABARoAAAAAZAQIAAGQECAAAkBEgAABARoAAAAAZAQIAAGQECAAAkBEgAABA RoAAAAAZAQIAAGQECAAAkBEgAABARoAAAAAZAQIAAGQECAAAkBEgAABARoAAAAAZAQIAAGQECAAA kBEgAABARoAAAAAZAQIAAGQECAAAkBEgAABARoAAAAAZAQIAAGQECAAAkBEgAABARoAAAAAZAQIA AGQECAAAkBEgAABARoAAAAAZAQIAAGQECAAAkBEgAABARoAAAAAZAQIAAGQECAAAkBEgAABARoAA AAAZAQIAAGQECAAAkBEgAABARoAAAAAZAQIAAGQECAAAkBEgAABARoAAAAAZAQIAAGQECAAAkBEg AABARoAAAAAZAQIAAGQECAAAkBEgAABARoAAAAAZAQIAAGQECAAAkBEgAABARoAAAAAZAQIAAGQE CAAAkBEgAABARoAAAAAZAQIAAGQECAAAkBEgAABARoAAAAAZAQIAAGQECAAAkBEgAABARoAAAAAZ AQIAAGQECAAAkBEgAABARoAAAAAZAQIAAGQECAAAkBEgAABARoAAAAAZAQIAAGQECAAAkBEgAABA RoAAAAAZAQIAAGQECAAAkBEgAABARoAAAAAZAQIAAGQECAAAkBEgAABARoAAAAAZAQIAAGQECAAA kBEgAABARoAAAAAZAQIAAGQECAAAkBEgAABARoAAAAAZAQIAAGQECAAAkBEgAABARoAAAAAZAQIA AGQECAAAkBEgAABARoAAAAAZAQIAAGQECAAAkBEgAABARoAAAAAZAQIAAGQECAAAkBEgAABARoAA AAAZAQIAAGQECAAAkBEgAABARoAAAAAZAQIAAGQECAAAkBEgAABARoAAAAAZAQIAAGQECAAAkBEg AABARoAAAAAZAQIAAGQECAAAkBEgAABARoAAAAAZAQIAAGQECAAAkBEgAABARoAAAAAZAQIAAGQE CAAAkBEgAABARoAAAAAZAQIAAGQECAAAkBEgAABARoAAAAAZAQIAAGQECAAAkBEgAABARoAAAAAZ AQIAAGQECAAAkBEgAABARoAAAAAZAQIAAGQECAAAkBEgAABARoAAAAAZAQIAAGQECAAAkBEgAABA RoAAAAAZAQIAAGQECAAAkBEgAABARoAAAAAZAQIAAGQECAAAkBEgAABARoAAAAAZAQIAAGQECAAA kBEgAABARoAAAAAZAQIAAGQECAAAkBEgAABARoAAAAAZAQIAAGQECAAAkBEgAABARoAAAAAZAQIA AGQECAAAkBEgAABARoAAAAAZAQIAAGQECAAAkBEgAABARoAAAAAZAQIAAGQECAAAkBEgAABARoAA AAAZAQIAAGQECAAAkBEgAABARoAAAAAZAQIAAGQECAAAkBEgAABARoAAAAAZAQIAAGQECAAAkBEg AABARoAAAAAZAQIAAGQECAAAkBEgAABARoAAAAAZAQIAAGQECAAAkBEgAABARoAAAAAZAQIAAGQE CAAAkBEgAABARoAAAAAZAQIAAGQECAAAkBEgAABARoAAAAAZAQIAAGQECAAAkBEgAABARoAAAAAZ AQIAAGQECAAAkBEgAABARoAAAAAZAQIAAGQECAAAkBEgAABARoAAAAAZAQIAAGQECAAAkBEgAABA RoAAAAAZAQIAAGQECAAAkBEgAABARoAAAAAZAQIAAGQECAAAkBEgAABARoAAAAAZAQIAAGQECAAA kBEgAABARoAAAAAZAQIAAGQECAAAkBEgAABARoAAAAAZAQIAAGQECAAAkBEgAABARoAAAAAZAQIA AGQECAAAkBEgAABARoAAAAAZAQIAAGQECAAAkBEgAABARoAAAAAZAQIAAGQECAAAkBEgAABARoAA AAAZAQIAAGQECAAAkBEgAABARoAAAAAZAQIAAGQECAAAkBEgAABARoAAAAAZAQIAAGQECAAAkBEg AABARoAAAAAZAQIAAGQECAAAkBEgAABARoAAAAAZAQIAAGQECAAAkBEgAABARoAAAAAZAQIAAGQE CAAAkBEgAABARoAAAAAZAQIAAGQECAAAkBEgAABARoAAAAAZAQIAAGQECAAAkBEgAABARoAAAAAZ AQIAAGQECAAAkBEgAABARoAAAAAZAQIAAGQECAAAkBEgAABARoAAAAAZAQIAAGQECAAAkBEgAABA RoAAAAAZAQIAAGQECAAAkBEgAABARoAAAAAZAQIAAGQECAAAkBEgAABARoAAAAAZAQIAAGQECAAA kBEgAABARoAAAAAZAQIAAGQECAAAkBEgAABARoAAAAAZAQIAAGQECAAAkBEgAABARoAAAAAZAQIA AGQECAAAkBEgAABARoAAAAAZAQIAAGQECAAAkBEgAABARoAAAAAZAQIAAGQECAAAkBEgAABARoAA AAAZAQIAAGQECAAAkBEgAABARoAAAAAZAQIAAGQECAAAkBEgAABARoAAAAAZAQIAAGQECAAAkBEg AABARoAAAAAZAQIAAGQECAAAkBEgAABARoAAAAAZAQIAAGQECAAAkBEgAABARoAAAAAZAQIAAGQE CAAAkBEgAABARoAAAAAZAQIAAGQECAAAkBEgAABA5tl779MjALjPWuv0BAAu5AEBAAAyAgQAAMgI EAAAICNAAACAjAABAAAyAgQAAMgIEAAAICNAAACAjAABAAAyAgQAAMgIEAAAICNAAACAjAABAAAy AgQAAMgIEAAAICNAAACAjAABAAAyAgQAAMgIEAAAICNAAACAjAABAAAyAgQAAMgIEAAAICNAAACA jAABAAAyAgQAAMgIEAAAICNAAACAjAABAAAyAgQAAMgIEAAAICNAAACAjAABAAAyAgQAAMgIEAAA ICNAAACAjAABAAAyAgQAAMgIEAAAICNAAACAjAABAAAyAgQAAMgIEAAAICNAAACAjAABAAAyAgQA AMgIEAAAICNAAACAjAABAAAyAgQAAMgIEAAAICNAAACAjAABAAAyAgQAAMgIEAAAICNAAACAjAAB AAAyAgQAAMgIEAAAICNAAACAjAABAAAyAgQAAMgIEAAAICNAAACAjAABAAAyAgQAAMgIEAAAICNA AACAjAABAAAyAgQAAMgIEAAAICNAAACAjAABAAAyAgQAAMgIEAAAICNAAACAjAABAAAyAgQAAMgI EAAAICNAAACAjAABAAAyAgQAAMgIEAAAICNAAACAjAABAAAyAgQAAMgIEAAAICNAAACAjAABAAAy AgQAAMgIEAAAICNAAACAjAABAAAyAgQAAMgIEAAAICNAAACAjAABAAAyAgQAAMgIEAAAICNAAACA jAABAAAyAgQAAMgIEAAAICNAAACAjAABAAAyAgQAAMgIEAAAICNAAACAjAABAAAyAgQAAMgIEAAA ICNAAACAjAABAAAyAgQAAMgIEAAAICNAAACAjAABAAAyAgQAAMgIEAAAICNAAACAjAABAAAyAgQA AMgIEAAAICNAAACAjAABAAAyAgQAAMgIEAAAICNAAACAjAABAAAyAgQAAMgIEAAAICNAAACAjAAB AAAyAgQAAMgIEAAAICNAAACAjAABAAAyAgQAAMgIEAAAICNAAACAjAABAAAyAgQAAMgIEAAAICNA AACAjAABAAAyAgQAAMgIEAAAICNAAACAjAABAAAyAgQAAMgIEAAAICNAAACAjAABAAAyAgQAAMgI EAAAICNAAACAjAABAAAyAgQAAMgIEAAAICNAAACAjAABAAAyAgQAAMgIEAAAICNAAACAjAABAAAy AgQAAMgIEAAAICNAAACAjAABAAAyAgQAAMgIEAAAICNAAACAjAABAAAyAgQAAMgIEAAAICNAAACA jAABAAAyAgQAAMgIEAAAICNAAACAjAABAAAyAgQAAMgIEAAAICNAAACAjAABAAAyAgQAAMgIEAAA ICNAAACAjAABAAAyAgQAAMgIEAAAICNAAACAjAABAAAyAgQAAMgIEAAAICNAAACAjAABAAAyAgQA AMgIEAAAICNAAACAjAABAAAyAgQAAMgIEAAAICNAAACAjAABAAAyAgQAAMgIEAAAICNAAACAjAAB AAAyAgQAAMgIEAAAICNAAACAjAABAAAyAgQAAMgIEAAAICNAAACAjAABAAAyAgQAAMgIEAAAICNA AACAjAABAAAyAgQAAMgIEAAAICNAAACAjAABAAAyAgQAAMgIEAAAICNAAACAjAABAAAyAgQAAMgI EAAAICNAAACAjAABAAAyAgQAAMgIEAAAICNAAACAjAABAAAyAgQAAMgIEAAAICNAAACAjAABAAAy AgQAAMgIEAAAICNAAACAjAABAAAyAgQAAMgIEAAAICNAAACAjAABAAAyAgQAAMgIEAAAICNAAACA jAABAAAyAgQAAMgIEAAAICNAAACAjAABAAAyAgQAAMgIEAAAICNAAACAjAABAAAyAgQAAMgIEAAA ICNAAACAjAABAAAyAgQAAMgIEAAAICNAAACAjAABAAAyAgQAAMgIEAAAICNAAACAjAABAAAyAgQA AMgIEAAAICNAAACAjAABAAAyAgQAAMgIEAAAICNAAACAjAABAAAyAgQAAMgIEAAAICNAAACAjAAB AAAyAgQAAMgIEAAAICNAAACAjAABAAAyAgQAAMgIEAAAICNAAACAjAABAAAyAgQAAMgIEAAAICNA AACAjAABAAAyAgQAAMgIEAAAICNAAACAjAABAAAyAgQAAMgIEAAAICNAAACAjAABAAAyAgQAAMgI EAAAICNAAACAjAABAAAyAgQAAMgIEAAAICNAAACAjAABAAAyAgQAAMgIEAAAICNAAACAjAABAAAy AgQAAMgIEAAAICNAAACAjAABAAAyAgQAAMgIEAAAICNAAACAjAABAAAyAgQAAMgIEAAAICNAAACA jAABAAAyAgQAAMgIEAAAICNAAACAjAABAAAyAgQAAMgIEAAAICNAAACAjAABAAAyAgQAAMgIEAAA ICNAAACAjAABAAAyAgQAAMgIEAAAICNAAACAjAABAAAyAgQAAMgIEAAAICNAAACAjAABAAAyAgQA AMgIEAAAICNAAACAjAABAAAyAgQAAMgIEAAAICNAAACAjAABAAAyAgQAAMgIEAAAICNAAACAjAAB AAAyAgQAAMgIEAAAICNAAACAjAABAAAyAgQAAMgIEAAAICNAAACAjAABAAAyAgQAAMgIEAAAICNA AACAjAABAAAyAgQAAMgIEAAAICNAAACAjAABAAAyAgQAAMgIEAAAICNAAACAjAABAAAyAgQAAMgI EAAAICNAAACAjAABAAAyAgQAAMgIEAAAICNAAACAjAABAAAyAgQAAMgIEAAAICNAAACAjAABAAAy AgQAAMgIEAAAICNAAACAjAABAAAyAgQAAMgIEAAAIPMCFaoQ7JERFmEAAAAASUVORK5CYII= "
         style="image-rendering:optimizeQuality"
         preserveAspectRatio="none"
         height="10"
         width="9.9409475" />
    </pattern>
    <filter
       inkscape:collect="always"
       style="color-interpolation-filters:sRGB"
       id="filter5212"
       x="-0.012035642"
       width="1.0240713"
       y="-0.011964569"
       height="1.0239291">
      <feGaussianBlur
         inkscape:collect="always"
         stdDeviation="0.013190106"
         id="feGaussianBlur5214" />
    </filter>
  </defs>
  <sodipodi:namedview
     id="base"
     pagecolor="#ffffff"
     bordercolor="#666666"
     borderopacity="1.0"
     inkscape:pageopacity="0.0"
     inkscape:pageshadow="2"
     inkscape:zoom="0.98994949"
     inkscape:cx="300.1647"
     inkscape:cy="977.1126"
     inkscape:document-units="mm"
     inkscape:current-layer="layer1"
     showgrid="false"
     inkscape:window-width="1385"
     inkscape:window-height="876"
     inkscape:window-x="55"
     inkscape:window-y="24"
     inkscape:window-maximized="1" />
  <metadata
     id="metadata5">
    <rdf:RDF>
      <cc:Work
         rdf:about="">
        <dc:format>image/svg+xml</dc:format>
        <dc:type
           rdf:resource="http://purl.org/dc/dcmitype/StillImage" />
        <dc:title></dc:title>
      </cc:Work>
    </rdf:RDF>
  </metadata>
  <g
     inkscape:label="Calque 1"
     inkscape:groupmode="layer"
     id="layer1"
     transform="translate(0,10)">
    <rect
       style="fill:url(#pattern5956);fill-opacity:1;stroke:none;filter:url(#filter5212)"
       width="2.630209"
       height="2.6458333"
       x="2.4054258"
       y="-14.147212"
       id="rect4494" />
    <rect
       style="fill:url(#pattern5960);fill-opacity:1;stroke:none;stroke-width:1.88489127;stroke-miterlimit:4;stroke-dasharray:none;stroke-opacity:1"
       id="rect5950"
       width="221.12354"
       height="309.09512"
       x="-0.27801424"
       y="-10.405395"
       inkscape:export-xdpi="300.00131"
       inkscape:export-ydpi="300.00131" />
  </g>
</svg>
