<?xml version="1.0" encoding="UTF-8" standalone="no"?>
<!-- Created with Inkscape (http://www.inkscape.org/) -->

<svg
   xmlns:dc="http://purl.org/dc/elements/1.1/"
   xmlns:cc="http://creativecommons.org/ns#"
   xmlns:rdf="http://www.w3.org/1999/02/22-rdf-syntax-ns#"
   xmlns:svg="http://www.w3.org/2000/svg"
   xmlns="http://www.w3.org/2000/svg"
   xmlns:sodipodi="http://sodipodi.sourceforge.net/DTD/sodipodi-0.dtd"
   xmlns:inkscape="http://www.inkscape.org/namespaces/inkscape"
   width="210mm"
   height="310mm"
   viewBox="0 0 210 310"
   version="1.1"
   id="svg15"
   inkscape:version="0.92.2 5c3e80d, 2017-08-06"
   sodipodi:docname="cahier-sticker.svg">
  <defs
     id="defs9" />
  <sodipodi:namedview
     id="base"
     pagecolor="#ffffff"
     bordercolor="#666666"
     borderopacity="1.0"
     inkscape:pageopacity="0.0"
     inkscape:pageshadow="2"
     inkscape:zoom="0.35"
     inkscape:cx="674.77132"
     inkscape:cy="586.11434"
     inkscape:document-units="mm"
     inkscape:current-layer="layer1"
     showgrid="false"
     inkscape:window-width="1364"
     inkscape:window-height="730"
     inkscape:window-x="1920"
     inkscape:window-y="18"
     inkscape:window-maximized="0" />
  <metadata
     id="metadata12">
    <rdf:RDF>
      <cc:Work
         rdf:about="">
        <dc:format>image/svg+xml</dc:format>
        <dc:type
           rdf:resource="http://purl.org/dc/dcmitype/StillImage" />
        <dc:title></dc:title>
      </cc:Work>
    </rdf:RDF>
  </metadata>
  <g
     inkscape:label="Calque 1"
     inkscape:groupmode="layer"
     id="layer1"
     transform="translate(0,13)">
    <path
       style="fill:none;fill-rule:evenodd;stroke:#000000;stroke-width:0.26458333;stroke-linecap:butt;stroke-linejoin:miter;stroke-miterlimit:4;stroke-dasharray:none;stroke-opacity:1"
       d="m 24.759366,138.86858 -0.322462,0.59885 0.25336,0.85221 2.038412,2.13239 8.324514,4.89263 5.00965,2.5221 1.819596,-1.99235 0.529754,-1.31286 1.715951,-17.57408 z"
       id="path6724"
       inkscape:connector-curvature="0"
       sodipodi:nodetypes="cccccccccc" />
    <path
       style="fill:none;fill-rule:evenodd;stroke:#000000;stroke-width:0.26458333;stroke-linecap:butt;stroke-linejoin:miter;stroke-miterlimit:4;stroke-dasharray:none;stroke-opacity:1"
       d="m 34.82318,70.184105 c 0,0 -0.887386,0.07968 -1.066541,0.470553 -0.327048,0.626925 0.271143,1.199229 -0.02828,1.309003 -0.750462,0.145678 -1.541173,0.481432 -2.343643,1.156694 -1.512598,1.272825 -1.845905,2.939379 -2.163335,3.087382 -0.286651,0.133653 -2.304611,-0.518746 -3.795611,-0.750007 -0.987736,-0.153194 -2.214997,0.293167 -2.817602,1.026068 -0.602605,0.732901 -0.792422,1.187735 -0.749182,1.852384 0.05533,0.85075 0.735556,1.651879 1.258016,2.226851 1.921755,2.11488 3.927959,4.193948 5.988397,6.418107 0.437741,0.472519 0.451477,1.062806 0.945788,1.685101 0.507678,0.639129 0.507678,0.994647 1.240579,1.206379 0.732901,0.211718 1.495574,0.389717 2.163334,0.340858 0.667758,-0.04882 0.716617,-0.325732 1.335505,-0.342027 0.618899,-0.01623 2.223371,0.0037 2.614257,-0.06124 0.390873,-0.06518 1.259185,-1.103533 1.584918,-1.152404 0.325732,-0.04882 0.775008,0.121626 1.117035,0.105269 0.342015,-0.01623 0.661009,-0.29233 0.872738,-0.618063 0.211721,-0.325745 1.266406,-4.064938 1.380418,-4.309233 0.114001,-0.244308 0.272102,-0.637163 0.760695,-0.718599 0.488603,-0.08141 1.43754,-0.422257 2.065282,-1.010929 0.872592,-0.818285 1.397855,-2.876471 1.365279,-3.218498 -0.03258,-0.342015 -0.695208,-0.627607 -1.134953,-0.546183 -0.439744,0.08141 -0.674498,0.01512 -0.83737,0.650308 -0.16286,0.635183 -0.260579,1.237787 -0.667748,1.384378 -0.407167,0.146577 -0.993491,0.179154 -1.140069,0.01623 C 42.62451,80.229615 42.346468,78.409463 41.629862,77.1391 40.913245,75.868736 40.357691,74.479702 39.353673,73.434456 38.79641,72.854302 38.172997,72.392446 37.349928,72.089406 36.62127,71.821121 35.755135,71.95993 35.62484,71.943644 c -0.130296,-0.01628 0.289207,-1.025048 0.02902,-1.420893 -0.164262,-0.249856 -0.602605,-0.338763 -0.830619,-0.338763 z"
       id="path6726"
       inkscape:connector-curvature="0"
       sodipodi:nodetypes="cccssssasssssssssssssssssssassac" />
    <path
       style="fill:none;fill-rule:evenodd;stroke:#000000;stroke-width:0.26458333;stroke-linecap:butt;stroke-linejoin:miter;stroke-miterlimit:4;stroke-dasharray:none;stroke-opacity:1"
       d="m 52.322995,119.23535 c -0.430029,-0.0128 -0.667759,-1.0912 -0.993491,-1.05863 -0.325733,0.0326 -1.079404,0.36859 -1.473708,0.75476 -0.384357,0.37645 -0.650567,0.89533 -0.765466,1.42091 -0.136432,0.62398 0.187234,1.2769 0.121872,1.91228 -0.06271,0.61054 -0.390887,1.15636 -0.488604,1.77525 -0.09777,0.61889 -0.146579,2.05213 0.21173,2.81759 0.358298,0.76548 1.196012,1.699 1.807816,2.0847 0.749195,0.47231 1.009774,1.44952 1.156352,2.0847 0.14659,0.63519 0.635182,1.69383 1.04235,1.9707 0.407169,0.27686 1.009774,0.53745 1.368083,0.47231 0.35831,-0.0652 1.248991,-0.52083 1.530954,-0.16288 0.20915,0.26552 0.211721,2.89905 0.195438,3.33877 -0.01624,0.43976 -0.553746,1.88926 -1.123787,2.11728 -0.570028,0.22801 -1.547237,0.9772 -1.710097,1.59609 -0.162872,0.6189 -0.456028,1.51467 0.146578,1.72639 0.602605,0.21173 1.518608,0.55259 2.577253,0.14541 1.058632,-0.40715 1.673572,-0.60144 2.048164,-1.09003 0.374591,-0.48861 1.335518,-2.18242 1.368083,-3.15962 0.03258,-0.9772 0.277352,-6.76889 0.484645,-7.20651 0.207291,-0.43762 1.301968,-1.48292 1.886853,-1.32473 1.364331,0.36901 2.115556,3.13296 2.53014,4.26156 0.414597,1.12861 1.075321,3.24137 1.052288,3.70203 -0.02299,0.46065 -0.198229,1.09206 -0.474635,1.29937 -0.276393,0.20729 -0.725866,0.30106 -1.163497,1.3145 -0.437617,1.01345 -0.950092,1.79876 0.187544,2.10902 1.013449,0.27639 1.69936,0.38545 2.519157,0.19265 0.730601,-0.17186 1.725826,-0.41739 1.933131,-1.15446 0.207291,-0.73703 0.499487,-1.82517 0.57582,-3.72736 0.07797,-1.94195 -0.934573,-4.35007 -1.157237,-5.32849 -0.421814,-1.85361 -1.089352,-4.97741 -0.08707,-5.4982 0.851735,-0.44253 3.166159,-1.32871 5.224506,0.44015 1.091382,0.93789 3.825851,2.89854 4.309537,4.55691 0.483696,1.65837 -0.410441,3.54312 -0.940193,4.14197 -0.529754,0.59884 -1.758859,0.74136 -1.983823,1.89427 -0.146577,0.75124 -0.299427,1.74559 0.967383,2.04502 1.266811,0.29943 1.79676,0.83198 2.741109,1.49993 0.944349,0.66795 1.387674,0.9043 2.699949,0.72751 1.859872,-0.25057 3.055429,-2.10788 3.859496,-3.67012 0.314468,-0.61097 -0.179854,-3.84131 -0.383641,-6.9936 -0.03074,-0.47579 -0.251676,-1.27061 0.531586,-1.13912 1.817862,0.30518 2.907204,0.27387 4.502776,0.0978 0.749232,-0.0827 2.04505,-0.36055 1.885215,-1.09719 -0.205914,-0.94907 -0.610232,-0.92827 -2.250187,-1.62483 -1.984752,-0.84303 -3.731904,-1.28981 -4.418269,-2.93823 -0.530615,-1.27438 -0.16286,-3.79481 -1.042351,-4.54399 -0.879478,-0.74919 -2.312702,-1.3518 -2.964166,-2.13356 -0.651477,-0.78176 -2.247562,-2.36156 -4.657995,-3.33877 -2.368092,-0.96004 -6.140078,-1.27036 -9.38113,-1.17264 -3.039135,0.0916 -5.358318,0.99348 -6.237795,1.41694 -0.879492,0.42346 -2.06842,0.0978 -3.078193,0.13029 -1.009774,0.0326 -1.209515,0.34888 -1.775252,1.09121 -0.409959,0.53795 -0.9823,1.00862 -1.373187,1.57866 -0.274782,0.40072 -1.098846,1.65933 -1.54212,1.64611 z"
       id="path6612"
       inkscape:connector-curvature="0"
       sodipodi:nodetypes="ssaaasssssssssssssssssssssasssssssssssssssssssssssssss" />
    <path
       style="fill:none;fill-rule:evenodd;stroke:#000000;stroke-width:0.26458333;stroke-linecap:butt;stroke-linejoin:miter;stroke-miterlimit:4;stroke-dasharray:none;stroke-opacity:1"
       d="m 49.853373,151.85988 c -0.391562,1.19771 -0.783125,3.13247 -0.644922,4.39926 0.138202,1.26682 0.797624,2.52012 1.750496,3.33978 1.883731,1.52087 3.568174,0.8546 4.629598,1.0595 0.693745,0.13394 1.31915,0.5167 2.003869,0.691 0.943069,0.24005 1.934802,0.2485 2.879103,0.48368 1.036594,0.25818 1.996524,0.78618 3.040326,1.01345 0.912954,0.19878 1.866207,0.14081 2.786981,0.29943 0.847847,0.14606 1.664976,0.44032 2.510587,0.59885 1.774746,0.33272 3.561361,0.69956 5.366655,0.73706 0.485764,0.01 0.965194,-0.13729 1.451069,-0.13821 1.102473,-0.003 2.246491,0.64603 3.293686,0.30128 0.976276,-0.32138 1.786984,-1.15563 2.303295,-2.04991 0.830238,-1.438 2.626305,-3.34132 2.535461,-4.05565 -0.101457,-0.79807 -1.19771,-1.03647 -1.428042,-1.4741 -0.230313,-0.43762 0.160383,-2.48784 -0.48553,-3.45493 -0.66332,-0.99314 -1.794608,-1.62565 -3.086408,-1.81959 -0.835218,-0.12541 -1.856343,0.114 -2.533608,0.0231 -2.258506,-0.30357 -3.871439,-0.5503 -5.804273,-0.3934 -0.809467,0.0656 -1.565525,0.64686 -2.372396,0.55464 -0.986175,-0.11277 -1.34066,-1.04387 -2.671811,-1.31472 -2.022254,-0.41149 -5.481813,-1.03648 -6.103702,-1.03648 -0.621887,0 -1.405001,0.1151 -1.980821,-0.0231 -0.575833,-0.1382 -3.33272,-1.12163 -4.859937,-0.55094 -1.19108,0.44509 -2.174499,1.68057 -2.579676,2.81001 z"
       id="path6614"
       inkscape:connector-curvature="0"
       sodipodi:nodetypes="cscsaaaaaaaasssassaasssac" />
    <path
       style="fill:none;fill-rule:evenodd;stroke:#000000;stroke-width:0.26458333;stroke-linecap:butt;stroke-linejoin:miter;stroke-miterlimit:4;stroke-dasharray:none;stroke-opacity:1"
       d="m 75.427955,100.19364 c -1.343954,0.42054 -2.343706,0.89356 -3.371471,2.54577 -0.208718,0.33554 -0.504358,0.6835 -0.492145,1.07847 0.02915,0.94323 0.876747,1.23717 1.419942,1.75968 0.842105,0.81002 2.177487,2.13779 2.811342,2.09374 0.583002,-0.0404 1.319199,-0.81107 2.328984,-1.42996 1.009774,-0.61889 3.843659,-2.03909 5.211741,-2.36482 1.368083,-0.32573 3.306181,-0.7336 3.436477,-0.40786 0.130295,0.32573 -0.496943,0.96765 -0.203812,1.48883 0.293168,0.52118 1.015383,0.7306 2.029084,1.04912 0.903327,0.28382 1.737564,0.13865 2.128445,-0.15452 0.390898,-0.29315 0.702645,-1.63425 0.832958,-2.51373 0.130288,-0.87948 -0.18381,-1.74501 -1.519311,-2.36391 -1.335506,-0.6189 -2.091906,-1.066561 -3.297125,-0.90369 -1.205224,0.16286 -3.996311,0.32102 -5.999083,0.33691 -1.773394,0.0141 -3.623503,-0.743628 -5.316026,-0.21403 z"
       id="path6616"
       inkscape:connector-curvature="0"
       sodipodi:nodetypes="assasssssscsssaa" />
    <path
       style="fill:none;fill-rule:evenodd;stroke:#000000;stroke-width:0.26458333;stroke-linecap:butt;stroke-linejoin:miter;stroke-miterlimit:4;stroke-dasharray:none;stroke-opacity:1"
       d="m 27.561953,35.182518 c -2.506614,0.476959 -6.149079,-0.05301 -7.627829,0.641455 -1.478752,0.694419 -0.387677,3.777851 -0.183299,5.668751 0.150672,1.39408 0.412948,2.77017 0.515782,4.168589 0.222062,2.616743 -0.0061,4.158323 0.726346,5.763803 1.344286,2.591259 2.034808,3.95392 2.958903,6.558781 0.125363,0.353366 1.016241,1.636483 2.329119,1.014594 1.312866,-0.621888 8.255302,-3.260642 10.005797,-3.905576 1.750497,-0.64491 11.475461,-4.002115 12.051282,-4.278508 0.575821,-0.276394 0.476098,-1.487102 -0.117444,-2.112753 -0.852226,-0.898282 -4.848734,-3.209029 -5.961563,-4.789679 -0.892673,-1.267954 -3.629615,-6.480113 -4.213366,-7.559885 -1.088455,-2.013325 -0.888937,-3.280504 -2.078553,-3.697597 -2.076523,-0.728055 -5.531015,1.981141 -8.405151,2.528025 z"
       id="path6495"
       inkscape:connector-curvature="0"
       sodipodi:nodetypes="azsccssssssssa" />
    <path
       style="fill:none;fill-rule:evenodd;stroke:#000000;stroke-width:0.26458333;stroke-linecap:butt;stroke-linejoin:miter;stroke-miterlimit:4;stroke-dasharray:none;stroke-opacity:1"
       d="m 54.302089,35.991936 27.940488,0.184258 1.389862,-22.731785 -28.639373,0.988768 z"
       id="path6497"
       inkscape:connector-curvature="0"
       sodipodi:nodetypes="ccccc" />
    <path
       style="fill:none;fill-rule:evenodd;stroke:#000000;stroke-width:0.26458333;stroke-linecap:butt;stroke-linejoin:miter;stroke-miterlimit:4;stroke-dasharray:none;stroke-opacity:1"
       d="m 52.32963,66.271619 c -0.06739,1.707421 -0.539185,12.176622 -0.629045,14.400764 -0.06924,1.713258 -0.808778,11.525106 -0.898651,12.648411 -0.06038,0.755467 0.0899,1.010979 0.786323,1.258103 0.696437,0.247125 3.222384,0.698208 3.6395,0.943575 0.763843,0.449325 0.68355,0.920135 1.258104,1.168243 0.98851,0.426857 0.585156,2.246798 0.878863,3.369905 0.351066,1.34251 0.361408,2.96307 1.055903,4.02681 0.477586,0.64774 1.436778,1.32177 3.052712,2.08667 0.751445,0.35569 1.640787,0.28531 2.198985,-0.19415 0.697273,-0.59892 0.251391,-1.66105 0.654206,-2.67883 0.320174,-0.809 1.023117,-1.44336 1.280559,-2.27445 0.378171,-1.220799 0.101089,-2.59622 0.336997,-3.819237 0.11228,-0.449327 0.279137,-3.727825 0.247125,-5.594065 -0.04096,-2.388396 -0.337009,-4.766044 -0.561653,-7.144219 -0.205461,-2.175212 -0.66086,-4.331032 -0.718918,-6.51516 -0.0701,-2.639343 0.363129,-5.2692 0.449324,-7.908068 0.01795,-1.961589 0.707273,-6.102837 -0.741373,-6.807229 -1.448659,-0.704392 -4.056041,-0.988841 -6.110784,-1.347966 -1.893126,-0.330874 -5.01034,-1.536435 -5.717623,-0.741382 -1.021814,0.570397 -0.393149,3.414849 -0.460554,5.122275 z"
       id="path6385"
       inkscape:connector-curvature="0"
       sodipodi:nodetypes="zsssssacsasacaaaczacz" />
    <path
       style="fill:none;fill-rule:evenodd;stroke:#000000;stroke-width:0.26458333;stroke-linecap:butt;stroke-linejoin:miter;stroke-miterlimit:4;stroke-dasharray:none;stroke-opacity:1"
       d="m 76.198243,75.08158 c -1.302326,0.391982 -2.613101,0.321478 -3.896501,0.830349 -0.369844,0.14664 -0.605607,0.55837 -0.490437,1.088123 0.115107,0.529766 0.422687,2.696235 0.546035,4.05427 0.103547,1.140389 -0.122486,2.322332 0.162393,3.43141 0.461513,1.796564 2.103012,4.167878 2.448507,4.997057 0.345495,0.82918 0.589386,2.14276 1.48105,2.57006 1.463489,0.701307 3.220098,-0.426402 4.810758,-0.74804 2.24306,-0.453543 4.437137,-1.122765 6.660745,-1.663672 1.407419,-0.34236 3.583583,-0.678643 4.228505,-1.001103 0.644923,-0.322462 0.64887,-0.830829 0.625838,-1.40665 -0.02305,-0.57582 -0.280349,-2.586414 -0.280349,-3.300438 0,-0.714023 0.422342,-4.055807 0.054,-4.845278 -0.322676,-0.691604 -2.470777,-2.877 -3.184787,-3.752247 -0.714023,-0.875249 -1.100891,-1.345504 -1.638805,-1.975239 -0.381728,-0.446879 -0.914752,-0.258008 -1.26878,-0.583384 -1.122287,-1.031455 -3.186304,-1.12659 -4.447112,-1.044514 -2.164625,0.140908 -3.960881,0.560042 -5.220508,2.169568 -0.366267,0.468017 -0.04034,1.014139 -0.590517,1.179728 z"
       id="path6387"
       inkscape:connector-curvature="0"
       sodipodi:nodetypes="sssaasaaassssssssss" />
    <circle
       style="color:#000000;clip-rule:nonzero;display:inline;overflow:visible;visibility:visible;opacity:1;isolation:auto;mix-blend-mode:normal;color-interpolation:sRGB;color-interpolation-filters:linearRGB;solid-color:#000000;solid-opacity:1;fill:none;fill-opacity:1;fill-rule:nonzero;stroke:#000000;stroke-width:0.26458333;stroke-linecap:round;stroke-linejoin:round;stroke-miterlimit:4;stroke-dasharray:none;stroke-dashoffset:0;stroke-opacity:1;color-rendering:auto;image-rendering:auto;shape-rendering:auto;text-rendering:auto;enable-background:accumulate"
       id="path6253"
       cx="75.714638"
       cy="61.604141"
       r="7.5099964" />
    <path
       style="fill:none;fill-rule:evenodd;stroke:#000000;stroke-width:0.26458333;stroke-linecap:butt;stroke-linejoin:miter;stroke-miterlimit:4;stroke-dasharray:none;stroke-opacity:1"
       d="m 30.950729,105.00854 c 0,0 0.0642,0.99564 -0.449644,1.95915 -0.513876,0.9635 -1.124095,2.28032 -0.578108,4.20735 0.545985,1.927 0.738692,1.95913 0.674461,3.17958 -0.0642,1.22045 -0.513876,2.98689 -0.32117,3.72559 0.192694,0.7387 0.481755,1.38102 1.445264,1.76644 0.963509,0.3854 2.280322,0.61023 3.308063,0.0964 1.027741,-0.51387 1.702202,-1.22046 2.858418,-1.89492 1.156216,-0.67446 4.110988,-2.02338 4.946034,-2.85842 0.835046,-0.83505 2.408786,-2.50513 2.440895,-4.5285 0.02755,-1.73203 -0.32117,-2.15185 0.385413,-2.31245 0.706571,-0.16058 1.798556,0.25694 2.794186,-0.28904 0.995633,-0.54601 2.024873,-2.09449 2.440895,-3.43653 0.193396,-0.62386 0.463075,-1.53327 -0.03209,-1.95916 -0.78101,-0.67169 -2.312432,-0.80293 -4.528511,0.0964 -2.446848,0.99293 -3.21171,2.4088 -4.335803,2.08763 -1.124107,-0.32118 -1.927032,-1.34892 -3.757709,-1.60587 -1.830665,-0.25694 -2.325443,0.35626 -3.275941,-0.1927 -1.268581,-0.73267 -2.087604,-3.404428 -3.27593,-4.239475 -1.188336,-0.835046 -3.565,-1.894909 -4.046755,-1.156215 -0.481755,0.738692 -0.160585,2.216078 0.192694,3.78982 0.353292,1.57375 0.652597,2.10645 1.156217,2.50515 0.770814,0.61023 1.959152,1.05986 1.959152,1.05986 z"
       id="path6259"
       inkscape:connector-curvature="0"
       sodipodi:nodetypes="csssssssssssasssssssssc" />
    <path
       style="fill:none;fill-rule:evenodd;stroke:#000000;stroke-width:0.26458333;stroke-linecap:butt;stroke-linejoin:miter;stroke-miterlimit:4;stroke-dasharray:none;stroke-opacity:1"
       d="m 56.605032,170.92413 c -0.605125,-0.0189 -1.110172,0.48378 -1.658359,0.74075 -0.44148,0.20695 -0.956487,0.31217 -1.312878,0.64492 -0.537269,0.50164 -0.727822,1.27745 -1.105575,1.90803 -0.292342,0.488 -0.765378,0.89793 -0.89828,1.45106 -0.150439,0.62612 -0.08067,1.32779 0.159601,1.92522 0.135546,0.33703 0.502646,0.53296 0.687028,0.84595 0.356993,0.60603 0.656211,1.23991 0.78775,1.95752 0.08535,0.53613 0.341007,0.97425 0.03025,1.25398 -0.254738,0.22932 -0.680279,-0.1799 -1.019712,-0.13233 -0.480917,0.0674 -0.994179,0.23404 -1.337546,0.57746 -0.477044,0.47712 -0.390258,1.32393 -0.801979,1.85844 -0.41103,0.53362 -1.085478,0.80087 -1.589479,1.24773 -0.715647,0.63449 -1.611715,1.16804 -2.029214,2.02853 -0.256484,0.52862 -0.552788,1.28983 -0.207292,1.75049 0.345495,0.46066 0.996628,1.36187 1.289844,2.14206 0.415887,1.10663 1.674963,1.49619 2.833036,1.56623 1.130305,0.0684 1.796564,0.41459 2.902137,-0.18426 1.105587,-0.59886 3.2937,-2.07296 4.583543,-2.23418 1.289844,-0.16124 4.767802,0.25336 6.172803,-0.0231 1.405001,-0.2764 2.625744,-0.18426 3.086407,-2.07295 0.460652,-1.88869 -1.275985,-2.65039 -1.082552,-3.27066 0.149837,-0.48048 1.934767,-1.10559 3.04034,-1.93477 1.105574,-0.82918 2.142058,-2.78698 1.727461,-3.73132 -0.414583,-0.94435 -2.586155,-2.15265 -5.044194,-1.84263 -2.556642,0.32246 -3.201564,-0.0921 -3.500992,-0.43763 -0.299426,-0.34549 -1.980821,-3.82345 -2.810001,-4.51443 -0.829192,-0.69099 -1.81062,-1.48609 -2.902149,-1.52017 z"
       id="path6261"
       inkscape:connector-curvature="0"
       sodipodi:nodetypes="aaaaaaacaaaaaasssssssssssssa" />
    <path
       style="fill:none;fill-rule:evenodd;stroke:#000000;stroke-width:0.26458333;stroke-linecap:butt;stroke-linejoin:miter;stroke-miterlimit:4;stroke-dasharray:none;stroke-opacity:1"
       d="m 494.91057,150.8418 -0.26221,0.48696 0.20602,0.69298 1.65754,1.73395 6.7691,3.97846 4.07361,2.05085 1.47961,-1.62008 0.43077,-1.06756 1.39533,-14.2904 z"
       id="path6724-3"
       inkscape:connector-curvature="0"
       sodipodi:nodetypes="cccccccccc" />
    <path
       style="fill:none;fill-rule:evenodd;stroke:#000000;stroke-width:0.26458333;stroke-linecap:butt;stroke-linejoin:miter;stroke-miterlimit:4;stroke-dasharray:none;stroke-opacity:1"
       d="m 487.78805,62.598683 c 0,0 -0.72158,0.0648 -0.86726,0.38263 -0.26594,0.50978 0.22048,0.97516 -0.023,1.06442 -0.61024,0.11846 -1.25321,0.39148 -1.90574,0.94057 -1.22997,1.035 -1.501,2.39016 -1.75912,2.51051 -0.23309,0.10868 -1.874,-0.42182 -3.08641,-0.60987 -0.80318,-0.12457 -1.80113,0.23839 -2.29114,0.83435 -0.49001,0.59596 -0.64436,0.96581 -0.6092,1.50627 0.045,0.69179 0.59812,1.34323 1.02296,1.81077 1.56268,1.71972 3.19403,3.41032 4.86948,5.2189 0.35595,0.38423 0.36712,0.86422 0.76907,1.37025 0.41282,0.51971 0.41282,0.80879 1.00878,0.98096 0.59596,0.17217 1.21613,0.3169 1.75912,0.27717 0.54299,-0.0397 0.58272,-0.26486 1.08597,-0.27812 0.50326,-0.0132 1.80794,0.003 2.12579,-0.0498 0.31784,-0.053 1.02391,-0.89733 1.28878,-0.93708 0.26487,-0.0397 0.6302,0.0989 0.90832,0.0856 0.27811,-0.0132 0.5375,-0.23771 0.70967,-0.50258 0.17216,-0.26488 1.02978,-3.30541 1.12249,-3.50406 0.0927,-0.19866 0.22126,-0.51811 0.61856,-0.58433 0.39731,-0.0662 1.16894,-0.34336 1.67939,-0.82204 0.70955,-0.66539 1.13667,-2.33901 1.11018,-2.61713 -0.0265,-0.27811 -0.56531,-0.51034 -0.92289,-0.44413 -0.35758,0.0662 -0.54847,0.0123 -0.68091,0.5288 -0.13243,0.5165 -0.21189,1.00651 -0.54298,1.12571 -0.33109,0.11919 -0.80786,0.14568 -0.92705,0.0132 -0.11919,-0.13244 -0.34528,-1.6125 -0.92799,-2.6455 -0.58272,-1.033 -1.03447,-2.1625 -1.85089,-3.01244 -0.45314,-0.47176 -0.96007,-0.84731 -1.62935,-1.09373 -0.59251,-0.21816 -1.29681,-0.10529 -1.40276,-0.11853 -0.10595,-0.0132 0.23517,-0.83352 0.0236,-1.1554 -0.13357,-0.20317 -0.49001,-0.27547 -0.67542,-0.27547 z"
       id="path6726-6"
       inkscape:connector-curvature="0"
       sodipodi:nodetypes="cccssssasssssssssssssssssssassac" />
    <path
       style="fill:none;fill-rule:evenodd;stroke:#000000;stroke-width:0.26458333;stroke-linecap:butt;stroke-linejoin:miter;stroke-miterlimit:4;stroke-dasharray:none;stroke-opacity:1"
       d="m 524.20144,118.52098 c -0.34968,-0.0104 -0.54299,-0.88732 -0.80786,-0.86083 -0.26486,0.0265 -0.87772,0.29972 -1.19835,0.61374 -0.31254,0.30611 -0.529,0.72804 -0.62244,1.15542 -0.11094,0.50738 0.15225,1.03831 0.0991,1.55497 -0.051,0.49646 -0.31785,0.9403 -0.39731,1.44355 -0.0795,0.50325 -0.11918,1.6687 0.17217,2.29114 0.29136,0.62245 0.97254,1.38154 1.47003,1.69518 0.60922,0.38406 0.8211,1.17868 0.94029,1.69518 0.1192,0.5165 0.51651,1.37733 0.84759,1.60247 0.3311,0.22514 0.8211,0.43704 1.11247,0.38406 0.29136,-0.053 1.01562,-0.42351 1.2449,-0.13244 0.17006,0.21591 0.17215,2.35736 0.15891,2.71493 -0.0132,0.35758 -0.45027,1.53626 -0.91381,1.72167 -0.46351,0.18541 -1.25813,0.79461 -1.39057,1.29787 -0.13244,0.50325 -0.37081,1.23165 0.1192,1.40381 0.49,0.17217 1.23485,0.44934 2.09569,0.11825 0.86083,-0.33108 1.36088,-0.48907 1.66547,-0.88637 0.30461,-0.39731 1.08598,-1.77464 1.11247,-2.56925 0.0265,-0.79462 0.22552,-5.50414 0.39409,-5.85999 0.16856,-0.35586 1.0587,-1.20584 1.5343,-1.07721 1.1094,0.30006 1.72027,2.54757 2.05738,3.4653 0.33713,0.91773 0.87441,2.63572 0.85568,3.01031 -0.0187,0.37458 -0.16119,0.88802 -0.38596,1.05659 -0.22475,0.16856 -0.59024,0.24481 -0.94609,1.06889 -0.35585,0.82409 -0.77257,1.46266 0.1525,1.71495 0.82409,0.22475 1.38184,0.31344 2.04846,0.15665 0.59409,-0.13974 1.40336,-0.3394 1.57192,-0.93874 0.16857,-0.59933 0.40616,-1.48415 0.46824,-3.03092 0.0634,-1.5791 -0.75995,-3.53726 -0.94101,-4.33287 -0.343,-1.50727 -0.88582,-4.0474 -0.0708,-4.47087 0.69259,-0.35985 2.57456,-1.08045 4.24832,0.3579 0.88746,0.76265 3.111,2.35696 3.50431,3.70547 0.39332,1.3485 -0.33375,2.88109 -0.76452,3.36804 -0.43078,0.48696 -1.43023,0.60284 -1.61315,1.54034 -0.1192,0.61086 -0.24348,1.41943 0.78663,1.66291 1.0301,0.24348 1.46104,0.67653 2.22894,1.21967 0.7679,0.54315 1.12839,0.73534 2.19547,0.59158 1.51235,-0.20375 2.48453,-1.71403 3.13835,-2.98437 0.25572,-0.49681 -0.14624,-3.12357 -0.31196,-5.68687 -0.025,-0.38688 -0.20465,-1.03319 0.43227,-0.92627 1.4782,0.24816 2.36399,0.2227 3.66144,0.0795 0.60925,-0.0673 1.66295,-0.29318 1.53297,-0.89218 -0.16743,-0.77173 -0.4962,-0.75482 -1.82975,-1.32124 -1.6139,-0.68551 -3.0346,-1.04881 -3.59273,-2.38924 -0.43147,-1.03625 -0.13243,-3.08575 -0.84759,-3.69495 -0.71515,-0.6092 -1.88058,-1.09922 -2.41032,-1.73491 -0.52974,-0.63568 -1.82761,-1.92031 -3.78765,-2.71493 -1.92563,-0.78066 -4.99283,-1.033 -7.6283,-0.95352 -2.47128,0.0745 -4.35713,0.80784 -5.07228,1.15217 -0.71516,0.34435 -1.68194,0.0795 -2.50304,0.10595 -0.8211,0.0265 -0.98352,0.28369 -1.44355,0.88733 -0.33336,0.43742 -0.79876,0.82015 -1.1166,1.28369 -0.22345,0.32583 -0.89353,1.34929 -1.25399,1.33854 z"
       id="path6612-7"
       inkscape:connector-curvature="0"
       sodipodi:nodetypes="ssaaasssssssssssssssssssssasssssssssssssssssssssssssss" />
    <path
       style="fill:none;fill-rule:evenodd;stroke:#000000;stroke-width:0.26458333;stroke-linecap:butt;stroke-linejoin:miter;stroke-miterlimit:4;stroke-dasharray:none;stroke-opacity:1"
       d="m 521.85531,177.33831 c -0.3184,0.97392 -0.6368,2.54717 -0.52442,3.57728 0.11238,1.03011 0.64859,2.04923 1.42342,2.71574 1.53176,1.2367 2.90147,0.69492 3.76457,0.86154 0.56412,0.10891 1.07267,0.42015 1.62945,0.56188 0.76686,0.1952 1.57329,0.20207 2.34115,0.39331 0.84291,0.20994 1.62348,0.63928 2.47225,0.82409 0.74237,0.16164 1.51751,0.1145 2.26624,0.24348 0.68943,0.11877 1.35388,0.35805 2.04149,0.48696 1.44314,0.27055 2.89593,0.56884 4.36391,0.59934 0.395,0.008 0.78485,-0.11164 1.17994,-0.11238 0.89648,-0.002 1.82674,0.52531 2.67827,0.24498 0.79386,-0.26133 1.45309,-0.93971 1.87293,-1.66689 0.67511,-1.16931 2.13558,-2.717 2.06171,-3.29786 -0.0825,-0.64895 -0.97392,-0.84281 -1.16121,-1.19867 -0.18728,-0.35585 0.13041,-2.02299 -0.39481,-2.80938 -0.53938,-0.80757 -1.45929,-1.3219 -2.50972,-1.47961 -0.67916,-0.10197 -1.50949,0.0927 -2.06021,0.0187 -1.83651,-0.24685 -3.14807,-0.44748 -4.71976,-0.3199 -0.65822,0.0534 -1.27301,0.526 -1.92912,0.45101 -0.80191,-0.0917 -1.09016,-0.84883 -2.17259,-1.06907 -1.6444,-0.3346 -4.45755,-0.84282 -4.96324,-0.84282 -0.50569,0 -1.14248,0.0936 -1.61071,-0.0187 -0.46824,-0.11238 -2.71001,-0.91205 -3.95187,-0.44799 -0.96853,0.36192 -1.7682,1.36655 -2.09767,2.28496 z"
       id="path6614-5"
       inkscape:connector-curvature="0"
       sodipodi:nodetypes="cscsaaaaaaaasssassaasssac" />
    <path
       style="fill:none;fill-rule:evenodd;stroke:#000000;stroke-width:0.26458333;stroke-linecap:butt;stroke-linejoin:miter;stroke-miterlimit:4;stroke-dasharray:none;stroke-opacity:1"
       d="m 494.07898,10.294663 c -1.09284,0.34195 -1.90579,0.72659 -2.74152,2.07008 -0.16972,0.27284 -0.41012,0.5558 -0.40019,0.87696 0.0237,0.76699 0.71293,1.00601 1.15463,1.43089 0.68476,0.65867 1.77063,1.73836 2.28605,1.70254 0.47407,-0.0329 1.07271,-0.65953 1.89382,-1.16278 0.8211,-0.50326 3.12548,-1.6581 4.23794,-1.92297 1.11246,-0.26487 2.68843,-0.59652 2.79438,-0.33165 0.10595,0.26487 -0.40409,0.78685 -0.16573,1.21065 0.23839,0.42379 0.82566,0.59409 1.64996,0.85308 0.73454,0.23079 1.41291,0.11276 1.73075,-0.12563 0.31786,-0.23838 0.57136,-1.3289 0.67732,-2.04405 0.10595,-0.71515 -0.14946,-1.41896 -1.23543,-1.92221 -1.08597,-0.50326 -1.70104,-0.86728 -2.68107,-0.73484 -0.98003,0.13244 -3.24961,0.26104 -4.87817,0.27396 -1.44204,0.0114 -2.94646,-0.6046802 -4.32274,-0.17403 z"
       id="path6616-3"
       inkscape:connector-curvature="0"
       sodipodi:nodetypes="assasssssscsssaa" />
    <path
       style="fill:none;fill-rule:evenodd;stroke:#000000;stroke-width:0.26458333;stroke-linecap:butt;stroke-linejoin:miter;stroke-miterlimit:4;stroke-dasharray:none;stroke-opacity:1"
       d="m 479.42558,172.84994 c -2.03826,0.38784 -5.00014,-0.0431 -6.20259,0.5216 -1.20245,0.56467 -0.31524,3.07197 -0.14905,4.60956 0.12252,1.1336 0.33579,2.25257 0.41941,3.3897 0.18057,2.12781 -0.005,3.38135 0.59063,4.68685 1.09311,2.10709 1.65461,3.21514 2.40604,5.33329 0.10194,0.28734 0.82636,1.33071 1.89393,0.82502 1.06756,-0.50569 6.71282,-2.6514 8.13624,-3.17583 1.42342,-0.52441 9.3313,-3.25433 9.79953,-3.47908 0.46823,-0.22475 0.38714,-1.20924 -0.0955,-1.71799 -0.69299,-0.73044 -3.94276,-2.60943 -4.84766,-3.89474 -0.72588,-1.03104 -2.95143,-5.26932 -3.42611,-6.14734 -0.88508,-1.63714 -0.72284,-2.66755 -1.69018,-3.00671 -1.68853,-0.59202 -4.49756,1.61097 -6.83467,2.05567 z"
       id="path6495-5"
       inkscape:connector-curvature="0"
       sodipodi:nodetypes="azsccssssssssa" />
    <path
       style="fill:none;fill-rule:evenodd;stroke:#000000;stroke-width:0.26458333;stroke-linecap:butt;stroke-linejoin:miter;stroke-miterlimit:4;stroke-dasharray:none;stroke-opacity:1"
       d="m 499.12739,47.630723 22.71988,0.14983 1.13017,-18.48441 -23.28818,0.80402 z"
       id="path6497-6"
       inkscape:connector-curvature="0"
       sodipodi:nodetypes="ccccc" />
    <path
       style="fill:none;fill-rule:evenodd;stroke:#000000;stroke-width:0.26458333;stroke-linecap:butt;stroke-linejoin:miter;stroke-miterlimit:4;stroke-dasharray:none;stroke-opacity:1"
       d="m 522.60322,67.435323 c -0.0548,1.38839 -0.43844,9.90145 -0.51151,11.71001 -0.0563,1.39314 -0.65766,9.37168 -0.73074,10.28509 -0.0491,0.61431 0.0731,0.82208 0.6394,1.02303 0.56631,0.20095 2.62029,0.56775 2.95947,0.76727 0.62112,0.36537 0.55583,0.74821 1.02303,0.94996 0.80381,0.3471 0.47582,1.82699 0.71465,2.74025 0.28547,1.09166 0.29388,2.40941 0.85861,3.2744 0.38835,0.52671 1.16832,1.0748 2.48232,1.69678 0.61104,0.289227 1.33421,0.231997 1.78811,-0.15788 0.56699,-0.48701 0.20442,-1.35068 0.53197,-2.17829 0.26035,-0.65784 0.83195,-1.17367 1.04129,-1.84947 0.30751,-0.99269 0.0822,-2.11112 0.27403,-3.10562 0.0913,-0.36537 0.22698,-3.03129 0.20095,-4.54882 -0.0333,-1.94214 -0.27404,-3.87553 -0.45671,-5.80934 -0.16707,-1.76879 -0.53738,-3.5218 -0.58459,-5.29782 -0.057,-2.14619 0.29528,-4.28467 0.36537,-6.43047 0.0146,-1.59507 0.57512,-4.96254 -0.60285,-5.53532 -1.17798,-0.57277 -3.29818,-0.80407 -4.969,-1.0961 -1.5394,-0.26905 -4.07417,-1.24935 -4.6493,-0.60285 -0.83089,0.46382 -0.31969,2.77679 -0.3745,4.16519 z"
       id="path6385-2"
       inkscape:connector-curvature="0"
       sodipodi:nodetypes="zsssssacsasacaaaczacz" />
    <path
       style="fill:none;fill-rule:evenodd;stroke:#000000;stroke-width:0.26458333;stroke-linecap:butt;stroke-linejoin:miter;stroke-miterlimit:4;stroke-dasharray:none;stroke-opacity:1"
       d="m 480.59262,274.39264 c -1.05899,0.31874 -2.12485,0.26141 -3.16845,0.67519 -0.30074,0.11925 -0.49245,0.45405 -0.3988,0.88482 0.0936,0.43077 0.34371,2.19244 0.44401,3.29674 0.0842,0.92731 -0.0996,1.88841 0.13205,2.79027 0.37528,1.46087 1.71007,3.38912 1.99101,4.06336 0.28094,0.67424 0.47926,1.74239 1.20432,2.08984 1.19004,0.57028 2.61843,-0.34671 3.91188,-0.60825 1.82395,-0.36881 3.60807,-0.913 5.41621,-1.35282 1.14445,-0.27839 2.914,-0.55184 3.43842,-0.81407 0.52442,-0.2622 0.52763,-0.67558 0.5089,-1.14382 -0.0187,-0.46823 -0.22796,-2.10314 -0.22796,-2.68375 0,-0.5806 0.34342,-3.298 0.0439,-3.93996 -0.26239,-0.56237 -2.00912,-2.33942 -2.58972,-3.05115 -0.58061,-0.7117 -0.89519,-1.09409 -1.3326,-1.60616 -0.31041,-0.36338 -0.74384,-0.2098 -1.03172,-0.47438 -0.91259,-0.83873 -2.59095,-0.91609 -3.61618,-0.84935 -1.76017,0.11458 -3.2208,0.4554 -4.24507,1.76419 -0.29783,0.38057 -0.0328,0.82465 -0.48018,0.9593 z"
       id="path6387-9"
       inkscape:connector-curvature="0"
       sodipodi:nodetypes="sssaasaaassssssssss" />
    <circle
       style="color:#000000;clip-rule:nonzero;display:inline;overflow:visible;visibility:visible;opacity:1;isolation:auto;mix-blend-mode:normal;color-interpolation:sRGB;color-interpolation-filters:linearRGB;solid-color:#000000;solid-opacity:1;fill:none;fill-opacity:1;fill-rule:nonzero;stroke:#000000;stroke-width:0.26458333;stroke-linecap:round;stroke-linejoin:round;stroke-miterlimit:4;stroke-dasharray:none;stroke-dashoffset:0;stroke-opacity:1;color-rendering:auto;image-rendering:auto;shape-rendering:auto;text-rendering:auto;enable-background:accumulate"
       id="path6253-1"
       cx="540.62897"
       cy="284.8284"
       r="6.1067724" />
    <path
       style="fill:none;fill-rule:evenodd;stroke:#000000;stroke-width:0.26458333;stroke-linecap:butt;stroke-linejoin:miter;stroke-miterlimit:4;stroke-dasharray:none;stroke-opacity:1"
       d="m 484.10462,107.21969 c 0,0 0.0522,0.8096 -0.36563,1.59309 -0.41786,0.78347 -0.91406,1.85423 -0.47009,3.4212 0.44397,1.56696 0.60067,1.59308 0.54844,2.5855 -0.0522,0.99241 -0.41786,2.42879 -0.26116,3.02946 0.15669,0.60067 0.39174,1.12299 1.17522,1.43638 0.78348,0.3134 1.85425,0.49621 2.68996,0.0784 0.83571,-0.41784 1.38415,-0.99241 2.32433,-1.54084 0.94018,-0.54845 3.34286,-1.64532 4.02188,-2.32433 0.67902,-0.67903 1.95871,-2.03706 1.98482,-3.68237 0.0224,-1.40841 -0.26116,-1.74978 0.3134,-1.88036 0.57455,-0.13058 1.4625,0.20892 2.2721,-0.23504 0.8096,-0.44399 1.64653,-1.70313 1.98482,-2.79443 0.15726,-0.50729 0.37655,-1.24678 -0.0261,-1.59309 -0.63508,-0.54618 -1.88036,-0.6529 -3.68237,0.0784 -1.98966,0.8074 -2.61161,1.95871 -3.52567,1.69755 -0.91407,-0.26116 -1.56697,-1.09688 -3.05559,-1.30581 -1.48861,-0.20893 -1.89094,0.28969 -2.66384,-0.15669 -1.03155,-0.59577 -1.69754,-2.76831 -2.66383,-3.44733 -0.9663,-0.67902 -2.89889,-1.54085 -3.29063,-0.94018 -0.39174,0.60067 -0.13058,1.80201 0.15669,3.0817 0.28728,1.27969 0.53066,1.71285 0.94018,2.03706 0.62679,0.4962 1.59309,0.86183 1.59309,0.86183 z"
       id="path6259-2"
       inkscape:connector-curvature="0"
       sodipodi:nodetypes="csssssssssssasssssssssc" />
    <path
       style="fill:none;fill-rule:evenodd;stroke:#000000;stroke-width:0.26458333;stroke-linecap:butt;stroke-linejoin:miter;stroke-miterlimit:4;stroke-dasharray:none;stroke-opacity:1"
       d="m 476.97946,220.62694 c -0.49206,-0.0154 -0.90274,0.39339 -1.3485,0.60235 -0.35899,0.16828 -0.77777,0.25384 -1.06757,0.52441 -0.43688,0.40792 -0.59183,1.03877 -0.899,1.55152 -0.23772,0.39682 -0.62237,0.73016 -0.73044,1.17994 -0.12233,0.50913 -0.0656,1.07969 0.12978,1.56549 0.11022,0.27406 0.40873,0.43338 0.55866,0.68789 0.29029,0.49279 0.5336,1.00824 0.64056,1.59176 0.0694,0.43596 0.27729,0.79221 0.0246,1.01968 -0.20714,0.18647 -0.55317,-0.14628 -0.82918,-0.1076 -0.39106,0.0548 -0.80842,0.19031 -1.08763,0.46956 -0.38791,0.38797 -0.31734,1.07655 -0.65213,1.51119 -0.33423,0.43392 -0.88266,0.65123 -1.29249,1.0146 -0.58193,0.51594 -1.31057,0.94979 -1.65006,1.6495 -0.20856,0.42986 -0.4495,1.04883 -0.16856,1.42342 0.28094,0.37458 0.81041,1.1074 1.04884,1.74182 0.33818,0.89986 1.362,1.21663 2.30369,1.27358 0.91911,0.0556 1.46088,0.33713 2.35988,-0.14983 0.89901,-0.48696 2.67828,-1.68563 3.72712,-1.81673 1.04884,-0.13111 3.87695,0.20602 5.01943,-0.0187 1.14248,-0.22476 2.13513,-0.14983 2.50972,-1.68562 0.37458,-1.5358 -1.03757,-2.15518 -0.88028,-2.65956 0.12184,-0.3907 1.57326,-0.899 2.47226,-1.57326 0.899,-0.67424 1.74182,-2.26623 1.40469,-3.03412 -0.33712,-0.7679 -2.10294,-1.75044 -4.1017,-1.49834 -2.07894,0.26221 -2.60336,-0.0749 -2.84684,-0.35587 -0.24348,-0.28094 -1.61071,-3.10905 -2.28496,-3.67092 -0.67426,-0.56188 -1.47231,-1.20842 -2.35989,-1.23613 z"
       id="path6261-7"
       inkscape:connector-curvature="0"
       sodipodi:nodetypes="aaaaaaacaaaaaasssssssssssssa" />
  </g>
</svg>
