<?xml version="1.0" encoding="UTF-8" standalone="no"?>
<!-- Created with Inkscape (http://www.inkscape.org/) -->

<svg
   xmlns:dc="http://purl.org/dc/elements/1.1/"
   xmlns:cc="http://creativecommons.org/ns#"
   xmlns:rdf="http://www.w3.org/1999/02/22-rdf-syntax-ns#"
   xmlns:svg="http://www.w3.org/2000/svg"
   xmlns="http://www.w3.org/2000/svg"
   xmlns:sodipodi="http://sodipodi.sourceforge.net/DTD/sodipodi-0.dtd"
   xmlns:inkscape="http://www.inkscape.org/namespaces/inkscape"
   id="svg2"
   version="1.1"
   inkscape:version="0.91 r"
   width="187.5"
   height="187.5"
   viewBox="0 0 187.5 187.5"
   sodipodi:docname="Beaumarchais.jpg.svg">
  <metadata
     id="metadata8">
    <rdf:RDF>
      <cc:Work
         rdf:about="">
        <dc:format>image/svg+xml</dc:format>
        <dc:type
           rdf:resource="http://purl.org/dc/dcmitype/StillImage" />
        <dc:title></dc:title>
      </cc:Work>
    </rdf:RDF>
  </metadata>
  <defs
     id="defs6" />
  <sodipodi:namedview
     pagecolor="#ffffff"
     bordercolor="#666666"
     borderopacity="1"
     objecttolerance="10"
     gridtolerance="10"
     guidetolerance="10"
     inkscape:pageopacity="0"
     inkscape:pageshadow="2"
     inkscape:window-width="1440"
     inkscape:window-height="845"
     id="namedview4"
     showgrid="false"
     inkscape:zoom="3.3089167"
     inkscape:cx="93.75"
     inkscape:cy="93.75"
     inkscape:window-x="0"
     inkscape:window-y="27"
     inkscape:window-maximized="1"
     inkscape:current-layer="g4138" />
  <g
     id="g4138">
    <path
       style="fill:#000000"
       d="m 87.084508,165.82981 c -1.58175,-1.58174 -1.42164,-2.94666 0.26953,-2.29769 1.83291,0.70335 1.7871,-0.23931 -0.1137,-2.33966 -1.8955,-2.0945 -1.05744,-4.56187 1.54945,-4.56187 1.3222,0 1.89706,0.53576 1.76035,1.64062 -0.11166,0.90235 0.1399,2.43626 0.55902,3.40868 1.33222,3.09099 -1.82652,6.34805 -4.02465,4.14992 z m 19.488282,-0.76172 c -2.55123,-2.55123 -2.35467,-5.11161 0.56894,-7.41132 1.87553,-1.47528 2.85674,-1.70148 4.21875,-0.97256 2.46163,1.31743 2.2236,2.58466 -0.39158,2.08474 -2.97359,-0.56844 -5.10929,1.96644 -3.39604,4.03077 0.71715,0.86413 2.13256,1.30905 3.39604,1.06751 2.47412,-0.47295 3.03999,1.60252 0.68346,2.50681 -2.32624,0.89266 -3.07294,0.70068 -5.07957,-1.30595 z m 12.42188,1.17554 c -0.72514,-0.24398 -1.17188,-2.15145 -1.17188,-5.00366 0,-4.4886 0.0731,-4.60938 2.79089,-4.60938 1.94243,0 3.25775,0.71252 4.32657,2.34375 1.39341,2.12661 1.401,2.54931 0.0819,4.56237 -1.49824,2.28661 -3.97327,3.39812 -6.02757,2.70692 z m 3.98437,-4.93838 c 0,-3.33588 -2.73049,-3.04727 -3.11708,0.32948 -0.24629,2.15114 0.0229,2.59732 1.40625,2.33091 1.10903,-0.21358 1.71083,-1.1494 1.71083,-2.66039 z m -27.134802,0.21085 c 0.74445,-1.78172 1.35355,-3.39891 1.35355,-3.59375 0,-0.19485 0.55467,-0.35426 1.23261,-0.35426 0.95031,0 4.392392,5.4125 4.392392,6.90681 0,0.15437 -1.87472,0.28069 -4.166052,0.28069 l -4.16604,0 1.35354,-3.23949 z m 0.98017,-19.78013 c -1.20011,-1.32611 -1.53022,-3.09099 -1.31718,-7.04203 0.3291,-6.10308 2.04052,-7.50222 2.40919,-1.9696 0.44494,6.67717 1.00617,7.96875 3.462662,7.96875 2.86712,0 3.6338,-1.23402 4.23951,-6.82372 0.66114,-6.10131 2.29542,-6.03209 2.64677,0.11211 0.38844,6.7928 -1.40576,9.52411 -6.25639,9.52411 -2.321332,0 -4.147022,-0.62315 -5.184562,-1.76962 z m 19.776332,0.19267 c -0.90382,-1.46242 -4.40242,-11.06231 -4.37941,-12.0168 0.0305,-1.26294 6.10473,-4.21722 8.68687,-4.22493 1.13896,-0.004 3.33647,-0.84437 4.88334,-1.86882 3.67492,-2.4338 6.26252,-2.36339 8.61296,0.23437 1.88435,2.08262 4.04329,7.28832 4.04329,9.74927 0,2.61887 -2.00364,1.12169 -3.65523,-2.73129 -2.26853,-5.29228 -4.06457,-6.76493 -6.59735,-5.40942 -2.31657,1.2398 -2.43561,3.29227 -0.46455,8.0097 1.13542,2.71742 1.21551,3.75798 0.35157,4.56762 -0.71498,0.67004 -1.26047,0.71011 -1.51127,0.111 -2.54425,-6.07776 -4.76079,-9.375 -6.30224,-9.375 -3.02357,0 -3.93788,2.66225 -2.61411,7.61166 0.72355,2.70527 0.8436,4.74417 0.31072,5.27705 -0.47763,0.47763 -1.09169,0.50714 -1.36459,0.0656 z M 80.849588,139.7667 c -7.141268,-1.37484 -9.380742,-8.1764 -4.34892,-13.20822 1.50721,-1.50722 3.64694,-2.74039 4.75494,-2.74039 1.96798,0 10.31718,4.35657 10.31718,5.38345 0,0.28479 -0.90028,2.98689 -2.00062,6.00467 -2.12705,5.83364 -2.1223,5.83117 -8.72258,4.56049 z m 5.06521,-4.63698 c 1.5769,-2.94645 1.12032,-5.54524 -1.24672,-7.09618 -4.71547,-3.08969 -9.82203,1.91582 -6.74517,6.6117 1.89454,2.89145 6.5526,3.17382 7.99189,0.48448 z M 59.356877,127.909 c -3.166105,-3.1661 -3.181612,-6.85324 -0.0445,-10.58148 5.261773,-6.25326 15.135294,-1.04861 13.134405,6.92357 -0.909243,3.62272 -3.178886,3.6024 -7.65878,-0.0685 -3.488959,-2.85894 -4.223778,-3.14512 -4.72458,-1.84007 -0.796361,2.07529 2.179311,5.2256 4.935918,5.2256 1.329177,0 2.198449,0.55603 2.198449,1.40625 0,2.39124 -5.073679,1.70189 -7.840909,-1.06534 z m 10.653409,-6.12647 c 0,-1.76248 -2.951243,-4.52694 -4.832801,-4.52694 -2.383848,0 -2.170741,2.27615 0.379676,4.05523 2.537074,1.76977 4.453125,1.97274 4.453125,0.47171 z m 70.738644,3.48442 c -2.62421,-2.6242 -3.08179,-7.4324 -0.98791,-10.38088 0.72229,-1.01708 2.87485,-2.6772 4.78349,-3.68918 l 3.47024,-1.83993 4.12277,4.36349 c 2.26752,2.39992 4.12277,4.73973 4.12277,5.19958 0,0.45984 -1.6227,2.59378 -3.60599,4.74207 -4.35987,4.72259 -8.26167,5.24856 -11.90537,1.60485 z m 8.94886,-2.38636 c 1.03125,-1.03125 1.875,-2.50781 1.875,-3.28125 0,-1.9915 -3.41135,-5.15625 -5.55803,-5.15625 -4.19688,0 -6.176,5.31283 -3.20292,8.59806 2.02162,2.23386 4.5505,2.17489 6.88595,-0.16056 z M 47.149235,114.36031 c -1.368901,-1.07678 -3.116154,-3.17073 -3.882785,-4.65323 -1.390637,-2.6892 -1.382429,-2.70381 3.534356,-6.29202 12.571674,-9.174658 12.751323,-9.227118 15.633018,-4.564438 2.604246,4.213758 2.54964,8.504668 -0.132137,10.383058 -1.145981,0.80267 -2.590091,1.45941 -3.209135,1.45941 -0.619044,0 -2.39116,1.26563 -3.938035,2.8125 -3.32909,3.32909 -4.676713,3.47298 -8.005282,0.85472 z m 6.607467,-3.25825 c 0.748099,-1.94952 -1.175144,-6.03397 -2.841207,-6.03397 -0.727369,0 -2.225973,0.73828 -3.330231,1.64063 -1.87459,1.53181 -1.90904,1.78051 -0.51945,3.75 1.720277,2.43817 5.849782,2.83522 6.690888,0.64334 z m 7.347334,-7.33804 c 0,-3.982488 -2.677095,-5.341748 -5.318467,-2.70038 -2.025342,2.02534 -2.030841,2.09911 -0.29913,4.01263 2.558901,2.82755 5.617597,2.11305 5.617597,-1.31225 z m 95.345644,6.02099 c -4.838,-3.50463 -6.23479,-5.92965 -4.87689,-8.46692 1.4643,-2.736068 2.8125,-2.292308 2.8125,0.92574 0,2.24799 0.7401,3.26794 3.75,5.16801 2.0625,1.302 3.75,2.99479 3.75,3.76176 0,2.02403 -1.11938,1.73807 -5.43561,-1.38859 z m 5.43561,-10.047008 c -3.16058,-1.19919 -5.625,-4.42511 -5.625,-7.36315 0,-3.25481 3.0805,-7.93176 5.22429,-7.93176 1.99023,0 1.61855,2.59649 -0.53679,3.75 -2.11419,1.13148 -2.56227,5.50023 -0.75,7.3125 0.61875,0.61875 2.50235,1.125 4.18577,1.125 3.68251,0 5.24502,-2.29917 4.4077,-6.48576 -0.65653,-3.28268 0.88956,-3.96551 2.43605,-1.07587 1.51769,2.83584 1.15325,5.37753 -1.1389,7.94281 -2.19282,2.45411 -5.77905,3.645958 -8.20312,2.72623 z M 11.238453,98.493672 c -6.4172131,-1.32097 -8.7281671,-3.34447 -8.7281671,-7.64246 0,-2.0288 0.635162,-4.917 1.411472,-6.41822 2.266199,-4.38234 12.6510281,-9.63599 12.6510281,-6.4001 0,0.59939 -1.310866,3.13261 -2.913036,5.62938 -3.555194,5.54028 -3.206205,8.53579 1.172281,10.06214 6.348226,2.213 16.812926,0.41443 32.547175,-5.59392 5.972321,-2.28061 9.367158,-4.3867 15.381789,-9.54253 9.195607,-7.88262 15.947583,-15.507573 19.004493,-21.461606 1.22778,-2.391393 3.88778,-5.766393 5.91111,-7.5 2.02333,-1.733607 4.36568,-4.797948 5.20523,-6.809645 0.83955,-2.011697 3.10331,-5.456301 5.03058,-7.654674 1.92727,-2.198375 6.857722,-7.829785 10.956552,-12.514245 4.09883,-4.68446 7.80831,-8.5172 8.24329,-8.5172 0.43497,0 2.7767,-1.842925 5.20383,-4.095389 6.21107,-5.7640936 9.63342,-7.3051466 15.47374,-6.9676626 4.14035,0.239251 4.9194,0.58079 5.15936,2.261891 0.3315,2.322397 -3.39483,7.0503106 -8.43347,10.7002886 -1.94182,1.406639 -5.75381,5.797601 -8.47112,9.757693 -2.71731,3.960091 -5.46681,7.940703 -6.11,8.845804 -2.00645,2.823456 0.43262,4.646179 8.15536,6.094499 5.8586,1.098719 7.4274,1.804234 9.7217,4.372007 2.62871,2.942031 2.71769,3.340739 2.27346,10.186994 -0.52735,8.127233 -2.27795,12.485925 -7.80103,19.423175 -2.10096,2.63893 -5.05409,6.76125 -6.5625,9.16071 -1.79026,2.84785 -4.10497,5.02558 -6.66634,6.27188 -2.15809,1.05008 -5.45642,3.1272 -7.32963,4.61584 -5.11208,4.06256 -9.35032,5.22148 -12.219722,3.34138 -4.76121,-3.11967 -1.34241,-7.5777 8.262422,-10.77398 6.5011,-2.16343 7.94343,-3.46283 16.90731,-15.23187 4.55434,-5.979574 6.16064,-9.306733 7.23943,-14.995187 1.17102,-6.174752 -0.28996,-8.709385 -5.88535,-10.210401 -12.24738,-3.285479 -14.46144,-5.07759 -13.51077,-10.935911 0.77738,-4.790432 5.32268,-11.240814 13.25208,-18.806476 6.72536,-6.416845 8.27892,-8.6402846 6.03714,-8.6402846 -1.39371,0 -12.94414,8.3928646 -15.32831,11.1379876 -1.06607,1.227456 -3.66618,4.180581 -5.77802,6.5625 -2.11185,2.381919 -5.51578,6.862012 -7.56429,9.955762 -2.04851,3.09375 -5.845862,8.789062 -8.438562,12.65625 -2.5927,3.867187 -5.5169,8.354736 -6.49821,9.972329 -4.30186,7.091114 -13.04978,17.323691 -16.633116,19.456011 -2.145608,1.27677 -6.824037,4.6699 -10.396507,7.54029 -3.572471,2.87038 -7.265911,5.21887 -8.207645,5.21887 -0.941734,0 -6.245365,1.64726 -11.785849,3.66058 -10.887855,3.95646 -22.253896,5.409528 -29.939188,3.8275 z M 154.49955,79.864102 c -1.81406,-1.17436 -0.44783,-2.92101 2.28482,-2.92101 1.97014,0 2.28842,-0.43615 2.28842,-3.13595 0,-1.87622 0.70649,-3.77531 1.75872,-4.72757 2.09989,-1.900372 7.49316,-2.918443 10.91323,-2.060059 3.9506,0.991539 2.13763,2.852489 -3.2744,3.361079 -9.01398,0.84707 -8.69232,6.01419 0.45586,7.32278 2.48373,0.35528 4.449,1.06785 4.36726,1.58347 -0.1885,1.18893 -17.04906,1.70681 -18.79391,0.57726 z m 6.89427,-18.299909 c -3.33212,-1.442748 -5.13353,-4.883955 -5.13353,-9.806505 0,-3.449435 0.12068,-3.572723 5.00427,-5.112138 6.85105,-2.1596 7.419,-2.035213 9.2926,2.035116 2.25975,4.909232 2.09704,8.767839 -0.46875,11.116255 -2.9471,2.697423 -5.3965,3.19529 -8.69459,1.767272 z m 6.51825,-3.906816 c 3.7495,-3.749493 -0.36002,-9.878062 -5.35126,-7.980396 -3.14612,1.19615 -4.05329,4.232522 -2.13791,7.155764 1.73624,2.649837 5.27439,3.039422 7.48917,0.824632 z M 152.11898,43.318386 c -0.80215,-1.297886 7.97714,-7.625294 10.58009,-7.625294 2.58949,0 0.64482,2.623503 -4.00716,5.405971 -5.53779,3.312297 -5.83535,3.412765 -6.57293,2.219323 z m -7.97815,-9.157974 c -2.28256,-2.901818 -2.36752,-3.510449 -0.68491,-4.906894 1.49236,-1.238548 2.49187,-0.473104 2.49187,1.908324 0,0.945312 0.64734,1.71875 1.43854,1.71875 1.18036,0 1.32911,-0.824944 0.82881,-4.596348 -0.54127,-4.080345 -0.38305,-4.717658 1.40937,-5.676936 2.59024,-1.386254 5.35883,-0.491309 7.20725,2.329734 1.64007,2.503068 0.99179,6.06855 -1.1034,6.06855 -0.8673,0 -1.34307,-0.996298 -1.34307,-2.8125 0,-2.1875 -0.41666,-2.8125 -1.875,-2.8125 -2.16465,0 -2.25572,0.503083 -0.83089,4.590353 0.87599,2.512871 0.77712,3.290172 -0.61405,4.827396 -2.27358,2.512276 -4.61634,2.296447 -6.92452,-0.637929 z"
       id="path4140"
       inkscape:connector-curvature="0" />
  </g>
</svg>
