<?xml version="1.0" encoding="UTF-8" standalone="no"?>
<!-- Created with Inkscape (http://www.inkscape.org/) -->

<svg
   xmlns:dc="http://purl.org/dc/elements/1.1/"
   xmlns:cc="http://creativecommons.org/ns#"
   xmlns:rdf="http://www.w3.org/1999/02/22-rdf-syntax-ns#"
   xmlns:svg="http://www.w3.org/2000/svg"
   xmlns="http://www.w3.org/2000/svg"
   xmlns:sodipodi="http://sodipodi.sourceforge.net/DTD/sodipodi-0.dtd"
   xmlns:inkscape="http://www.inkscape.org/namespaces/inkscape"
   id="svg2"
   version="1.1"
   inkscape:version="0.91 r13725"
   width="259"
   height="189.73653"
   viewBox="0 0 259 189.73653"
   sodipodi:docname="transcultures.svg">
  <metadata
     id="metadata8">
    <rdf:RDF>
      <cc:Work
         rdf:about="">
        <dc:format>image/svg+xml</dc:format>
        <dc:type
           rdf:resource="http://purl.org/dc/dcmitype/StillImage" />
        <dc:title></dc:title>
      </cc:Work>
    </rdf:RDF>
  </metadata>
  <defs
     id="defs6" />
  <sodipodi:namedview
     pagecolor="#ffffff"
     bordercolor="#666666"
     borderopacity="1"
     objecttolerance="10"
     gridtolerance="10"
     guidetolerance="10"
     inkscape:pageopacity="0"
     inkscape:pageshadow="2"
     inkscape:window-width="1208"
     inkscape:window-height="669"
     id="namedview4"
     showgrid="false"
     fit-margin-top="0"
     fit-margin-left="0"
     fit-margin-right="0"
     fit-margin-bottom="0"
     inkscape:zoom="1.2164948"
     inkscape:cx="94.974576"
     inkscape:cy="91.508495"
     inkscape:window-x="0"
     inkscape:window-y="28"
     inkscape:window-maximized="0"
     inkscape:current-layer="svg2" />
  <g
     id="g4138"
     transform="translate(0,-0.41603841)">
    <path
       style="fill:#c5c5c5"
       d="m 6,181 0,-9 -3,0 c -2.54560081,0 -3,-0.38456 -3,-2.53893 l 0,-2.53894 8.75,0.28894 c 8.210909,0.27113 8.769688,0.42755 9.069551,2.53893 0.280181,1.97279 -0.120228,2.25 -3.25,2.25 L 11,172 l 0,9 c 0,8.93333 -0.01852,9 -2.5,9 C 6.0185185,190 6,189.9333 6,181 Z m 15,-2.5 0,-11.5 7.045455,0 c 6.147025,0 7.358455,0.313 9.5,2.45455 2.989224,2.98922 3.132737,6.41355 0.413663,9.87029 l -2.040882,2.59456 2.061206,4.0403 2.061206,4.0403 -3.100769,0 c -2.689024,0 -3.309412,-0.53115 -4.672014,-4 -1.211836,-3.08503 -2.108401,-4 -3.919555,-4 C 26.275282,182 26,182.4689 26,186 c 0,3.6 -0.25,4 -2.5,4 l -2.5,0 0,-11.5 z m 13.269359,-2.75 C 35.150254,173.22465 33.72106,172 29.893011,172 26.407133,172 26,172.26145 26,174.5 c 0,2.24113 0.405556,2.5 3.916667,2.5 2.234119,0 4.103977,-0.53698 4.352692,-1.25 z m 7.985733,13 c 0.257988,-0.6875 2.183578,-5.88492 4.279088,-11.54982 3.515443,-9.50347 3.999626,-10.27663 6.262368,-10 2.550936,0.31187 2.763335,0.71357 8.75079,16.54982 l 2.363034,6.25 -2.936134,0 c -2.297887,0 -3.072529,-0.54344 -3.563594,-2.5 -0.535672,-2.13429 -1.20036,-2.5 -4.543803,-2.5 -3.257299,0 -4.076293,0.4207 -4.866841,2.5 -0.681543,1.79259 -1.695182,2.5 -3.582238,2.5 -1.688895,0 -2.463691,-0.44782 -2.16267,-1.25 z M 53.77488,177.40526 c -1.060885,-2.32839 -1.25677,-2.40538 -1.908276,-0.75 C 50.722697,179.56175 50.868392,180 52.978561,180 c 1.766817,0 1.852039,-0.27769 0.796319,-2.59474 z M 67,178.5 67,167 l 2.478936,0 c 1.946129,0 3.450667,1.44851 7,6.73932 L 81,180.47865 81,173.73932 C 81,167.21738 81.080638,167 83.5,167 l 2.5,0 0,11.5 c 0,11.44881 -0.0106,11.5 -2.382542,11.5 -1.839848,0 -3.377358,-1.52939 -6.75,-6.71434 L 72.5,176.57132 72.20431,183.28566 C 71.923272,189.66731 71.787009,190 69.45431,190 L 67,190 67,178.5 Z m 24.860784,9.50067 c -2.290927,-1.94018 -2.304913,-2.0426 -0.472644,-3.46126 1.388511,-1.07507 2.393902,-1.19124 3.799454,-0.43901 2.268112,1.21385 6.829086,0.82167 6.982386,-0.6004 0.0593,-0.55 -1.1922,-1.57807 -2.781092,-2.28461 -7.243546,-3.221 -7.887754,-3.76618 -8.197849,-6.93763 -0.63461,-6.49035 8.350329,-9.93167 13.948181,-5.34227 2.2468,1.84204 2.27664,2.02102 0.61792,3.70714 -1.36128,1.38378 -2.00714,1.50737 -2.95,0.56451 C 102.14321,172.54321 100.34,172 98.8,172 c -4.14935,0 -3.601268,2.75906 0.7087,3.56761 7.84455,1.47165 10.9977,7.72913 6.17685,12.25808 -3.10385,2.91591 -10.478098,3.00925 -13.824766,0.17498 z m 23.889196,0.91922 c -4.36014,-2.53955 -5.9181,-10.18842 -3.33464,-16.37152 2.29193,-5.48534 8.59693,-7.32936 13.44642,-3.93264 3.04441,2.13238 1.39405,3.91358 -2.13589,2.30523 -5.20855,-2.37317 -9.72587,1.19941 -9.72587,7.69183 0,2.74458 1.65624,6.45776 3.3997,7.6219 1.71854,1.14749 6.07395,0.89166 7.4003,-0.43469 0.86218,-0.86218 1.50524,-0.89476 2.28427,-0.11573 2.79265,2.79265 -7.19811,5.64472 -11.33429,3.23562 z m 18.3221,-0.84781 c -3.61475,-3.61475 -4.26879,-20.23189 -0.82208,-20.88641 1.56015,-0.29627 1.75,0.63029 1.75,8.54101 0,9.61089 0.73733,11.27332 5,11.27332 4.25616,0 5,-1.66621 5,-11.2 0,-7.15556 0.2803,-8.8 1.5,-8.8 1.22053,0 1.5,1.65168 1.5,8.86514 0,7.45443 -0.32981,9.28443 -2.07258,11.5 -2.61167,3.3202 -8.86895,3.69333 -11.85534,0.70694 z M 153,178.5 c 0,-9.55556 0.25362,-11.5 1.5,-11.5 1.23333,0 1.5,1.77778 1.5,10 l 0,10 5.5,0 c 4.22222,0 5.5,0.34848 5.5,1.5 0,1.19048 -1.44444,1.5 -7,1.5 l -7,0 0,-11.5 z m 19,1.5 0,-10 -3.5,0 c -2.48528,0 -3.5,-0.4466 -3.5,-1.54044 0,-1.28525 1.35337,-1.49233 8.16951,-1.25 5.42903,0.19301 8.30833,0.70976 8.58333,1.54044 0.27956,0.84443 -0.7488,1.25 -3.16951,1.25 L 175,170 l 0,10 c 0,8.22222 -0.26667,10 -1.5,10 -1.23333,0 -1.5,-1.77778 -1.5,-10 z m 15.07208,8.07208 c -3.61475,-3.61475 -4.26879,-20.23189 -0.82208,-20.88641 1.56015,-0.29627 1.75,0.63029 1.75,8.54101 C 188,185.41574 188.72582,187 193.16482,187 197.00848,187 198,184.55272 198,175.06574 198,168.56286 198.29065,167 199.5,167 c 1.22053,0 1.5,1.65168 1.5,8.86514 0,7.45443 -0.32981,9.28443 -2.07258,11.5 -2.61167,3.3202 -8.86895,3.69333 -11.85534,0.70694 z M 206,178.5 l 0,-11.5 6.04545,0 c 5.14697,0 6.4245,0.37904 8.59578,2.55032 2.95516,2.95516 2.6232,6.87638 -0.80705,9.53333 l -2.04456,1.58364 2.10519,4.12652 c 2.51098,4.92194 2.54332,5.20619 0.59219,5.20619 -0.83215,0 -2.49681,-2.025 -3.69926,-4.5 -1.8179,-3.74178 -2.65818,-4.5 -4.98701,-4.5 -2.65272,0 -2.80073,0.23781 -2.80073,4.5 0,3.33333 -0.38889,4.5 -1.5,4.5 -1.24638,0 -1.5,-1.94444 -1.5,-11.5 z m 10.80361,-1.14431 c 1.87667,-0.50264 2.24735,-1.19513 2,-3.73634 -0.28827,-2.96179 -0.54353,-3.13474 -5.05361,-3.42414 l -4.75,-0.30479 0,4.05479 c 0,3.76005 0.19989,4.0538 2.75,4.04114 1.5125,-0.008 3.78663,-0.29131 5.05361,-0.63066 z M 227,178.5 l 0,-11.5 7,0 c 5.55556,0 7,0.30952 7,1.5 0,1.15152 -1.27778,1.5 -5.5,1.5 -5.44444,0 -5.5,0.0303 -5.5,3 0,2.66667 0.33333,3 3,3 2,0 3,0.5 3,1.5 0,1 -1,1.5 -3,1.5 -2.83333,0 -3,0.22222 -3,4 l 0,4 5.5,0 c 4.22222,0 5.5,0.34848 5.5,1.5 0,1.19048 -1.44444,1.5 -7,1.5 l -7,0 0,-11.5 z m 19.25,10.27951 c -1.2375,-0.59683 -2.25,-1.43981 -2.25,-1.87331 0,-1.51221 2.0982,-2.06959 3.47848,-0.92406 0.76498,0.63488 2.88277,1.01112 4.7062,0.83609 2.53264,-0.2431 3.38925,-0.83788 3.62847,-2.51938 0.25155,-1.7682 -0.69206,-2.71054 -4.79733,-4.79083 -5.50607,-2.79014 -7.41332,-5.77912 -5.74795,-9.00802 1.43519,-2.78262 2.7212,-3.46701 6.54787,-3.48469 4.72776,-0.0218 7.67027,1.69415 6.11615,3.56676 -0.87881,1.0589 -1.54484,1.15412 -2.5041,0.358 -2.13391,-1.77099 -6.88502,-0.73847 -7.21565,1.56812 -0.22259,1.55278 0.9113,2.58057 5,4.53218 4.63505,2.21239 5.32741,2.93279 5.60819,5.83535 0.43577,4.5046 -2.07978,7.14406 -6.72532,7.0566 -1.97725,-0.0372 -4.60751,-0.55599 -5.84501,-1.15281 z M 30,118.96482 C 30,93.541781 29.954558,92.953952 28.067316,93.963974 24.53173,95.856162 21,96.960431 21,96.173717 c 0,-0.427229 2.25,-1.727378 5,-2.889219 l 5,-2.112439 0,26.913971 C 31,132.88871 30.775,145 30.5,145 30.225,145 30,133.28417 30,118.96482 Z M 229.23266,118.30542 229,91.110838 l 5,2.077906 c 2.75,1.142849 5,2.451918 5,2.909044 0,0.457125 -2.01757,-0.03369 -4.48348,-1.090707 l -4.48348,-1.921843 -0.28386,26.207382 -0.28385,26.20738 -0.23267,-27.19458 z M 36.233667,115.42025 36.5,88.840494 52.741851,81.745432 C 61.67487,77.843147 68.845781,74.512448 68.67721,74.343876 68.508638,74.175305 61.424805,70.97324 52.935358,67.228177 L 37.5,60.41897 37.233896,33.831108 36.967792,7.2432452 83.074549,27.597453 129.18131,47.951661 175.61532,27.47583 C 201.15404,16.214124 222.27059,7 222.54101,7 c 0.27041,0 0.37181,12.003809 0.22532,26.675132 L 222.5,60.350263 l -15.75893,6.98261 c -8.6674,3.840435 -15.51773,7.223802 -15.22294,7.518593 0.29479,0.294791 7.38631,3.537277 15.75893,7.205525 L 222.5,88.726533 222.76633,115.36327 C 222.91282,130.01347 222.815,142 222.54896,142 222.28292,142 201.46307,132.92612 176.28262,121.83583 151.10218,110.74553 130.05,101.67165 129.5,101.67165 c -0.55,0 -21.60218,9.07388 -46.782624,20.16418 C 57.536933,132.92612 36.717083,142 36.451043,142 c -0.26604,0 -0.36386,-11.96089 -0.217376,-26.57975 z M 129.68311,96.8125 c -0.31922,-0.797733 -0.55618,-0.560776 -0.60416,0.604167 -0.0434,1.054166 0.19292,1.644791 0.52522,1.3125 0.33229,-0.332292 0.36781,-1.194792 0.0789,-1.916667 z m 0,-5 c -0.31922,-0.797733 -0.55618,-0.560776 -0.60416,0.604167 -0.0434,1.054166 0.19292,1.644791 0.52522,1.3125 0.33229,-0.332292 0.36781,-1.194792 0.0789,-1.916667 z m 0,-5 c -0.31922,-0.797733 -0.55618,-0.560776 -0.60416,0.604167 -0.0434,1.054166 0.19292,1.644791 0.52522,1.3125 0.33229,-0.332292 0.36781,-1.194792 0.0789,-1.916667 z m 0,-5 c -0.31922,-0.797733 -0.55618,-0.560776 -0.60416,0.604167 -0.0434,1.054166 0.19292,1.644791 0.52522,1.3125 0.33229,-0.332292 0.36781,-1.194792 0.0789,-1.916667 z m 0,-5 c -0.31922,-0.797733 -0.55618,-0.560776 -0.60416,0.604167 -0.0434,1.054166 0.19292,1.644791 0.52522,1.3125 0.33229,-0.332292 0.36781,-1.194792 0.0789,-1.916667 z m 0,-11 c -0.31922,-0.797733 -0.55618,-0.560776 -0.60416,0.604167 -0.0434,1.054166 0.19292,1.644791 0.52522,1.3125 0.33229,-0.332292 0.36781,-1.194792 0.0789,-1.916667 z m 0,-5 c -0.31922,-0.797733 -0.55618,-0.560776 -0.60416,0.604167 -0.0434,1.054166 0.19292,1.644791 0.52522,1.3125 0.33229,-0.332292 0.36781,-1.194792 0.0789,-1.916667 z m 0,-5 c -0.31922,-0.797733 -0.55618,-0.560776 -0.60416,0.604167 -0.0434,1.054166 0.19292,1.644791 0.52522,1.3125 0.33229,-0.332292 0.36781,-1.194792 0.0789,-1.916667 z m 0,-5 c -0.31922,-0.797733 -0.55618,-0.560776 -0.60416,0.604167 -0.0434,1.054166 0.19292,1.644791 0.52522,1.3125 0.33229,-0.332292 0.36781,-1.194792 0.0789,-1.916667 z M 30,31.046794 30,5.0935888 25.345462,3.0346654 C 22.785467,1.9022576 20.915925,0.7507421 21.190925,0.4757421 c 0.275,-0.275 2.594542,0.42651551 5.154537,1.5589233 L 31,4.0935888 31,30.546794 C 31,45.096057 30.775,57 30.5,57 30.225,57 30,45.321057 30,31.046794 Z m 199.23266,-0.25 L 229,4.0935888 233.65454,2.0346654 c 2.55999,-1.13240779 4.87954,-1.8339233 5.15454,-1.5589233 0.275,0.275 -1.58711,1.4232258 -4.13802,2.551613 L 230.03305,5.0789681 229.74919,31.289484 229.46533,57.5 229.23266,30.796794 Z"
       id="path4152"
       inkscape:connector-curvature="0" />
    <path
       style="fill:#acacac"
       d="m 6,181 0,-9 -3,0 c -2.53333333,0 -3,-0.38889 -3,-2.5 0,-2.47059 0.1,-2.5 8.5,-2.5 8.4,0 8.5,0.0294 8.5,2.5 0,2.11111 -0.466667,2.5 -3,2.5 l -3,0 0,9 c 0,8.93333 -0.01852,9 -2.5,9 C 6.0185185,190 6,189.93333 6,181 Z M 21.217249,178.75 21.5,167.5 l 6,-0.25814 c 7.358461,-0.31658 10.625784,1.21433 11.873001,5.56312 0.782279,2.72765 0.573509,3.77609 -1.24046,6.22962 l -2.181039,2.95001 2.044573,4.0077 2.044573,4.00769 -2.86845,0 c -2.379233,0 -3.17608,-0.6822 -4.672198,-4 -1.361334,-3.0189 -2.379686,-4 -4.151874,-4 C 26.275312,182 26,182.46899 26,186 c 0,3.61379 -0.244541,4 -2.532751,4 l -2.532751,0 0.282751,-11.25 z M 34.5,174.5 c 0,-1.63804 -0.769166,-2.05565 -4.25,-2.3075 C 26.255101,171.90346 26,172.04197 26,174.5 c 0,2.45803 0.255101,2.59654 4.25,2.3075 3.480834,-0.25185 4.25,-0.66946 4.25,-2.3075 z m 7.501454,15.25 c 8e-4,-0.1375 1.933582,-5.2 4.295071,-11.25 3.737778,-9.57597 4.591967,-11 6.598247,-11 2.007908,0 2.806796,1.33728 6.204929,10.38657 C 61.244866,183.59919 63,188.66169 63,189.13657 63,189.61146 61.923784,190 60.608408,190 c -1.717042,0 -2.568567,-0.70513 -3.019052,-2.5 -0.538545,-2.14573 -1.194624,-2.5 -4.629847,-2.5 -3.298792,0 -4.202629,0.43948 -5.141463,2.5 -0.742525,1.62966 -1.953531,2.5 -3.478561,2.5 -1.286717,0 -2.338831,-0.1125 -2.338031,-0.25 z m 11.779374,-12.94887 c -0.982747,-2.81911 -1.205664,-2.96751 -1.877696,-1.25 C 50.62805,178.80985 50.907566,180 52.94798,180 c 1.75707,0 1.838693,-0.3135 0.832848,-3.19887 z m 13.649418,11.87769 c -0.278841,-0.72665 -0.377218,-5.78915 -0.218615,-11.25 0.267677,-9.21637 0.439058,-9.95034 2.3884,-10.22872 1.630912,-0.2329 3.082928,1.21115 6.5,6.46434 l 4.399969,6.76424 0.297135,-6.77772 c 0.277981,-6.34083 0.439127,-6.75751 2.5,-6.46433 2.101633,0.29897 2.215859,0.83036 2.485616,11.56337 0.279851,11.1346 0.259335,11.24983 -2,11.23317 -1.721678,-0.0127 -3.448084,-1.79466 -7.02396,-7.25 L 72.017582,175.5 l -0.0088,7.25 c -0.008,6.61779 -0.185932,7.25 -2.040176,7.25 -1.117261,0 -2.259527,-0.59453 -2.538369,-1.32118 z M 92.75,188.42803 c -3.221091,-1.74748 -3.351929,-2.2674 -1.002835,-3.9851 1.169214,-0.85495 2.139987,-0.95155 2.934676,-0.29202 1.737028,1.44161 7.818159,0.63226 7.818159,-1.04053 0,-0.77296 -1.90007,-1.95065 -4.281691,-2.65386 -2.354929,-0.69533 -4.942429,-1.8126 -5.75,-2.48282 -1.543109,-1.28067 -1.95342,-5.70131 -0.702996,-7.574 2.302103,-3.44772 9.339177,-4.41567 13.075627,-1.79855 2.18418,1.52985 2.2085,1.68674 0.54614,3.52363 -1.18666,1.31123 -2.06528,1.59702 -2.76345,0.89885 C 101.01014,171.41014 96,171.75958 96,173.4856 c 0,0.92774 1.701871,1.91414 4.53211,2.6268 7.30822,1.84023 9.53285,6.91355 5.01334,11.43305 -2.86834,2.86835 -8.428202,3.25185 -12.79545,0.88258 z m 22.50181,0.0358 c -4.68524,-3.28167 -5.38255,-13.79961 -1.21169,-18.27651 3.50889,-3.76636 11.27176,-4.14409 12.62624,-0.61438 0.78491,2.04544 -0.41867,3.07476 -1.88303,1.6104 -1.65623,-1.65623 -7.29433,-1.47747 -8.75078,0.27745 -0.66679,0.80343 -1.43515,3.16593 -1.70748,5.25 -1.03928,7.95349 3.97298,13.28962 9.24087,9.83797 3.45867,-2.26621 5.65026,-0.51402 2.29582,1.83552 -2.91124,2.03912 -7.76037,2.07547 -10.60995,0.0796 z m 18.9225,-0.77827 C 132.26768,185.65603 132,184.24026 132,176.18555 132,170.72852 132.40591,167 133,167 c 0.56935,0 1,2.95026 1,6.85078 0,11.60486 3.19623,16.21634 8.72758,12.59206 C 144.81147,185.07742 145,184.20913 145,175.97695 145,168.66411 145.27806,167 146.5,167 c 1.22053,0 1.5,1.65168 1.5,8.86514 0,7.45443 -0.32981,9.28443 -2.07258,11.5 -2.76838,3.51943 -8.59847,3.67836 -11.75311,0.32041 z m 19.04294,-8.85407 c 0.1984,-7.83685 0.65564,-11.29226 1.53275,-11.58333 0.94478,-0.31353 1.25,2.04728 1.25,9.66852 L 156,187 l 5.5,0 c 4.22222,0 5.5,0.34848 5.5,1.5 0,1.19114 -1.44808,1.5 -7.03275,1.5 l -7.03275,0 0.28275,-11.16852 z M 172,180 l 0,-10 -3,0 c -2,0 -3,-0.5 -3,-1.5 0,-1.2 1.5,-1.5 7.5,-1.5 6,0 7.5,0.3 7.5,1.5 0,1 -1,1.5 -3,1.5 l -3,0 0,10 c 0,8.22222 -0.26667,10 -1.5,10 -1.23333,0 -1.5,-1.77778 -1.5,-10 z m 15.17431,7.68555 C 185.26475,185.65291 185,184.24249 185,176.10222 c 0,-6.72536 0.3268,-9.15995 1.1909,-8.87192 0.77489,0.2583 1.10063,2.34579 0.93249,5.97574 -0.52686,11.37388 3.04976,16.87621 8.60419,13.2368 C 197.81147,185.07742 198,184.20913 198,175.97695 198,168.66411 198.27806,167 199.5,167 c 1.22053,0 1.5,1.65168 1.5,8.86514 0,7.45443 -0.32981,9.28443 -2.07258,11.5 -2.76838,3.51943 -8.59847,3.67836 -11.75311,0.32041 z M 206.21725,178.75 206.5,167.5 l 6.10068,0.004 c 7.22427,0.004 9.39932,1.40942 9.39932,6.07213 0,2.34276 -0.70828,3.86386 -2.38758,5.12756 l -2.38758,1.79668 2.40442,4.75 c 1.9338,3.82025 2.11083,4.75 0.90443,4.75 -0.825,0 -2.64016,-2.25 -4.03369,-5 -2.01549,-3.97739 -3.04155,-5 -5.01685,-5 -2.31311,0 -2.48315,0.34238 -2.48315,5 0,3.82526 -0.36012,5 -1.53275,5 -1.30293,0 -1.49036,-1.68685 -1.25,-11.25 z m 12.21132,-2.32143 c 1.85909,-1.85909 1.87504,-1.99275 0.53625,-4.49431 C 218.17865,170.4653 216.85559,170 213.46482,170 L 209,170 l 0,4 c 0,3.98788 0.0119,4 3.92857,4 2.2381,0 4.60476,-0.67619 5.5,-1.57143 z M 227,178.5 l 0,-11.5 7,0 c 5.55556,0 7,0.30952 7,1.5 0,1.15152 -1.27778,1.5 -5.5,1.5 l -5.5,0 0,3.5 c 0,3.22222 0.2381,3.5 3,3.5 1.65,0 3,0.45 3,1 0,0.55 -1.35,1 -3,1 -2.83333,0 -3,0.22222 -3,4 l 0,4 5.5,0 c 4.22222,0 5.5,0.34848 5.5,1.5 0,1.19048 -1.44444,1.5 -7,1.5 l -7,0 0,-11.5 z m 19.13824,9.88427 c -3.32151,-2.32647 -1.24016,-3.78069 2.64039,-1.84482 2.44713,1.22079 3.61462,1.32045 5.24525,0.44777 3.50828,-1.87758 2.09986,-5.04549 -3.52388,-7.9261 -4.21513,-2.15909 -5.04806,-3.05621 -5.30619,-5.71506 -0.50954,-5.24845 5.25835,-7.91969 11.22778,-5.19983 3.78925,1.7265 2.13026,2.8249 -3.29598,2.18224 -3.89458,-0.46125 -4.93965,-0.25546 -5.44946,1.0731 -0.69838,1.81993 2.46632,5.59843 4.68899,5.59843 2.78069,0 6.63486,4.0755 6.63486,7.01588 0,5.3029 -7.76316,7.93959 -12.86176,4.36839 z M 29.991211,119.29782 29.5,93.09564 25.210182,95.016755 c -2.359399,1.056613 -4.068639,1.563241 -3.79831,1.125839 0.719432,-1.164065 8.520473,-4.543582 9.115219,-3.948836 0.278685,0.278685 0.382643,12.386602 0.231016,26.906472 L 30.482422,145.5 29.991211,119.29782 Z M 229.23266,118.75 C 229.1047,104.0375 229.33277,92 229.73949,92 c 1.57693,0 9.25321,3.541222 9.25676,4.270324 0.002,0.423678 -1.77832,-0.138822 -3.95641,-1.25 C 232.86175,93.909146 230.84422,93 230.55644,93 c -0.28778,0 -0.65101,11.8125 -0.80717,26.25 l -0.28394,26.25 -0.23267,-26.75 z M 175.5,121.30609 129.5,100.93236 84,120.96947 c -25.025,11.0204 -45.844972,20.03562 -46.266603,20.03382 -0.421632,-0.002 -0.646632,-11.75486 -0.5,-26.11789 L 37.5,88.770805 50.5,83.04676 c 7.15,-3.148224 15.925,-7.099131 19.5,-8.779792 3.575,-1.680662 17.525,-7.894165 31,-13.807786 13.475,-5.913621 45.875,-20.178872 72,-31.700558 26.125,-11.521686 48.06995,-21.1817955 48.76655,-21.4669103 1.00726,-0.4122659 1.21198,4.9502193 1,26.1942893 L 222.5,60.198683 208,66.580812 c -7.975,3.510171 -15.3435,6.748281 -16.37445,7.1958 -1.45069,0.629723 1.88386,2.476349 14.75,8.168332 L 223,89.299605 l 0,25.791185 c 0,14.18514 -0.3375,25.97069 -0.75,26.1901 -0.4125,0.21942 -21.45,-8.76925 -46.75,-19.9748 z M 130,97.440983 c 0,-0.857459 -0.45,-1.280902 -1,-0.940983 -0.55,0.339919 -1,1.041476 -1,1.559017 C 128,98.576558 128.45,99 129,99 c 0.55,0 1,-0.701558 1,-1.559017 z m 0,-5 c 0,-0.857459 -0.45,-1.280902 -1,-0.940983 -0.55,0.339919 -1,1.041476 -1,1.559017 C 128,93.576558 128.45,94 129,94 c 0.55,0 1,-0.701558 1,-1.559017 z M 130,87.5 c 0,-0.825 -0.45,-1.5 -1,-1.5 -0.55,0 -1,0.675 -1,1.5 0,0.825 0.45,1.5 1,1.5 0.55,0 1,-0.675 1,-1.5 z m -0.39583,-6.229167 c -1.01652,-1.016515 -1.85525,0.513892 -1.02122,1.863382 0.63003,1.019417 0.86558,1.020206 1.2043,0.004 0.2316,-0.694785 0.14921,-1.535121 -0.18308,-1.867413 z m 0,-5 c -1.01652,-1.016515 -1.85525,0.513892 -1.02122,1.863382 0.63003,1.019417 0.86558,1.020206 1.2043,0.004 0.2316,-0.694785 0.14921,-1.535121 -0.18308,-1.867413 z M 130,71.8 c 0,-1.615417 -0.29571,-1.904289 -1.11287,-1.087132 -0.61207,0.612077 -0.81052,1.602077 -0.44098,2.2 C 129.48054,74.586548 130,74.214511 130,71.8 Z m 0,-5.359017 c 0,-0.857459 -0.45,-1.280902 -1,-0.940983 -0.55,0.339919 -1,1.041476 -1,1.559017 C 128,67.576558 128.45,68 129,68 c 0.55,0 1,-0.701558 1,-1.559017 z m 0,-5 c 0,-0.857459 -0.45,-1.280902 -1,-0.940983 -0.55,0.339919 -1,1.041476 -1,1.559017 C 128,62.576558 128.45,63 129,63 c 0.55,0 1,-0.701558 1,-1.559017 z m -0.39583,-6.17015 c -1.01652,-1.016515 -1.85525,0.513892 -1.02122,1.863382 0.63003,1.019417 0.86558,1.020206 1.2043,0.004 0.2316,-0.694785 0.14921,-1.535121 -0.18308,-1.867413 z m 0,-5 c -1.01652,-1.016515 -1.85525,0.513892 -1.02122,1.863382 0.63003,1.019417 0.86558,1.020206 1.2043,0.004 0.2316,-0.694785 0.14921,-1.535121 -0.18308,-1.867413 z M 30,30.964463 30,4.9289252 25.5,3 C 23.025,1.9390911 21,0.82404395 21,0.52211737 c 0,-0.30192658 1.6875,0.17294574 3.75,1.05527183 2.0625,0.8823261 4.3125,1.83651 5,2.1204088 C 30.705388,4.0923193 31,10.434542 31,30.606989 31,45.123145 30.775,57 30.5,57 30.225,57 30,45.284008 30,30.964463 Z m 199.23266,-0.107474 c -0.17946,-20.55053 0.0532,-26.7610466 1.01734,-27.159191 0.6875,-0.2838988 2.9375,-1.2380827 5,-2.1204088 2.0625,-0.88232609 3.75,-1.35719841 3.75,-1.05527183 0,0.30192658 -2.01749,1.41375503 -4.48331,2.47072983 L 230.03337,4.9146196 229.74935,31.20731 229.46533,57.5 229.23266,30.856989 Z"
       id="path4150"
       inkscape:connector-curvature="0" />
    <path
       style="fill:#8e8e8e"
       d="M 6.6666667,189.33333 C 6.3,188.96667 6,184.91667 6,180.33333 L 6,172 3,172 c -2.53333333,0 -3,-0.38889 -3,-2.5 0,-2.47059 0.1,-2.5 8.5,-2.5 8.4,0 8.5,0.0294 8.5,2.5 0,2.11111 -0.466667,2.5 -3,2.5 l -3,0 0,9 c 0,8.06061 -0.191358,9 -1.8333333,9 -1.0083334,0 -2.1333334,-0.3 -2.5,-0.66667 z M 22,179.5 c 0,-5.775 -0.1125,-10.8375 -0.25,-11.25 -0.415391,-1.24617 8.496712,-1.47792 12.380473,-0.32193 4.387193,1.30583 6.508592,5.26086 4.979309,9.28318 -0.539294,1.41845 -1.572115,2.77856 -2.295158,3.02247 -1.041286,0.35126 -0.950762,1.2118 0.435376,4.1388 C 39.544772,189.21821 39.461678,190 36.651874,190 34.879686,190 33.861334,189.0189 32.5,186 31.138666,182.9811 30.120314,182 28.348126,182 26.275312,182 26,182.46899 26,186 c 0,3.33333 -0.333333,4 -2,4 -1.873016,0 -2,-0.66667 -2,-10.5 z m 12.5,-5 c 0,-1.63804 -0.769166,-2.05565 -4.25,-2.3075 -4.08571,-0.29561 -4.25,-0.19637 -4.25,2.56723 0,2.80434 0.104057,2.86084 4.25,2.3075 3.394257,-0.45302 4.25,-0.96993 4.25,-2.56723 z m 9.496154,10.25 c 5.987772,-15.9728 6.621259,-17.251 8.700568,-17.55532 1.758053,-0.25731 2.518038,0.8436 4.832274,7 1.51037,4.01792 3.359224,8.82278 4.108566,10.67744 1.810894,4.48209 1.7279,5.12788 -0.659001,5.12788 -1.185781,0 -2.49233,-1.03349 -3.160515,-2.5 -0.953761,-2.09328 -1.827425,-2.5 -5.370153,-2.5 -3.679159,0 -4.312925,0.32611 -4.858537,2.5 -0.457165,1.82149 -1.296989,2.5 -3.094373,2.5 l -2.466912,0 1.968083,-5.25 z m 10.968411,-5.5 c -0.05923,-1.25362 -2.890111,-5.823 -2.942784,-4.75 -0.027,0.55 -0.32043,2.0125 -0.652067,3.25 -0.486288,1.81458 -0.193364,2.25 1.513655,2.25 1.164147,0 2.100685,-0.3375 2.081196,-0.75 z M 68,178.5 c 0,-10.64901 0.141208,-11.5 1.908243,-11.5 1.272001,0 3.423209,2.36791 6.451987,7.10191 l 4.543744,7.10192 0.298013,-6.85192 C 81.466684,168.266 81.723588,167.5 83.5,167.5 c 1.878788,0 2,0.66667 2,11 0,10.24631 -0.137035,11.01789 -2,11.26108 -1.504127,0.19635 -3.175518,-1.53921 -6.741209,-7 L 72.017582,175.5 l -0.0088,7.25 C 72.000812,189.3304 71.815284,190 70,190 c -1.884058,0 -2,-0.66667 -2,-11.5 z m 25.25,10.27951 c -2.448426,-1.18084 -2.863328,-2.76618 -1.167701,-4.46181 0.776399,-0.7764 1.904929,-0.67192 3.992828,0.36966 1.600791,0.79858 3.839348,1.15717 4.974573,0.79687 3.42598,-1.08737 1.83936,-3.7843 -3.055235,-5.19329 -7.290861,-2.09878 -9.318883,-7.31739 -4.359606,-11.21836 3.155858,-2.4824 6.385931,-2.63031 10.539121,-0.48261 2.80825,1.4522 2.93712,1.72751 1.48728,3.17734 -1.29136,1.29137 -2.05826,1.37283 -4.11247,0.43687 -1.3888,-0.63278 -3.205423,-0.88944 -4.036941,-0.57035 -2.743791,1.05289 -1.57466,3.27217 2.269049,4.30717 5.659212,1.52387 7.552432,3.29698 7.552432,7.07329 0,5.89251 -7.474751,8.95241 -14.08333,5.76522 z m 21.46441,-1.33783 c -5.24577,-5.24577 -3.954,-15.84997 2.35488,-19.33139 3.60889,-1.99149 11.08939,0.20591 9.49318,2.78863 -0.49322,0.79805 -1.31722,0.68584 -2.85062,-0.3882 -2.98144,-2.08828 -4.41114,-1.90234 -7.2573,0.94383 -3.46797,3.46796 -3.46797,10.62294 0,14.0909 2.82734,2.82735 4.38448,3.04354 7.10432,0.98635 2.35867,-1.78401 3.44113,-1.90733 3.44113,-0.39204 0,1.88446 -3.29976,3.79459 -6.61364,3.82844 -2.03669,0.0208 -3.9985,-0.85307 -5.67195,-2.52652 z m 19.35817,-0.0765 C 132.32981,185.14957 132,183.31957 132,175.86514 132,170.98931 132.40523,167 132.9005,167 c 0.49528,0 1.05778,4.08655 1.25,9.08121 0.29204,7.5883 0.66862,9.31446 2.29063,10.5 2.24262,1.63915 4.42652,1.78664 6.55887,0.44295 1.09114,-0.68757 1.63629,-3.47726 2,-10.23469 0.6493,-12.06322 2.5,-11.83233 2.5,0.31189 0,8.33572 -0.19331,9.23555 -2.36078,10.98891 -3.49472,2.82702 -8.53216,2.49695 -11.06664,-0.72513 z M 154,178.5 c 0,-7 0.3913,-11.5 1,-11.5 0.6,0 1,4 1,10 l 0,10 5.5,0 c 4.22222,0 5.5,0.34848 5.5,1.5 0,1.17949 -1.38889,1.5 -6.5,1.5 l -6.5,0 0,-11.5 z m 18,1.5 0,-10 -3,0 c -2,0 -3,-0.5 -3,-1.5 0,-1.2 1.5,-1.5 7.5,-1.5 6,0 7.5,0.3 7.5,1.5 0,1 -1,1.5 -3,1.5 l -3,0 0,10 c 0,8.22222 -0.26667,10 -1.5,10 -1.23333,0 -1.5,-1.77778 -1.5,-10 z m 15.07258,7.36514 C 185.32981,185.14957 185,183.31957 185,175.86514 185,170.98931 185.40523,167 185.9005,167 c 0.49528,0 1.05778,4.08655 1.25,9.08121 0.29204,7.5883 0.66862,9.31446 2.29063,10.5 2.24262,1.63915 4.42652,1.78664 6.55887,0.44295 1.09114,-0.68757 1.63629,-3.47726 2,-10.23469 0.6493,-12.06322 2.5,-11.83233 2.5,0.31189 0,8.33572 -0.19331,9.23555 -2.36078,10.98891 -3.49472,2.82702 -8.53216,2.49695 -11.06664,-0.72513 z m 19.35767,1.31368 c -0.27884,-0.72665 -0.37722,-5.78915 -0.21862,-11.25 L 206.5,167.5 l 6.21005,0.0944 c 3.43274,0.0522 6.89876,0.66598 7.75,1.37245 2.44275,2.02729 1.95523,7.62728 -0.84763,9.73647 l -2.38758,1.79668 2.40442,4.75 c 1.9338,3.82025 2.11083,4.75 0.90443,4.75 -0.825,0 -2.64016,-2.25 -4.03369,-5 -2.01549,-3.97739 -3.04155,-5 -5.01685,-5 -2.31311,0 -2.48315,0.34238 -2.48315,5 0,4.67064 -1.41295,6.6934 -2.56975,3.67882 z m 12.73821,-13.14921 C 220.81678,171.91194 218.8145,170 213.37756,170 L 209,170 l 0,4 0,4 4.52144,0 c 3.83799,0 4.69158,-0.37341 5.64702,-2.47039 z m 7.83154,2.9247 0,-11.54569 6.6703,0.29569 c 4.22318,0.18721 6.82183,0.75428 7.08334,1.54569 0.2974,0.90006 -1.15002,1.25 -5.17031,1.25 L 230,170 l 0,3.5 c 0,3.22222 0.2381,3.5 3,3.5 1.65,0 3,0.45 3,1 0,0.55 -1.35,1 -3,1 -2.83333,0 -3,0.22222 -3,4 l 0,4 5.5,0 c 4.22222,0 5.5,0.34848 5.5,1.5 0,1.19048 -1.44444,1.5 -7,1.5 l -7,0 0,-11.54569 z m 19.75,10.46559 c -0.9625,-0.5606 -1.75,-1.68348 -1.75,-2.49527 0,-1.29009 0.37159,-1.28383 2.95034,0.0497 3.85248,1.9922 5.37888,1.92436 7.41878,-0.3297 2.41642,-2.67011 1.2542,-4.47133 -4.65981,-7.22185 -4.49025,-2.08834 -5.25158,-2.85812 -5.5155,-5.57671 -0.22948,-2.3637 0.26474,-3.55383 1.9725,-4.75 2.8213,-1.97611 6.82793,-2.05198 9.39099,-0.17782 2.622,1.91725 1.36972,2.88471 -2.05069,1.58427 -5.45481,-2.07391 -9.58784,1.89379 -5.45701,5.23873 1.19458,0.96732 2.73643,1.75876 3.42633,1.75876 2.42966,0 6.52407,4.12485 6.52407,6.57258 0,5.11887 -7.22639,8.27331 -12.25,5.34732 z M 29.782394,117.9993 C 29.627077,103.69891 29.8375,91.998912 30.25,91.999298 30.6625,91.999684 31,103.7 31,118 c 0,14.3 -0.210423,26 -0.467606,26 -0.257184,0 -0.594684,-11.70032 -0.75,-26.0007 z M 229.23236,118.25 c -0.18124,-20.475302 0.0426,-26.240779 1.01764,-26.208084 1.5227,0.05106 8.66024,3.871595 7.25,3.880733 -0.55,0.0036 -2.125,-0.636628 -3.5,-1.422649 -1.375,-0.786021 -2.8299,-1.445075 -3.23312,-1.464565 -0.40321,-0.01949 -0.86115,11.552065 -1.01764,25.714565 l -0.28452,25.75 -0.23236,-26.25 z M 37,115.10699 C 37,95.330058 37.295257,89.094039 38.25,88.706205 38.9375,88.42693 59.975,79.107377 85,67.996087 183.87604,24.094375 220.55342,8.0034449 221.75,8.0017601 222.71787,8.0003973 223,13.845504 223,33.898881 l 0,25.898881 -16.50385,7.263937 c -9.07711,3.995166 -16.29098,7.476803 -16.03081,7.736972 0.26017,0.260168 7.3494,3.500762 15.75385,7.20132 L 221.5,88.728278 221.7666,114.86414 C 221.91324,129.23886 221.73336,141 221.36687,141 c -0.36648,0 -21.14191,-9.02033 -46.16761,-20.04518 -39.10645,-17.228 -45.86654,-19.91404 -48.10027,-19.11203 -1.42944,0.51323 -22.06568,9.53357 -45.858299,20.04518 C 57.448071,132.39959 37.760571,141 37.490691,141 37.220811,141 37,129.34814 37,115.10699 Z m 93.21667,-18.290323 c -1.52752,-1.527513 -2.65464,-0.400386 -1.80743,1.807422 0.50024,1.303582 0.93392,1.432751 1.82354,0.543128 0.88963,-0.889623 0.88579,-1.448644 -0.0161,-2.35055 z M 130.77083,92.8125 C 130.15276,90.958277 128,90.65074 128,92.416667 128,93.2875 128.7125,94 129.58333,94 c 0.87084,0 1.40521,-0.534375 1.1875,-1.1875 z m 0,-5.625 C 130.98854,86.534375 130.45417,86 129.58333,86 128.7125,86 128,86.7125 128,87.583333 c 0,1.765927 2.15276,1.45839 2.77083,-0.395833 z M 130.5,82.166667 c 0,-1.808656 -1.9573,-1.478465 -2.3455,0.39568 -0.21599,1.042717 0.15888,1.499861 1,1.219487 0.74002,-0.246675 1.3455,-0.973501 1.3455,-1.615167 z m 0,-5 c 0,-1.808656 -1.9573,-1.478465 -2.3455,0.39568 -0.21599,1.042717 0.15888,1.499861 1,1.219487 0.74002,-0.246675 1.3455,-0.973501 1.3455,-1.615167 z M 130.5,72 c 0,-0.733333 -0.5625,-1.520833 -1.25,-1.75 -0.74359,-0.247863 -1.25,0.461111 -1.25,1.75 0,1.288889 0.50641,1.997863 1.25,1.75 0.6875,-0.229167 1.25,-1.016667 1.25,-1.75 z m -0.28333,-6.183333 c -1.52752,-1.527513 -2.65464,-0.400386 -1.80743,1.807422 0.50024,1.303582 0.93392,1.432752 1.82354,0.543128 0.88963,-0.889623 0.88579,-1.448644 -0.0161,-2.35055 z M 130.77083,61.8125 C 130.15276,59.958277 128,59.65074 128,61.416667 128,62.2875 128.7125,63 129.58333,63 c 0.87084,0 1.40521,-0.534375 1.1875,-1.1875 z m 0,-5.625 C 130.98854,55.534375 130.45417,55 129.58333,55 128.7125,55 128,55.7125 128,56.583333 c 0,1.765927 2.15276,1.45839 2.77083,-0.395833 z M 130.5,51.166667 c 0,-1.808656 -1.9573,-1.478465 -2.3455,0.39568 -0.21599,1.042717 0.15888,1.499861 1,1.219487 0.74002,-0.246675 1.3455,-0.973501 1.3455,-1.615167 z M 24,94.5 c 1.375,-0.786021 2.95,-1.429129 3.5,-1.429129 0.55,0 -0.125,0.643108 -1.5,1.429129 -1.375,0.786021 -2.95,1.429129 -3.5,1.429129 -0.55,0 0.125,-0.643108 1.5,-1.429129 z M 30,31.031937 30,5.0638745 27.25,3.5719749 C 23.979211,1.7975428 24.825921,1.5079314 28.452947,3.160515 L 31,4.32103 31,30.660515 C 31,45.147232 30.775,57 30.5,57 30.225,57 30,45.314372 30,31.031937 Z M 229.22495,30.910515 229,4.32103 231.54705,3.160515 C 235.05443,1.5624464 236.0547,1.7641074 233,3.4534397 L 230.5,4.8360085 229.97495,31.168004 229.4499,57.5 229.22495,30.910515 Z M 21.507079,1.0114544 C 21.15674,0.44459431 21.558137,0.27694688 22.448062,0.6184432 24.180479,1.2832341 24.497449,2 23.059017,2 22.541476,2 21.843104,1.5551545 21.507079,1.0114544 Z M 236,1.6069888 c 0,-0.2161562 0.69837,-0.66100167 1.55194,-0.9885456 0.88992,-0.34149632 1.29132,-0.17384889 0.94098,0.3930112 C 237.90566,1.9616577 236,2.4169019 236,1.6069888 Z"
       id="path4148"
       inkscape:connector-curvature="0" />
    <path
       style="fill:#717171"
       d="M 6.6666667,189.33333 C 6.3,188.96667 6,184.91667 6,180.33333 L 6,172 3,172 c -2.33333333,0 -3,-0.44444 -3,-2 0,-1.84314 0.66666667,-2 8.5,-2 7.833333,0 8.5,0.15686 8.5,2 0,1.55556 -0.666667,2 -3,2 l -3,0 0,9 c 0,8.06061 -0.191358,9 -1.8333333,9 -1.0083334,0 -2.1333334,-0.3 -2.5,-0.66667 z M 22,179 l 0,-11 6.928571,0 C 37.147413,168 39,169.29428 39,175.03624 c 0,2.87115 -0.525609,4.17469 -2.001865,4.96476 l -2.001865,1.07136 2.001865,3.92398 c 2.515386,4.93057 2.500824,5.21363 -0.248135,4.82321 -1.399029,-0.19869 -3.006418,-1.73681 -4.25,-4.06685 -1.400746,-2.62451 -2.67416,-3.74811 -4.25,-3.75 C 26.291216,182.0007 26,182.51772 26,186 c 0,3.33333 -0.333333,4 -2,4 -1.878788,0 -2,-0.66667 -2,-11 z m 11.989431,-2.48727 C 36.129394,173.93424 34.432906,172 30.031385,172 26.218735,172 26,172.16277 26,175 c 0,2.74119 0.291383,3 3.377555,3 1.857656,0 3.933,-0.66927 4.611876,-1.48727 z M 44.657889,183.25 c 1.412543,-3.7125 3.296786,-8.68232 4.187206,-11.04403 1.352998,-3.58865 2.011066,-4.24574 4.005974,-4 2.023651,0.24927 2.976915,1.81634 6.261963,10.29403 2.131213,5.5 3.877641,10.3375 3.880951,10.75 0.0154,1.91968 -4.1448,0.5131 -5.175937,-1.75 -0.953761,-2.09328 -1.827425,-2.5 -5.370153,-2.5 -3.679159,0 -4.312925,0.32611 -4.858537,2.5 -0.454485,1.81081 -1.29904,2.5 -3.063594,2.5 l -2.436134,0 2.568261,-6.75 z M 55,180.0651 c 0,-0.5142 -0.487749,-2.2017 -1.083888,-3.75 l -1.083887,-2.8151 -1.276969,3 c -0.702333,1.65 -1.088026,3.3375 -0.857096,3.75 C 51.304582,181.33322 55,181.17439 55,180.0651 Z M 68,179 c 0,-10.29431 0.126957,-11 1.978936,-11 1.328923,0 3.463953,2.21364 6.5,6.73932 L 81,181.47865 81,174.73932 C 81,168.66667 81.197844,168 83,168 c 1.879591,0 2,0.66667 2,11.07332 0,9.99653 -0.169723,11.04064 -1.745359,10.7372 -0.959947,-0.18487 -3.884947,-3.45116 -6.5,-7.25842 L 72,175.6298 l 0,7.1851 C 72,189.33333 71.814431,190 70,190 c -1.878788,0 -2,-0.66667 -2,-11 z m 24.893217,9.11462 c -1.971681,-1.59657 -2.127789,-2.12705 -1.019077,-3.46297 1.19122,-1.43533 1.52577,-1.43572 3.710282,-0.004 1.514345,0.99224 3.351454,1.33466 4.974738,0.92724 4.00861,-1.0061 2.62429,-3.67448 -2.857235,-5.50754 -7.241689,-2.42167 -8.982601,-7.12783 -4.067066,-10.99439 3.155858,-2.4824 6.385931,-2.63031 10.539121,-0.48261 2.68701,1.3895 2.8917,1.77292 1.62353,3.04109 -1.14283,1.14283 -2.0557,1.22127 -4.29677,0.36922 -1.5651,-0.59505 -3.443035,-0.85266 -4.173189,-0.57248 -2.852819,1.09473 -1.117289,3.39703 3.922449,5.2034 5.08895,1.824 5.25929,2.00903 5.55292,6.0315 0.24689,3.38229 -0.11791,4.44452 -1.97251,5.74353 -3.09869,2.17041 -9.077084,2.02436 -11.937193,-0.29161 z m 22.776083,-0.16011 c -9.55804,-7.51836 -0.72468,-26.28502 9.12492,-19.38609 1.23158,0.86263 1.97717,1.99246 1.65686,2.51073 -0.33553,0.5429 -1.49657,0.30197 -2.73923,-0.56843 -2.98144,-2.08828 -4.41114,-1.90234 -7.2573,0.94383 -3.46797,3.46796 -3.46797,10.62294 0,14.0909 2.78684,2.78685 5.71712,3.15755 7.54545,0.95455 1.54439,-1.86087 3,-1.93875 3,-0.16052 0,1.48983 -4.09894,3.66052 -6.91219,3.66052 -0.99995,0 -2.98828,-0.92047 -4.41851,-2.04549 z m 18.78525,-0.40906 c -2.22309,-2.22308 -2.45455,-3.26038 -2.45455,-11 0,-4.7 0.40382,-8.54545 0.89738,-8.54545 0.49356,0 1.05606,3.86128 1.25,8.58063 0.29127,7.08783 0.69032,8.82755 2.29375,10 2.5348,1.85347 5.03635,1.79903 6.98744,-0.15206 1.17999,-1.17998 1.57143,-3.67099 1.57143,-10 0,-7.05842 0.26001,-8.42857 1.5995,-8.42857 1.37431,0 1.55029,1.2796 1.25,9.08899 -0.31234,8.12258 -0.60051,9.29217 -2.71028,11 -3.28694,2.66072 -7.70518,2.43596 -10.68467,-0.54354 z M 154,179 c 0,-6.66667 0.39394,-11 1,-11 0.59649,0 1,3.83333 1,9.5 l 0,9.5 5.5,0 c 4.22222,0 5.5,0.34848 5.5,1.5 0,1.17949 -1.38889,1.5 -6.5,1.5 l -6.5,0 0,-11 z m 18,1.08333 0,-10.08333 -3,0 c -1.65,0 -3,-0.45 -3,-1 0,-0.57778 3.16667,-1 7.5,-1 4.33333,0 7.5,0.42222 7.5,1 0,0.55 -1.3337,1 -2.96379,1 l -2.96379,0 -0.28621,9.66894 c -0.19635,6.63341 -0.67864,9.79904 -1.53621,10.08333 -0.94475,0.3132 -1.25,-2.04793 -1.25,-9.66894 z m 15.45455,7.46212 c -2.22309,-2.22308 -2.45455,-3.26038 -2.45455,-11 0,-4.7 0.40382,-8.54545 0.89738,-8.54545 0.49356,0 1.05606,3.86128 1.25,8.58063 0.29127,7.08783 0.69032,8.82755 2.29375,10 2.5348,1.85347 5.03635,1.79903 6.98744,-0.15206 1.17999,-1.17998 1.57143,-3.67099 1.57143,-10 0,-7.05842 0.26001,-8.42857 1.5995,-8.42857 1.37431,0 1.55029,1.2796 1.25,9.08899 -0.31234,8.12258 -0.60051,9.29217 -2.71028,11 -3.28694,2.66072 -7.70518,2.43596 -10.68467,-0.54354 z M 207,179 l 0,-11 5.92857,0 c 6.77794,0 9.07143,1.52321 9.07143,6.02474 0,1.86949 -0.83875,3.51306 -2.38758,4.67858 l -2.38758,1.79668 2.40442,4.75 c 1.9338,3.82025 2.11083,4.75 0.90443,4.75 -0.825,0 -2.64016,-2.25 -4.03369,-5 -2.01549,-3.97739 -3.04155,-5 -5.01685,-5 -2.31311,0 -2.48315,0.34238 -2.48315,5 0,2.75 -0.45,5 -1,5 -0.60606,0 -1,-4.33333 -1,-11 z m 12.39245,-3.25 c 1.86759,-2.97842 -0.43694,-5.20669 -5.74488,-5.55479 L 209,169.89042 209,174 l 0,4.10958 4.64757,-0.30479 c 3.09802,-0.20317 5.01342,-0.88826 5.74488,-2.05479 z M 227,179 l 0,-11 7.05902,0 c 4.45136,0 6.83071,0.36941 6.44098,1 -0.33992,0.55 -2.84148,1 -5.55902,1 L 230,170 l 0,3.5 c 0,3.22222 0.2381,3.5 3,3.5 1.65,0 3,0.45 3,1 0,0.55 -1.35,1 -3,1 -2.83333,0 -3,0.22222 -3,4 l 0,4 5.5,0 c 4.22222,0 5.5,0.34848 5.5,1.5 0,1.19048 -1.44444,1.5 -7,1.5 l -7,0 0,-11 z m 20.25,9.96884 C 244.95389,188.04592 244.13778,186 246.06574,186 c 0.58616,0 1.97807,0.48826 3.09314,1.08503 2.48344,1.3291 6.41482,0.46828 7.19943,-1.5764 0.96631,-2.51815 -0.3234,-4.2775 -4.30291,-5.86979 C 247.19981,177.69602 245,175.4656 245,172.48528 c 0,-4.57356 7.33472,-7.15467 11.5573,-4.06704 2.64227,1.93208 1.31492,2.93629 -1.92807,1.45869 -2.01843,-0.91966 -3.22655,-0.9258 -5.20043,-0.0264 -3.6443,1.66045 -2.74761,4.23626 2.37466,6.82143 5.95401,3.00494 7.19654,4.205 7.19654,6.95052 0,5.04912 -5.85812,7.71464 -11.75,5.3464 z M 29.782394,117.9993 C 29.627077,103.69891 29.8375,91.998912 30.25,91.999298 30.6625,91.999684 31,103.7 31,118 c 0,14.3 -0.210423,26 -0.467606,26 -0.257184,0 -0.594684,-11.70032 -0.75,-26.0007 z M 229.20754,118.25 c -0.11415,-14.4375 0.12996,-26.250578 0.54246,-26.251283 0.4125,-7.06e-4 0.63447,7.761794 0.49326,17.250003 -0.48046,32.28337 -0.82778,35.30187 -1.03572,9.00128 z m -54.39565,2.47786 c -36.49664,-16.11389 -45.46767,-20.43769 -44.59238,-21.492353 0.7883,-0.949843 0.79104,-1.624954 0.01,-2.406219 -0.78127,-0.781265 -0.75535,-1.619642 0.0924,-2.988131 0.94244,-1.521378 0.87804,-2.111508 -0.32167,-2.947801 -1.12816,-0.786414 -1.19013,-1.171351 -0.25,-1.55282 C 130.4375,89.061574 131,88.233333 131,87.5 c 0,-0.733333 -0.5625,-1.561574 -1.25,-1.840536 -0.94013,-0.381469 -0.87816,-0.766406 0.25,-1.55282 1.19971,-0.836293 1.26411,-1.426423 0.32167,-2.947801 -0.84773,-1.368489 -0.87365,-2.206866 -0.0924,-2.988131 0.78126,-0.781265 0.76783,-1.469255 -0.0479,-2.452124 -0.8451,-1.018283 -0.8451,-1.6549 0,-2.5 0.8451,-0.8451 0.8451,-1.481717 0,-2.5 -0.8451,-1.018283 -0.8451,-1.6549 0,-2.5 0.8451,-0.8451 0.77538,-1.567999 -0.27379,-2.838828 C 128.81755,64.059401 128.782,63.579846 129.75,63.254045 130.4375,63.022654 131,62.233333 131,61.5 c 0,-0.733333 -0.5625,-1.561574 -1.25,-1.840536 -0.94013,-0.381469 -0.87816,-0.766406 0.25,-1.55282 1.19971,-0.836293 1.26411,-1.426423 0.32167,-2.947801 -0.84773,-1.368489 -0.87365,-2.206866 -0.0924,-2.988131 0.78126,-0.781265 0.77138,-1.464981 -0.0352,-2.436887 -0.90923,-1.095554 7.33158,-5.067022 43.59238,-21.008331 24.59246,-10.811566 45.50863,-19.9487659 46.48038,-20.3048886 1.66492,-0.6101469 1.75144,0.8688809 1.5,25.6410976 L 221.5,60.350296 205.74107,67.332889 c -8.6674,3.840426 -15.53001,7.211506 -15.25023,7.491289 0.27979,0.279782 7.3713,3.558631 15.75893,7.286331 l 15.25023,6.777635 0.2666,26.055926 c 0.14664,14.33076 -0.0784,26.03342 -0.5,26.0059 -0.42163,-0.0275 -21.32625,-9.12746 -46.45471,-20.22211 z M 23,95 c 0.825,-0.533156 1.95,-0.969374 2.5,-0.969374 0.55,0 0.325,0.436218 -0.5,0.969374 -0.825,0.533156 -1.95,0.969374 -2.5,0.969374 -0.55,0 -0.325,-0.436218 0.5,-0.969374 z m 210,-1 c -0.825,-0.533156 -1.05,-0.969374 -0.5,-0.969374 0.55,0 1.675,0.436218 2.5,0.969374 0.825,0.533156 1.05,0.969374 0.5,0.969374 -0.55,0 -1.675,-0.436218 -2.5,-0.969374 z M 30.232665,31.29969 C 30.021748,7.5484513 29.836419,5.004103 28.25,4.0800988 27.2875,3.519494 26.95,3.0540242 27.5,3.0457215 30.877118,2.9947408 31.036787,4.3716804 30.749621,31.069496 L 30.465329,57.5 30.232665,31.29969 Z M 229.23236,31.45 C 229.00113,5.5267412 229.28167,3 232.39113,3 c 0.54512,0 0.23379,0.5625 -0.69184,1.25 -1.48908,1.1059849 -1.71475,4.2455134 -1.95878,27.25 l -0.27579,26 -0.23236,-26.05 z"
       id="path4146"
       inkscape:connector-curvature="0" />
    <path
       style="fill:#595959"
       d="m 7,181 0,-9 -3.5,0 C 0.66666667,172 0,171.61905 0,170 c 0,-1.84314 0.66666667,-2 8.5,-2 7.833333,0 8.5,0.15686 8.5,2 0,1.55556 -0.666667,2 -3,2 l -3,0 0,9 c 0,8.33333 -0.148148,9 -2,9 -1.8518519,0 -2,-0.66667 -2,-9 z m 15,-2 0,-11 6.845012,0 c 5.361345,0 7.203734,0.39638 8.5,1.82874 2.270181,2.50852 2.119801,7.79285 -0.280247,9.84784 -1.913647,1.63851 -1.913647,1.69931 0,5.45037 C 39.461058,189.82407 39.459453,190 37.020324,190 35.717476,190 34.342974,188.63245 33,186 31.447769,182.95738 30.365857,182 28.479676,182 26.253387,182 26,182.40874 26,186 c 0,3.33333 -0.333333,4 -2,4 -1.878788,0 -2,-0.66667 -2,-11 z m 11.848393,-1.88514 c 0.741616,-0.46998 1.187734,-1.70059 0.991373,-2.73469 -0.270657,-1.42536 -1.383001,-1.95455 -4.598393,-2.18767 C 26.11063,171.89303 26,171.96476 26,174.9425 c 0,2.78596 0.288635,3.05614 3.25,3.04219 1.7875,-0.008 3.856777,-0.39985 4.598393,-0.86983 z M 42.974535,189.25 c -0.01401,-0.4125 1.673495,-5.37733 3.75,-11.03296 3.429221,-9.33992 3.991603,-10.25701 6.132244,-10 2.005208,0.24075 2.937546,1.83237 6.25,10.66953 C 61.24805,184.59919 63,189.43669 63,189.63657 63,189.83646 62.088862,190 60.975249,190 59.735648,190 58.581918,189.03056 58,187.5 57.180241,185.34387 56.429749,185 52.543803,185 c -3.97209,0 -4.580009,0.29607 -5.133159,2.5 -0.392648,1.56443 -1.335343,2.5 -2.519052,2.5 -1.040376,0 -1.903051,-0.3375 -1.917057,-0.75 z M 55,180.0651 c 0,-0.5142 -0.481643,-2.2017 -1.070318,-3.75 -1.133871,-2.98225 -1.884424,-2.44094 -3.376107,2.4349 -0.589786,1.92782 -0.320728,2.25 1.879037,2.25 C 53.844676,181 55,180.57929 55,180.0651 Z M 68,179 c 0,-10.29431 0.126957,-11 1.978936,-11 1.328923,0 3.463953,2.21364 6.5,6.73932 L 81,181.47865 81,174.73932 C 81,168.66667 81.197844,168 83,168 c 1.878788,0 2,0.66667 2,11 0,13.56368 -0.964442,14.04139 -7.74203,3.83486 L 72.5,175.66972 72.20619,182.83486 C 71.946017,189.17971 71.688431,190 69.95619,190 68.13316,190 68,189.25122 68,179 Z m 26.352327,10.05786 c -2.924903,-1.24982 -3.756043,-2.86649 -2.346709,-4.56463 1.013976,-1.22177 1.504727,-1.20494 3.528273,0.12093 2.926469,1.9175 6.836429,1.4591 7.277099,-0.85316 0.32773,-1.71962 -0.1631,-2.03047 -7.57371,-4.7964 -3.957732,-1.47718 -5.144576,-4.93095 -2.881401,-8.38499 2.130953,-3.25224 6.519004,-4.07655 11.227661,-2.10915 3.33338,1.39277 3.61355,1.76103 2.32221,3.05236 -1.20378,1.20378 -2.03424,1.25495 -4.60696,0.28386 -2.496762,-0.94242 -3.464059,-0.91441 -4.730954,0.13702 -2.150955,1.78514 -0.510698,3.65684 3.935644,4.49098 1.88773,0.35413 4.12169,1.33335 4.96437,2.17603 1.94492,1.94492 1.98931,7.76499 0.0714,9.35674 -1.93293,1.60419 -8.489022,2.24323 -11.186893,1.09041 z m 20.570753,-1.98094 C 112.38165,184.5355 112,183.41565 112,178.5 c 0,-4.91565 0.38165,-6.0355 2.92308,-8.57692 1.60769,-1.6077 3.98256,-2.92308 5.27749,-2.92308 2.83548,0 7.06546,2.76053 6.25051,4.07915 -0.33553,0.5429 -1.49657,0.30197 -2.73923,-0.56843 -2.98144,-2.08828 -4.41114,-1.90234 -7.2573,0.94383 -4.8625,4.86249 -2.04116,16.54545 3.99559,16.54545 1.26773,0 2.86106,-0.67005 3.54072,-1.48899 0.67967,-0.81894 1.70781,-1.19724 2.28478,-0.84066 1.56693,0.96842 -3.06259,4.32965 -5.96335,4.32965 -1.3924,0 -3.73882,-1.27269 -5.38921,-2.92308 z m 19.53147,0.46853 C 132.23146,185.32237 132,184.28507 132,176.54545 132,171.51515 132.41135,168 133,168 c 0.58095,0 1,3.25916 1,7.77749 0,8.64984 1.56837,12.22251 5.36557,12.22251 4.75916,0 5.9455,-2.09575 6.43187,-11.36238 0.24935,-4.75069 0.84693,-8.63762 1.32796,-8.63762 1.25824,0 1.079,13.11522 -0.23058,16.87189 -1.94378,5.57591 -8.19456,6.91928 -12.44027,2.67356 z M 154,179 c 0,-6.66667 0.39394,-11 1,-11 0.6,0 1,4 1,10 l 0,10 5.5,0 c 3.025,0 5.5,0.45 5.5,1 0,0.5641 -2.83333,1 -6.5,1 l -6.5,0 0,-11 z m 18.75,10.4205 C 172.3375,189.00589 172,184.46667 172,179.33333 L 172,170 l -3,0 c -1.65,0 -3,-0.45 -3,-1 0,-0.57778 3.16667,-1 7.5,-1 4.33333,0 7.5,0.42222 7.5,1 0,0.55 -1.55926,1 -3.46502,1 l -3.46501,0 -0.28499,10.08717 c -0.15674,5.54794 -0.62248,9.74794 -1.03498,9.33333 z m 14.70455,-1.87505 C 185.23146,185.32237 185,184.28507 185,176.54545 185,171.51515 185.41135,168 186,168 c 0.58095,0 1,3.25916 1,7.77749 0,8.64984 1.56837,12.22251 5.36557,12.22251 4.86642,0 6.10756,-2.18482 6.48705,-11.41937 0.19394,-4.71935 0.75644,-8.58063 1.25,-8.58063 1.27555,0 1.11447,13.07881 -0.2078,16.87189 -1.94378,5.57591 -8.19456,6.91928 -12.44027,2.67356 z M 207,179.05902 207,168 l 5.92857,0 c 6.78719,0 9.07143,1.52301 9.07143,6.04838 0,1.98672 -0.78147,3.41755 -2.47126,4.52474 l -2.47126,1.61923 1.97126,3.86399 c 2.11841,4.15241 2.46263,5.94366 1.1422,5.94366 -0.45599,0 -1.88291,-2.25 -3.17094,-5 -1.99991,-4.26989 -2.75498,-5 -5.17094,-5 -2.68072,0 -2.82906,0.23285 -2.82906,4.44098 0,2.44254 -0.45,4.7191 -1,5.05902 -0.64364,0.39779 -1,-3.32295 -1,-10.44098 z M 219.39245,175.75 c 1.86759,-2.97842 -0.43694,-5.20669 -5.74488,-5.55479 L 209,169.89042 209,174 l 0,4.10958 4.64757,-0.30479 c 3.09802,-0.20317 5.01342,-0.88826 5.74488,-2.05479 z m 8.27422,13.58333 C 227.3,188.96667 227,184.01667 227,178.33333 L 227,168 l 6.5,0 c 3.66667,0 6.5,0.4359 6.5,1 0,0.55 -2.50351,1 -5.56336,1 l -5.56336,0 0.31336,3.25 c 0.27554,2.85772 0.70564,3.28782 3.56336,3.56336 4.39425,0.42368 4.14633,2.18664 -0.3075,2.18664 l -3.5575,0 0.3075,4.25 0.3075,4.25 5.75,0.2999 c 3.1625,0.16495 5.75,0.72745 5.75,1.25 0,1.06467 -12.29082,1.32594 -13.33333,0.28343 z M 247.25,188.77951 c -1.2375,-0.59683 -2.25,-1.46637 -2.25,-1.93232 0,-1.10507 0.41538,-1.07068 3.37921,0.27973 4.53157,2.06472 9.48997,-0.69829 8.03894,-4.47962 -0.28549,-0.74398 -2.75853,-2.4016 -5.49564,-3.6836 -5.33196,-2.49735 -6.90655,-5.25649 -5.01586,-8.78928 0.59219,-1.10652 2.35228,-2.29202 3.91131,-2.63444 3.21354,-0.70581 8.18204,0.83796 8.18204,2.54226 0,0.6914 -0.68089,0.84554 -1.75,0.39615 -3.57882,-1.5043 -5.80179,-1.55693 -7.66248,-0.18141 -2.76525,2.04422 -1.4506,4.23197 4.29156,7.14175 2.73518,1.38602 5.26165,3.42931 5.61438,4.54065 1.87272,5.90043 -4.77383,9.92031 -11.24346,6.80013 z m -72.33614,-68.15159 c -41.68998,-18.47389 -45.4933,-20.35783 -44.5,-22.042715 0.80523,-1.365853 0.77218,-1.956852 -0.1278,-2.285087 -0.95192,-0.34718 -0.95192,-0.887239 0,-2.502084 0.95192,-1.614846 0.95192,-2.154454 0,-2.5 -0.92779,-0.33679 -0.94198,-0.876139 -0.0602,-2.288146 0.88072,-1.41026 0.86231,-2.198678 -0.0778,-3.331441 -0.9795,-1.180218 -0.96718,-1.579458 0.0602,-1.950548 1.02739,-0.371105 1.04331,-0.888033 0.0778,-2.525933 -0.95192,-1.614845 -0.95192,-2.154904 0,-2.502084 0.90864,-0.331396 0.93588,-0.913861 0.10829,-2.316023 -0.80753,-1.368186 -0.80753,-2.381787 0,-3.759223 0.82782,-1.412041 0.80061,-1.996672 -0.10829,-2.326602 -0.95192,-0.345546 -0.95192,-0.86354 0,-2.399859 0.97118,-1.567413 0.94262,-2.128075 -0.14282,-2.803688 -0.84048,-0.523139 -0.97326,-1.081509 -0.34892,-1.46737 1.2675,-0.783356 1.21045,-7.703692 -0.0773,-9.377117 -0.64215,-0.834474 -0.5762,-1.25 0.19838,-1.25 0.65117,0 1.03399,-1.11337 0.87245,-2.537339 -0.27644,-2.436755 1.50715,-3.328686 44.993,-22.5 C 200.68531,16.983198 221.28028,8 221.54745,8 c 0.26717,0 0.36579,11.761537 0.21915,26.13675 L 221.5,60.2735 206.40549,66.88675 c -8.30197,3.637287 -15.21205,7.05811 -15.35571,7.601828 -0.14367,0.543718 6.76136,4.100422 15.3445,7.903786 L 222,89.307572 l 0,25.846218 c 0,14.21541 -0.3375,25.80757 -0.75,25.76035 -0.4125,-0.0472 -21.26376,-9.17602 -46.33614,-20.28622 z M 30.436742,31 c 0,-14.575 0.139795,-20.5375 0.310654,-13.25 0.17086,7.2875 0.17086,19.2125 0,26.5 -0.170859,7.2875 -0.310654,1.325 -0.310654,-13.25 z"
       id="path4144"
       inkscape:connector-curvature="0" />
    <path
       style="fill:#282828"
       d="m 94.352327,189.00669 c -2.814041,-1.1354 -3.847168,-2.91185 -2.485401,-4.27362 0.790215,-0.79021 1.748939,-0.74143 3.463626,0.17624 3.364572,1.80067 7.169448,1.06975 7.169448,-1.37724 0,-1.43233 -1.21787,-2.39125 -4.474721,-3.52328 -2.760671,-0.95957 -5.036196,-2.55568 -5.940513,-4.16684 -1.305868,-2.32656 -1.285047,-2.88734 0.190837,-5.13982 2.205951,-3.36671 6.542911,-4.22263 11.307937,-2.23167 3.33338,1.39277 3.61355,1.76103 2.32221,3.05236 -1.20378,1.20378 -2.03424,1.25495 -4.60696,0.28386 -2.496762,-0.94242 -3.464059,-0.91441 -4.730954,0.13702 -2.095287,1.73893 -0.567377,3.60639 3.638974,4.44766 4.2028,0.84056 6.79664,3.33328 6.77788,6.51363 -0.0186,3.15462 -0.81317,4.44214 -3.66895,5.94531 -2.53062,1.33201 -5.903813,1.39087 -8.963413,0.15639 z m 20.570753,-1.92977 C 112.39822,184.55206 112,183.40169 112,178.63269 112,171.5022 114.92752,167.6 120.27696,167.6 c 3.73198,0 7.10426,1.97416 6.11275,3.57845 -0.33654,0.54454 -1.32832,0.2821 -2.31773,-0.61331 -6.70659,-6.06938 -13.85357,7.35763 -7.92687,14.8922 2.16883,2.75722 4.14426,2.98959 9.35489,1.10039 1.73307,-0.62836 1.68492,-0.44703 -0.36078,1.35857 -3.28643,2.9007 -6.76159,2.61518 -10.21614,-0.83938 z m 20.05382,1.10609 c -2.24868,-1.8203 -2.5091,-2.84249 -2.8264,-11.09402 -0.2366,-6.15291 0.006,-9.08899 0.75,-9.08899 0.70509,0 1.0995,2.78995 1.0995,7.77749 0,9.51619 1.56537,12.49398 6.32326,12.0287 4.2289,-0.41354 5.64369,-3.55101 5.662,-12.55619 0.008,-3.9875 0.35224,-7.25076 0.76474,-7.25169 1.15191,-0.003 -0.10237,18.7617 -1.33631,19.99158 -2.21636,2.20905 -7.81838,2.31271 -10.43679,0.19312 z m 52.88388,-0.094 c -2.10977,-1.70783 -2.39794,-2.87742 -2.71028,-11 -0.2366,-6.15291 0.006,-9.08899 0.75,-9.08899 0.70509,0 1.0995,2.78995 1.0995,7.77749 0,9.51619 1.56537,12.49398 6.32326,12.0287 4.2289,-0.41354 5.64369,-3.55101 5.662,-12.55619 0.008,-4.15684 0.44138,-7.25 1.01474,-7.25 1.32404,0 1.27783,11.45936 -0.0657,16.29762 -1.55976,5.61683 -7.51007,7.48537 -12.07349,3.79137 z m 59.38922,0.69052 c -2.62958,-1.26821 -3.09807,-3.36149 -0.5,-2.23412 3.67487,1.59463 7.85498,1.63551 9.13817,0.0894 2.16798,-2.61226 0.80246,-5.02844 -4.31482,-7.63475 -2.69971,-1.375 -5.37129,-3.25255 -5.93685,-4.17234 -1.57336,-2.55878 0.67106,-6.51667 4.12572,-7.27544 3.22437,-0.70819 8.67022,0.93907 7.79363,2.35741 -0.3334,0.53945 -1.73054,0.47325 -3.41271,-0.1617 -3.22285,-1.21649 -5.90713,-0.52653 -6.7777,1.74212 -0.82088,2.1392 1.16799,4.20997 6.16751,6.4215 4.6295,2.04785 6.20016,4.85011 4.49953,8.02776 -2.04851,3.82767 -6.37304,4.96679 -10.78248,2.8402 z M 7,180.5 7,172 3.5,172 C 0.66666667,172 0,171.61905 0,170 c 0,-1.84314 0.66666667,-2 8.5,-2 7.833333,0 8.5,0.15686 8.5,2 0,1.55556 -0.666667,2 -3,2 l -3,0 0,8.5 c 0,7.83333 -0.156863,8.5 -2,8.5 -1.8431373,0 -2,-0.66667 -2,-8.5 z m 15,-2 0,-10.5 6.845012,0 c 5.361345,0 7.203734,0.39638 8.5,1.82874 2.257816,2.49486 2.100801,7.45783 -0.304822,9.63489 -1.946187,1.76127 -1.946046,1.80058 0.02032,5.65499 L 39.040648,189 36.770324,188.997 c -1.599328,-0.002 -2.861425,-1.11022 -4.270324,-3.75 -1.243582,-2.33004 -2.850971,-3.86816 -4.25,-4.06685 -2.017091,-0.28647 -2.25,0.10171 -2.25,3.75 C 26,188.33333 25.672364,189 24,189 c -1.873016,0 -2,-0.66667 -2,-10.5 z m 11.418213,-1.10699 C 34.288196,177.05917 35,175.76165 35,174.50964 c 0,-2.33819 -2.181923,-3.46826 -6.75,-3.49599 -1.907363,-0.0116 -2.25,0.51934 -2.25,3.48635 0,3.20042 0.249779,3.5 2.918213,3.5 1.605016,0 3.630016,-0.27314 4.5,-0.60699 z M 43.056031,188.25 c 0.03082,-0.4125 1.728645,-5.025 3.772952,-10.25 2.926353,-7.4794 4.170455,-9.56533 5.849248,-9.80714 2.168262,-0.31231 2.26237,-0.12675 9.411354,18.55714 0.743091,1.94207 0.536993,2.25 -1.505928,2.25 -1.690641,0 -2.546105,-0.71424 -2.994301,-2.5 -0.538545,-2.14573 -1.194624,-2.5 -4.629847,-2.5 -3.298792,0 -4.202629,0.43948 -5.141463,2.5 -1.013185,2.2237 -4.904231,3.65363 -4.762015,1.75 z M 55,180.14922 c 0,-0.46792 -0.527701,-2.36454 -1.172668,-4.21469 l -1.172668,-3.36392 -1.251254,3.4647 C 49.661398,180.8589 49.692565,181 52.5,181 c 1.375,0 2.5,-0.38285 2.5,-0.85078 z M 68,178.5 c 0,-9.82203 0.128722,-10.5 1.99356,-10.5 1.348328,0 3.371189,2.09704 6.25,6.47919 2.341042,3.56356 4.48144,6.4895 4.75644,6.5021 0.275,0.0126 0.349103,-2.90304 0.164673,-6.47919 C 80.853625,168.47078 80.980333,168 82.914673,168 84.896041,168 85,168.52345 85,178.5 c 0,9.61496 -0.158679,10.5 -1.882542,10.5 -1.222826,0 -3.413067,-2.35296 -6.25,-6.71434 L 72.5,175.57132 72.20431,182.28566 C 71.944726,188.18014 71.669988,189 69.95431,189 68.139313,189 68,188.25151 68,178.5 Z m 86,0 c 0,-6.33333 0.39683,-10.5 1,-10.5 0.59967,0 1,3.98337 1,9.9501 l 0,9.95009 5.75,0.36082 5.75,0.36082 -6.75,0.18909 L 154,189 l 0,-10.5 z m 18.9633,1 -0.4633,-10 -3.25,0.01 c -1.7875,0.005 -3.25,-0.33219 -3.25,-0.75 0,-0.41782 3.375,-0.75967 7.5,-0.75967 4.125,0 7.5,0.34185 7.5,0.75967 0,0.41781 -1.4625,0.75531 -3.25,0.75 l -3.25,-0.01 -0.5367,10 -0.5367,10 -0.4633,-10 z m 34.0367,-1 0,-10.5 5.84501,0 c 4.39256,0 6.25627,0.45443 7.5,1.82874 2.38292,2.6331 2.03936,5.91053 -0.90569,8.63991 l -2.56067,2.37316 2.081,4.07909 c 1.14455,2.24351 1.616,4.0791 1.04768,4.0791 -0.56833,0 -2.01714,-2.025 -3.21959,-4.5 -1.8179,-3.74178 -2.65818,-4.5 -4.98701,-4.5 -2.65272,0 -2.80073,0.23781 -2.80073,4.5 0,2.475 -0.45,4.5 -1,4.5 -0.60317,0 -1,-4.16667 -1,-10.5 z m 11.98922,-1.98701 c 0.68015,-0.81953 0.96446,-2.5614 0.63339,-3.88051 -0.62064,-2.4728 -3.0618,-3.59494 -7.87261,-3.61883 -2.59462,-0.0129 -2.75,0.24062 -2.75,4.48635 l 0,4.5 4.37756,0 c 2.65421,0 4.86339,-0.5854 5.61166,-1.48701 z M 227,178.5 l 0,-10.5 6.5,0 c 3.575,0 6.5008,0.3375 6.50177,0.75 9.8e-4,0.4125 -2.36152,0.75 -5.25,0.75 l -5.25177,0 -0.31037,3.75 c -0.30533,3.68927 -0.2527,3.75 3.25,3.75 1.95821,0 3.56037,0.45 3.56037,1 0,0.55 -1.60087,1 -3.5575,1 l -3.5575,0 0.3075,4.25 0.3075,4.25 6,0.58189 6,0.58189 -7.25,0.16811 L 227,189 l 0,-10.5 z m -96.5,-104.17549 0,-26.231295 2.5,-1.156366 c 3.26256,-1.509084 86.11203,-38.0038035 87.76682,-38.6607876 1.00701,-0.3998 1.21211,4.8637336 1,25.6641806 L 221.5,60.107374 208,66.039072 c -7.425,3.262434 -14.85,6.598475 -16.5,7.413425 -1.65,0.814949 -16.05,7.246582 -32,14.292517 l -29,12.810796 0,-26.2313 z"
       id="path4142"
       inkscape:connector-curvature="0" />
    <path
       style="fill:#000000"
       d="m 94.162797,188.47247 c -3.477357,-1.51012 -3.897055,-4.24463 -0.555168,-3.61716 1.040804,0.19542 3.467371,0.42042 5.392371,0.5 2.90755,0.1202 3.55341,-0.23094 3.8155,-2.07442 0.26851,-1.88855 -0.37432,-2.39281 -4.315544,-3.38522 -6.006688,-1.5125 -8.247728,-4.55849 -6.321714,-8.59239 1.171107,-2.4528 1.973623,-2.84037 6.418924,-3.09995 3.696194,-0.21584 5.439814,0.1363 6.399274,1.29238 1.94392,2.34228 -0.0932,4.05808 -2.98222,2.5119 -2.579049,-1.38026 -7.334262,-0.48057 -6.761417,1.27927 0.217184,0.66722 1.711652,1.79119 3.321039,2.49773 6.342078,2.78423 7.925458,3.85396 8.257638,5.57886 0.69505,3.60912 -0.79091,6.42674 -3.97468,7.5366 -3.96271,1.38141 -4.600608,1.35004 -8.694003,-0.4276 z m 22.856913,0.26724 c -5.12638,-2.64375 -6.66581,-11.52765 -3.03067,-17.48971 1.75146,-2.87261 2.49159,-3.25 6.37382,-3.25 2.45446,0 4.88363,0.59207 5.50602,1.34201 1.57113,1.8931 0.19984,2.86956 -1.55936,1.11037 -4.95413,-4.95414 -12.24077,2.39598 -10.62524,10.71781 1.16454,5.99875 5.32077,7.87334 11.81572,5.32927 1.7949,-0.70306 1.84617,-0.62177 0.5,0.79276 -2.1729,2.28324 -6.12464,2.9202 -8.98029,1.44749 z m 19.35549,0.27544 c -1.16863,-0.47194 -2.63113,-2.31056 -3.25,-4.08583 C 131.72505,180.91285 131.62956,168 133,168 c 0.58095,0 1,3.25916 1,7.77749 0,9.08616 1.52276,12.22251 5.93426,12.22251 4.25408,0 5.46468,-2.34298 6.13935,-11.88206 l 0.60953,-8.61794 0.15843,9.17742 c 0.15209,8.81006 0.053,9.26038 -2.47643,11.25 -2.81406,2.21354 -4.60008,2.45669 -7.98994,1.08773 z m 52.668,-0.28789 c -1.35124,-0.68379 -2.76889,-2.36466 -3.15032,-3.73526 C 184.79412,181.04388 184.87636,168 186,168 c 0.58678,0 1,3.44834 1,8.34501 0,9.21231 1.30073,11.65499 6.2063,11.65499 4.00181,0 5.24103,-2.51122 5.87124,-11.89787 l 0.57755,-8.60213 0.17245,9.17742 c 0.1657,8.81761 0.0692,9.25868 -2.4624,11.25 -3.02177,2.37692 -4.85692,2.5533 -8.32194,0.79984 z m 58.7068,0.11046 c -1.5125,-0.55241 -2.75,-1.46503 -2.75,-2.02804 0,-0.59753 0.72849,-0.70755 1.75,-0.26429 3.67487,1.59463 7.85498,1.63551 9.13817,0.0894 2.09137,-2.51994 0.86822,-5.01017 -3.50442,-7.13475 C 246.93455,176.85235 245,175.13598 245,172.94898 c 0,-2.8905 2.8478,-4.95021 6.82143,-4.93367 4.06791,0.0169 7.03857,1.33515 5.35443,2.376 -0.57071,0.35272 -1.32032,0.18397 -1.66578,-0.375 -0.86737,-1.40343 -5.84811,-1.27828 -7.31008,0.18369 -2.57022,2.57022 -1.29192,4.78457 4.15184,7.19206 3.63522,1.60767 5.54328,3.09887 5.94866,4.64906 0.7812,2.98732 -0.80647,5.82055 -3.9264,7.00675 -2.92001,1.11018 -3.01751,1.10709 -6.6241,-0.21015 z M 6.7889329,180.25 6.5,171.5 3.25,171.18664 C 1.2368929,170.99254 0,170.32652 0,169.43664 0,168.30046 1.7777179,168 8.5,168 c 7.564715,0 8.5,0.20101 8.5,1.82681 0,1.46096 -0.60079,1.73863 -3,1.3865 l -3,-0.44031 0,9.1135 C 11,188.27302 10.843567,189 9.0389329,189 c -1.7766609,0 -1.9882365,-0.82279 -2.25,-8.75 z M 22,178.5 22,168 l 6.845012,0 c 5.361345,0 7.203734,0.39638 8.5,1.82874 2.356887,2.60433 2.131558,7.72405 -0.418562,9.51022 l -2.073551,1.45237 2.093874,4.10434 2.093875,4.10433 -2.36845,0 C 34.876299,189 33.86771,188.03304 32.5,185 31.138666,181.9811 30.120314,181 28.348126,181 26.275312,181 26,181.46899 26,185 c 0,3.33333 -0.333333,4 -2,4 -1.873016,0 -2,-0.66667 -2,-10.5 z m 12.837492,-3.38691 C 35.243867,172.23901 33.603278,171.03582 29.25,171.01531 26.189506,171.00089 26,171.20744 26,174.5575 l 0,3.5575 4.25,-0.3075 c 3.611802,-0.26132 4.300679,-0.66593 4.587492,-2.69441 z M 43,188.69875 c 0,-0.16568 1.739342,-4.77818 3.865203,-10.25 5.089734,-13.1006 6.769702,-13.61325 10.663793,-3.25407 1.51037,4.01792 3.336262,8.76782 4.057539,10.55532 1.214879,3.01077 1.16637,3.25 -0.659,3.25 -1.131353,0 -2.455465,-1.06457 -3.109489,-2.5 -0.953761,-2.09328 -1.827425,-2.5 -5.370153,-2.5 -3.679159,0 -4.312925,0.32611 -4.858537,2.5 -0.405127,1.61415 -1.329386,2.5 -2.608408,2.5 C 43.891427,189 43,188.86444 43,188.69875 Z M 54.945579,178.25 c -0.552705,-1.5125 -1.250203,-3.425 -1.549994,-4.25 -0.375901,-1.03445 -0.987431,-0.45567 -1.97033,1.86481 C 49.448146,180.53246 49.589267,181 52.975249,181 c 2.822677,0 2.923716,-0.14102 1.97033,-2.75 z M 68,178.5 c 0,-9.55625 0.166574,-10.5 1.853284,-10.5 1.183689,0 3.622477,2.61944 6.75,7.25 L 81.5,182.5 l 0.29381,-7.25 c 0.224767,-5.54633 0.635998,-7.25 1.75,-7.25 1.182464,0 1.45619,1.97373 1.45619,10.5 0,9.38645 -0.188089,10.5 -1.773553,10.5 -1.099198,0 -3.475626,-2.64544 -6.25,-6.95751 -2.462046,-3.82663 -4.716157,-6.97663 -5.009136,-7 -0.292979,-0.0234 -0.354698,3.10751 -0.137153,6.95751 0.371959,6.58276 0.269597,7 -1.717311,7 C 68.096533,189 68,188.52027 68,178.5 Z m 86,0 c 0,-6.33333 0.39683,-10.5 1,-10.5 0.59967,0 1,3.98337 1,9.9501 l 0,9.95009 5.75,0.36082 5.75,0.36082 -6.75,0.18909 L 154,189 l 0,-10.5 z m 18.98053,1 -0.48053,-10 -3.5,-0.61836 c -2.20617,-0.38977 -0.54267,-0.60488 4.5,-0.5819 4.4,0.0201 6.32795,0.21206 4.28434,0.42668 l -3.71566,0.39022 -0.30381,10.19168 -0.30382,10.19168 -0.48052,-10 z m 34.01947,-1 0,-10.5 5.84501,0 c 6.16304,0 9.15499,1.76297 9.15499,5.39448 0,2.6189 -1.88355,5.60552 -3.53518,5.60552 -1.96859,0 -1.84604,1.33242 0.5555,6.03984 1.11118,2.17809 1.55533,3.96016 0.98701,3.96016 -0.56833,0 -2.01714,-2.025 -3.21959,-4.5 -1.8179,-3.74178 -2.65818,-4.5 -4.98701,-4.5 -2.65272,0 -2.80073,0.23781 -2.80073,4.5 0,2.475 -0.45,4.5 -1,4.5 -0.60317,0 -1,-4.16667 -1,-10.5 z m 11.8,-1.7 c 1.83712,-1.83712 1.42786,-5.60769 -0.73426,-6.76482 C 217.0019,169.46583 214.5269,169 212.56574,169 209.00634,169 209,169.00801 209,173.5 l 0,4.5 4.3,0 c 2.365,0 4.84,-0.54 5.5,-1.2 z m 9.01434,1.69789 -0.31434,-10.50211 6.5,0.19119 6.5,0.1912 -5.75,0.36082 -5.75,0.36082 0,3.95009 c 0,3.84773 0.0907,3.9501 3.5,3.9501 1.925,0 3.5,0.45 3.5,1 0,0.55 -1.575,1 -3.5,1 -3.47592,0 -3.5,0.0306 -3.5,4.45228 l 0,4.45229 6.25,0.35503 6.25,0.35504 -6.68566,0.19268 L 228.12868,189 227.81434,178.49789 Z M 158.75479,61.04503 130.00959,48.29386 175.13114,28.39693 C 199.94799,17.453619 220.64584,8.35 221.12635,8.1666667 221.61068,7.9818757 222,19.402427 222,33.794711 l 0,25.961378 -16.00231,7.121956 c -8.80127,3.917075 -16.56377,7.0761 -17.25,7.020055 -0.68623,-0.05604 -14.18303,-5.839927 -29.9929,-12.85307 z"
       id="path4140"
       inkscape:connector-curvature="0" />
  </g>
</svg>
