%!PS-Adobe-3.0 EPSF-3.0
%%Creator: cairo 1.14.6 (http://cairographics.org)
%%CreationDate: Tue Mar 27 17:26:46 2018
%%Pages: 1
%%DocumentData: Clean7Bit
%%LanguageLevel: 2
%%BoundingBox: 0 -1 38 125
%%EndComments
%%BeginProlog
save
50 dict begin
/q { gsave } bind def
/Q { grestore } bind def
/cm { 6 array astore concat } bind def
/w { setlinewidth } bind def
/J { setlinecap } bind def
/j { setlinejoin } bind def
/M { setmiterlimit } bind def
/d { setdash } bind def
/m { moveto } bind def
/l { lineto } bind def
/c { curveto } bind def
/h { closepath } bind def
/re { exch dup neg 3 1 roll 5 3 roll moveto 0 rlineto
      0 exch rlineto 0 rlineto closepath } bind def
/S { stroke } bind def
/f { fill } bind def
/f* { eofill } bind def
/n { newpath } bind def
/W { clip } bind def
/W* { eoclip } bind def
/BT { } bind def
/ET { } bind def
/pdfmark where { pop globaldict /?pdfmark /exec load put }
    { globaldict begin /?pdfmark /pop load def /pdfmark
    /cleartomark load def end } ifelse
/BDC { mark 3 1 roll /BDC pdfmark } bind def
/EMC { mark /EMC pdfmark } bind def
/cairo_store_point { /cairo_point_y exch def /cairo_point_x exch def } def
/Tj { show currentpoint cairo_store_point } bind def
/TJ {
  {
    dup
    type /stringtype eq
    { show } { -0.001 mul 0 cairo_font_matrix dtransform rmoveto } ifelse
  } forall
  currentpoint cairo_store_point
} bind def
/cairo_selectfont { cairo_font_matrix aload pop pop pop 0 0 6 array astore
    cairo_font exch selectfont cairo_point_x cairo_point_y moveto } bind def
/Tf { pop /cairo_font exch def /cairo_font_matrix where
      { pop cairo_selectfont } if } bind def
/Td { matrix translate cairo_font_matrix matrix concatmatrix dup
      /cairo_font_matrix exch def dup 4 get exch 5 get cairo_store_point
      /cairo_font where { pop cairo_selectfont } if } bind def
/Tm { 2 copy 8 2 roll 6 array astore /cairo_font_matrix exch def
      cairo_store_point /cairo_font where { pop cairo_selectfont } if } bind def
/g { setgray } bind def
/rg { setrgbcolor } bind def
/d1 { setcachedevice } bind def
%%EndProlog
%%BeginSetup
%%EndSetup
%%Page: 1 1
%%BeginPageSetup
%%PageBoundingBox: 0 -1 38 125
%%EndPageSetup
q 0 -1 38 126 rectclip q
0 g
2.4 w
1 J
1 j
[] 0.0 d
4 M q 0 1 1 0 0 124.515099 cm
-28.699 24.742 m -26.125 6.32 l S Q
0 j
q 0 1 1 0 0 124.515099 cm
-42.41 26.41 m -40.895 27.121 -38.047 28.137 -37.09 27.832 c -35.688 27.371
 l -33.234 26.586 -33.199 23.281 -34.684 18.633 c S Q
1 j
q 0 1 1 0 0 124.515099 cm
-44.59 15.605 m -41.988 15.258 -40.063 17.039 -39.813 18.914 c -39.582 
20.641 l S Q
q 0 1 1 0 0 124.515099 cm
-17.699 13.707 m -14.969 13.801 -11.645 14.785 -11.152 18.418 c -10.926
 20.086 -11.531 22.504 -14.168 22.859 c -14.965 22.969 -15.781 22.777 -16.508
 22.484 c S Q
q 0 1 1 0 0 124.515099 cm
-45.305 20.121 m -47.941 19.535 -53.371 19.328 -54.402 23.973 c -54.77 
25.621 -54.371 28.078 -51.773 28.656 c -49.516 29.156 -46.875 27.215 -46.875
 27.215 c S Q
0 j
q 0 1 1 0 0 124.515099 cm
-55 17.398 m -48.891 9.344 l S Q
q 0 1 1 0 0 124.515099 cm
-53.367 5.391 m -49.133 2.73 -45.023 1.895 -43.352 4.555 c -41.891 6.883
 -43.32 10.594 -43.32 10.594 c S Q
1 j
q 0 1 1 0 0 124.515099 cm
-38.867 5.953 m -39.094 10.363 -37.5 11.949 -35.699 12.043 c -33.895 12.137
 -32.145 10.727 -31.918 6.312 c S Q
q 0 1 1 0 0 124.515099 cm
-59.164 32.75 m -59.164 1.219 l S Q
q 0 1 1 0 0 124.515099 cm
-24.684 20.32 m -24.684 20.32 -22.832 17.078 -19.867 17.078 c S Q
q 0 1 1 0 0 124.515099 cm
-21.441 8.801 m -19.441 5.863 -16.945 7.508 -15.578 8.438 c S Q
q 0 1 1 0 0 124.515099 cm
-6.117 14.949 m -1.367 27.672 l S Q
q 0 1 1 0 0 124.515099 cm
-9.32 26.07 m -11.305 29.672 -15.258 30.125 -19.922 27.551 c -20.426 27.297
 -21.422 26.762 -21.422 26.762 c -21.422 26.762 -22.336 26.246 -22.781 25.973
 c S Q
q 0 1 1 0 0 124.515099 cm
-10.012 8.801 m -9.879 5.578 -7.496 3.82 -2.988 4.004 c -1.199 4.078 l 
-1.617 14.277 l S Q
0 j
q 0 1 1 0 0 124.515099 cm
-121.633 12.617 m -121.633 12.617 -119.41 10.496 -117.164 10.496 c -114.891
 10.477 -113.258 11.402 -113.258 18.191 c -113.258 22.895 -114.297 26.562
 -117.543 26.586 c -120.051 26.586 -121.629 24.68 -121.629 24.68 c S Q
q 0 1 1 0 0 124.515099 cm
-122.227 27.594 m -122.227 2.219 l S Q
q 0 1 1 0 0 124.515099 cm
-122.238 13.152 m -121.012 12.016 -118.609 10.176 -117.602 10.176 c -116.125
 10.191 l -113.551 10.191 -112.512 13.328 -112.512 18.207 c -112.512 23.207
 -113.992 27.129 -117.133 27.129 c -119.883 27.129 -122.266 23.949 -122.266
 23.949 c S Q
q 0 1 1 0 0 124.515099 cm
-122.227 27.594 m -122.227 27.453 -121.828 25.648 -121.629 24.676 c -121.629
 2.219 l S Q
q 0 1 1 0 0 124.515099 cm
-91.535 2.129 m -91.535 23.578 l -91.535 25.672 -91.246 27.133 -89.266 
27.133 c -88.586 27.133 l S Q
1 j
q 0 1 1 0 0 124.515099 cm
-90.969 2.129 m -90.969 24.418 l -90.969 25.762 -90.535 26.352 -89.102 
26.352 c -88.586 26.352 l S Q
0 j
q 0 1 1 0 0 124.515099 cm
-83.219 21.988 m -83.219 23.332 -82.863 26.445 -78.969 26.445 c -77.895
 26.445 -75.207 25.801 -75.207 22.633 c -75.207 20.684 -76.387 19.074 -78.441
 18.523 c -79.797 18.125 l -81.516 17.617 -83.379 16.637 -83.379 14.117 
c -83.379 12.043 -81.863 10.445 -79.605 10.445 c -76.484 10.504 -75.613 
12.891 -75.605 14.727 c S Q
1 j
q 0 1 1 0 0 124.515099 cm
-83.945 21.988 m -83.945 23.996 -83.063 27.082 -79.133 27.082 c -79.098
 27.082 l -77.012 27.066 -74.777 26.004 -74.777 22.516 c -74.777 20.461 
-75.887 19.223 -77.949 18.672 c -79.797 18.121 l -82.191 17.48 -83.813 16.668
 -83.813 13.875 c -83.813 11.234 -81.488 10.137 -80.324 10.137 c -79.043
 10.137 l -76.828 10.133 -74.926 12.055 -74.91 14.727 c S Q
q 0 1 1 0 0 124.515099 cm
-106.43 14.477 m -106.43 13.242 -105.859 10.492 -102.414 10.492 c -100.305
 10.492 -98.664 11.508 -98.664 14.535 c -98.664 24.137 l -98.457 25.289 
-98.066 27.367 -98.063 27.594 c S Q
q 0 1 1 0 0 124.515099 cm
-107.211 14.477 m -107.211 11.852 -105.191 10.18 -103.297 10.18 c -101.559
 10.18 l -99.531 10.18 -98.063 11.59 -98.063 14.402 c -98.063 27.594 l S Q
q 0 1 1 0 0 124.515099 cm
-98.031 16.805 m -100.418 16.805 -107.445 16.945 -107.445 22.445 c -107.445
 22.445 -107.445 22.492 -107.441 22.582 c -107.418 23.324 -107.051 27.109
 -103.27 27.109 c -100.699 27.109 -98.063 23.438 -98.063 23.438 c S Q
q 0 1 1 0 0 124.515099 cm
-98.672 16.844 m -101.375 16.844 -106.719 17.82 -106.719 22.582 c -106.719
 24.266 -105.797 26.578 -103.133 26.578 c -100.82 26.578 -98.668 24.109 
-98.668 24.109 c S Q
q 0 1 1 0 0 124.515099 cm
-68.121 14.449 m -68.121 13.215 -67.551 10.461 -64.105 10.461 c -63.551
 10.461 -63.031 10.531 -62.563 10.691 c -62.563 10.691 -62.559 10.691 -62.559
 10.691 c S Q
q 0 1 1 0 0 124.515099 cm
-68.902 14.449 m -68.902 11.824 -66.883 10.148 -64.988 10.148 c -63.25 
10.148 l S Q
q 0 1 1 0 0 124.515099 cm
-62.559 16.922 m -65.492 17.273 -69.137 18.453 -69.137 22.414 c -69.137
 22.414 -69.137 22.465 -69.133 22.551 c -69.109 23.293 -68.742 27.082 -64.961
 27.082 c -64.141 27.082 -62.563 26.195 -62.563 26.195 c S Q
q 0 1 1 0 0 124.515099 cm
-62.559 17.004 m -65.246 17.465 -68.41 18.887 -68.41 22.551 c -68.41 24.238
 -67.488 26.551 -64.824 26.551 c -64.023 26.551 -63.238 26.25 -62.559 25.863
 c S Q
2.4 w
q 0 1 1 0 0 124.515099 cm
-122.164 25.77 m -122.18 25.766 -122.195 25.781 -122.199 25.801 c -122.266
 26.289 l -122.273 26.336 -122.203 26.348 -122.195 26.301 c -122.129 25.809
 l -122.125 25.789 -122.141 25.77 -122.164 25.77 c h
-122.164 25.77 m S Q
0 j
q 0 1 1 0 0 124.515099 cm
-122.391 26.094 m -122.418 26.094 -122.434 26.121 -122.426 26.145 c -122.406
 26.203 -122.398 26.25 -122.402 26.281 c -122.402 26.316 -122.41 26.324 
-122.43 26.328 c -122.465 26.34 l -122.461 26.34 -122.469 26.34 -122.477
 26.34 c -122.484 26.34 -122.496 26.336 -122.508 26.332 c -122.535 26.324
 -122.563 26.312 -122.582 26.305 c -122.625 26.281 -122.656 26.352 -122.613
 26.371 c -122.59 26.383 -122.559 26.395 -122.531 26.402 c -122.516 26.406
 -122.5 26.41 -122.488 26.414 c -122.473 26.414 -122.461 26.418 -122.445
 26.41 c -122.406 26.398 l -122.359 26.383 -122.332 26.34 -122.328 26.289
 c -122.324 26.242 -122.336 26.184 -122.355 26.121 c -122.359 26.105 -122.375
 26.094 -122.391 26.094 c h
-122.391 26.094 m S Q
q 0 1 1 0 0 124.515099 cm
-123.316 25.316 m -123.324 25.336 -123.316 25.359 -123.297 25.367 c -123.184
 25.422 l -122.766 25.617 l -122.688 25.656 l -122.645 25.676 -122.613 25.609
 -122.656 25.59 c -122.734 25.555 l -123.152 25.355 l -123.266 25.301 l 
-123.285 25.293 -123.309 25.301 -123.316 25.316 c h
-123.316 25.316 m S Q
q 0 1 1 0 0 124.515099 cm
-123.07 25.297 m -123.078 25.312 -123.078 25.328 -123.078 25.34 c -123.078
 25.355 -123.078 25.371 -123.074 25.383 c -123.07 25.414 -123.063 25.445
 -123.055 25.469 c -123.039 25.516 -122.969 25.492 -122.984 25.449 c -122.992
 25.43 -123 25.398 -123.004 25.375 c -123.004 25.359 -123.004 25.348 -123.004
 25.34 c -123.004 25.332 -123.004 25.324 -123.004 25.328 c -122.988 25.293
 l -122.98 25.277 -122.969 25.27 -122.938 25.273 c -122.906 25.273 -122.859
 25.289 -122.805 25.316 c -122.746 25.344 -122.699 25.375 -122.676 25.406
 c -122.652 25.434 -122.648 25.457 -122.66 25.48 c -122.668 25.5 -122.695
 25.52 -122.719 25.531 c -122.746 25.543 -122.77 25.547 -122.77 25.547 c
 -122.816 25.555 -122.801 25.629 -122.754 25.617 c -122.754 25.617 -122.723
 25.613 -122.691 25.598 c -122.656 25.582 -122.613 25.559 -122.594 25.512
 c -122.57 25.461 -122.586 25.402 -122.621 25.359 c -122.656 25.316 -122.707
 25.281 -122.773 25.25 c -122.832 25.219 -122.887 25.203 -122.934 25.199
 c -122.984 25.195 -123.031 25.219 -123.055 25.262 c h
-123.07 25.297 m S Q
q 0 1 1 0 0 124.515099 cm
-122.324 25.195 m -122.406 25.195 -122.469 25.262 -122.469 25.262 c -122.504
 25.297 -122.453 25.348 -122.418 25.312 c -122.418 25.312 -122.359 25.27
 -122.324 25.27 c -122.297 25.27 -122.289 25.27 -122.281 25.285 c -122.27
 25.305 -122.258 25.348 -122.258 25.438 c -122.258 25.496 -122.262 25.547
 -122.277 25.578 c -122.293 25.613 -122.305 25.621 -122.332 25.621 c -122.383
 25.621 -122.414 25.586 -122.414 25.586 c -122.445 25.547 -122.504 25.594
 -122.469 25.633 c -122.469 25.633 -122.418 25.695 -122.332 25.695 c -122.277
 25.695 -122.23 25.656 -122.211 25.609 c -122.191 25.562 -122.184 25.5 -122.184
 25.438 c -122.184 25.344 -122.191 25.285 -122.219 25.246 c -122.242 25.207
 -122.289 25.195 -122.324 25.195 c h
-122.324 25.195 m S Q
q 0 1 1 0 0 124.515099 cm
-122.441 24.973 m -122.465 24.977 -122.48 24.992 -122.48 25.012 c -122.48
 25.605 l -122.48 25.617 -122.484 25.633 -122.488 25.648 c -122.488 25.656
 -122.492 25.664 -122.492 25.668 c -122.492 25.672 -122.492 25.676 -122.492
 25.676 c -122.496 25.68 -122.496 25.676 -122.496 25.688 c -122.496 25.734
 -122.426 25.738 -122.422 25.688 c -122.422 25.688 -122.422 25.688 -122.422
 25.684 c -122.418 25.68 -122.418 25.672 -122.418 25.664 c -122.414 25.648
 -122.41 25.629 -122.406 25.617 c -122.406 25.012 l -122.406 24.992 -122.422
 24.973 -122.441 24.973 c h
-122.441 24.973 m S Q
q 0 1 1 0 0 124.515099 cm
-120.766 25.836 m -120.793 25.84 -120.809 25.863 -120.801 25.887 c -120.793
 25.902 l -120.789 25.918 -120.789 25.918 -120.797 25.922 c -120.801 25.926
 -120.816 25.938 -120.844 25.945 c -121.387 26.121 l -121.434 26.133 -121.41
 26.207 -121.363 26.188 c -120.82 26.012 l -120.793 26.004 -120.766 25.996
 -120.742 25.973 c -120.723 25.953 -120.715 25.914 -120.727 25.879 c -120.73
 25.863 l -120.734 25.848 -120.75 25.836 -120.766 25.836 c h
-120.766 25.836 m S Q
1 j
q 0 1 1 0 0 124.515099 cm
-121.07 26.316 m -121.078 26.316 -121.082 26.316 -121.09 26.32 c -121.586
 26.645 l -121.605 26.656 -121.625 26.672 -121.629 26.695 c -121.637 26.719
 -121.629 26.742 -121.613 26.762 c -121.605 26.773 l -121.582 26.816 -121.52
 26.777 -121.547 26.734 c -121.555 26.723 l -121.563 26.711 -121.559 26.711
 -121.559 26.715 c -121.559 26.715 -121.559 26.711 -121.547 26.703 c -121.051
 26.383 l -121.02 26.363 -121.031 26.316 -121.07 26.316 c h
-121.07 26.316 m S Q
0 j
q 0 1 1 0 0 124.515099 cm
-122.277 26.766 m -122.328 26.754 -122.383 26.777 -122.414 26.82 c -122.438
 26.855 -122.441 26.895 -122.434 26.93 c -122.426 26.961 -122.406 26.984
 -122.391 27.008 c -122.367 27.035 l -122.34 27.066 -122.336 27.098 -122.359
 27.129 c -122.375 27.156 -122.391 27.16 -122.406 27.16 c -122.422 27.16
 -122.441 27.152 -122.445 27.148 c -122.48 27.125 -122.484 27.109 -122.484
 27.09 c -122.484 27.07 -122.473 27.051 -122.465 27.039 c -122.438 26.996
 -122.5 26.957 -122.527 27 c -122.539 27.016 -122.555 27.047 -122.559 27.086
 c -122.559 27.129 -122.539 27.176 -122.488 27.211 c -122.469 27.223 -122.441
 27.234 -122.406 27.234 c -122.371 27.234 -122.328 27.215 -122.297 27.172
 c -122.262 27.117 -122.266 27.039 -122.313 26.988 c -122.336 26.961 l -122.348
 26.945 -122.359 26.926 -122.363 26.91 c -122.367 26.895 -122.367 26.883
 -122.352 26.863 c -122.332 26.832 -122.301 26.824 -122.266 26.848 c -122.238
 26.863 -122.234 26.879 -122.234 26.898 c -122.234 26.914 -122.242 26.934
 -122.25 26.949 c -122.277 26.992 -122.215 27.031 -122.191 26.988 c -122.172
 26.965 -122.16 26.93 -122.16 26.895 c -122.164 26.855 -122.184 26.816 -122.227
 26.785 c -122.242 26.773 -122.258 26.77 -122.277 26.766 c h
-122.277 26.766 m S Q
1 j
q 0 1 1 0 0 124.515099 cm
-122.09 26.445 m -122.148 26.441 -122.207 26.477 -122.23 26.531 c -122.242
 26.562 l -122.254 26.59 -122.254 26.617 -122.242 26.652 c -122.234 26.684
 -122.207 26.719 -122.168 26.734 c -122.125 26.75 -122.086 26.75 -122.055
 26.738 c -122.02 26.723 -122 26.695 -121.977 26.668 c -121.945 26.629 l
 -121.93 26.609 -121.918 26.602 -121.906 26.598 c -121.895 26.594 -121.879
 26.594 -121.863 26.602 c -121.824 26.617 -121.813 26.633 -121.809 26.648
 c -121.805 26.664 -121.805 26.688 -121.813 26.707 c -121.828 26.746 -121.848
 26.758 -121.871 26.762 c -121.895 26.766 -121.922 26.762 -121.941 26.754
 c -121.984 26.734 -122.016 26.805 -121.969 26.82 c -121.938 26.832 -121.898
 26.844 -121.855 26.832 c -121.813 26.824 -121.77 26.793 -121.746 26.734
 c -121.734 26.703 -121.727 26.664 -121.738 26.625 c -121.75 26.59 -121.785
 26.555 -121.832 26.535 c -121.863 26.52 -121.898 26.52 -121.93 26.527 c
 -121.957 26.535 -121.984 26.559 -122.004 26.582 c -122.035 26.621 l -122.035
 26.621 -122.035 26.625 -122.035 26.625 c -122.055 26.648 -122.07 26.664
 -122.086 26.672 c -122.098 26.676 -122.109 26.68 -122.137 26.668 c -122.16
 26.656 -122.168 26.645 -122.176 26.629 c -122.18 26.613 -122.176 26.594
 -122.176 26.59 c -122.16 26.559 l -122.148 26.523 -122.105 26.504 -122.055
 26.523 c -122.008 26.543 -121.98 26.477 -122.027 26.457 c -122.047 26.449
 -122.066 26.445 -122.09 26.445 c h
-122.09 26.445 m S Q
q 0 1 1 0 0 124.515099 cm
-121.969 25.277 m -121.988 25.281 -122.004 25.289 -122.02 25.297 c -122.055
 25.324 l -122.117 25.363 -122.137 25.457 -122.09 25.527 c -122.063 25.57
 -122 25.527 -122.027 25.488 c -122.055 25.445 -122.039 25.402 -122.016 
25.387 c -121.977 25.359 l -121.961 25.348 -121.949 25.348 -121.938 25.352
 c -121.922 25.355 -121.906 25.363 -121.887 25.391 c -121.691 25.68 l -121.664
 25.723 -121.602 25.68 -121.629 25.641 c -121.828 25.348 l -121.852 25.312
 -121.883 25.289 -121.918 25.281 c -121.934 25.273 -121.953 25.273 -121.969
 25.277 c h
-121.969 25.277 m S Q
q 0 1 1 0 0 124.515099 cm
-121.824 25.387 m -121.828 25.387 -121.836 25.387 -121.84 25.391 c -121.867
 25.41 -121.922 25.449 -121.961 25.5 c -121.98 25.527 -122 25.559 -122.004
 25.594 c -122.008 25.629 -122 25.672 -121.973 25.707 c -121.973 25.707 
-121.973 25.711 -121.973 25.711 c -121.965 25.723 -121.941 25.75 -121.906
 25.77 c -121.871 25.785 -121.813 25.793 -121.762 25.758 c -121.719 25.727
 -121.703 25.68 -121.695 25.641 c -121.688 25.602 -121.688 25.57 -121.688
 25.57 c -121.684 25.52 -121.758 25.52 -121.758 25.566 c -121.758 25.566
 -121.762 25.594 -121.766 25.625 c -121.773 25.656 -121.789 25.688 -121.805
 25.695 c -121.836 25.719 -121.852 25.715 -121.871 25.703 c -121.891 25.691
 -121.91 25.672 -121.914 25.668 c -121.93 25.641 -121.934 25.625 -121.93
 25.605 c -121.93 25.586 -121.918 25.562 -121.902 25.543 c -121.875 25.504
 -121.828 25.469 -121.801 25.453 c -121.77 25.434 -121.785 25.383 -121.824
 25.387 c h
-121.824 25.387 m S Q
q 0 1 1 0 0 124.515099 cm
-121.555 25.449 m -121.586 25.449 -121.602 25.488 -121.582 25.512 c -121.574
 25.52 -121.574 25.52 -121.57 25.523 c -121.566 25.527 -121.559 25.535 -121.551
 25.539 c -121.539 25.551 -121.523 25.566 -121.512 25.574 c -121.359 25.773
 l -121.328 25.812 -121.293 25.832 -121.258 25.836 c -121.223 25.84 -121.188
 25.824 -121.16 25.805 c -121.117 25.77 -121.102 25.727 -121.102 25.688 
c -121.105 25.648 -121.121 25.621 -121.137 25.605 c -121.164 25.566 -121.223
 25.609 -121.195 25.648 c -121.188 25.656 -121.176 25.676 -121.176 25.691
 c -121.176 25.707 -121.18 25.727 -121.207 25.746 c -121.223 25.762 -121.238
 25.766 -121.25 25.766 c -121.266 25.762 -121.281 25.758 -121.301 25.73 
c -121.457 25.527 l -121.457 25.527 -121.461 25.523 -121.461 25.523 c -121.473
 25.512 -121.488 25.5 -121.504 25.484 c -121.512 25.48 -121.516 25.473 -121.52
 25.469 c -121.523 25.465 -121.531 25.457 -121.527 25.465 c -121.531 25.457
 -121.543 25.449 -121.555 25.449 c h
-121.555 25.449 m S Q
q 0 1 1 0 0 124.515099 cm
-121.367 25.371 m -121.395 25.367 -121.426 25.375 -121.453 25.398 c -121.488
 25.426 -121.504 25.461 -121.512 25.492 c -121.52 25.523 -121.52 25.551 
-121.52 25.551 c -121.523 25.598 -121.449 25.602 -121.449 25.555 c -121.449
 25.555 -121.449 25.535 -121.441 25.512 c -121.434 25.488 -121.422 25.465
 -121.41 25.457 c -121.391 25.441 -121.375 25.441 -121.359 25.445 c -121.348
 25.449 -121.328 25.461 -121.32 25.473 c -121.289 25.512 -121.293 25.547
 -121.313 25.582 c -121.328 25.621 -121.363 25.656 -121.391 25.676 c -121.426
 25.703 -121.383 25.762 -121.344 25.734 c -121.313 25.707 -121.27 25.668
 -121.246 25.613 c -121.219 25.562 -121.215 25.492 -121.262 25.43 c -121.281
 25.406 -121.305 25.387 -121.34 25.375 c -121.348 25.371 -121.359 25.371
 -121.367 25.371 c h
-121.367 25.371 m S Q
q 0 1 1 0 0 124.515099 cm
-122.469 26.449 m -122.508 26.449 -122.547 26.469 -122.574 26.5 c -122.609
 26.535 -122.555 26.586 -122.52 26.551 c -122.488 26.512 -122.441 26.516
 -122.418 26.535 c -122.383 26.566 l -122.348 26.602 -122.297 26.543 -122.336
 26.512 c -122.371 26.48 l -122.398 26.457 -122.434 26.445 -122.469 26.449
 c h
-122.469 26.449 m S Q
q 0 1 1 0 0 124.515099 cm
-122.609 26.598 m -122.648 26.602 -122.688 26.617 -122.719 26.652 c -122.723
 26.656 -122.723 26.656 -122.723 26.656 c -122.734 26.668 -122.754 26.695
 -122.762 26.734 c -122.773 26.777 -122.766 26.832 -122.719 26.871 c -122.699
 26.887 -122.684 26.895 -122.668 26.898 c -122.652 26.902 -122.637 26.906
 -122.637 26.906 c -122.59 26.918 -122.574 26.844 -122.621 26.836 c -122.621
 26.836 -122.633 26.832 -122.645 26.828 c -122.656 26.824 -122.672 26.816
 -122.668 26.816 c -122.699 26.793 -122.695 26.773 -122.691 26.754 c -122.688
 26.73 -122.672 26.711 -122.668 26.703 c -122.641 26.672 -122.613 26.668
 -122.582 26.672 c -122.551 26.676 -122.516 26.695 -122.488 26.715 c -122.445
 26.742 -122.406 26.684 -122.445 26.656 c -122.48 26.633 -122.523 26.609
 -122.57 26.602 c -122.586 26.598 -122.598 26.598 -122.609 26.598 c h
-122.609 26.598 m S Q
q 0 1 1 0 0 124.515099 cm
-122.887 26.562 m -122.941 26.562 -122.98 26.59 -123.004 26.621 c -123.023
 26.652 -123.027 26.684 -123.027 26.707 c -123.027 26.754 -122.957 26.754
 -122.957 26.707 c -122.957 26.695 -122.953 26.676 -122.941 26.66 c -122.934
 26.648 -122.922 26.637 -122.887 26.637 c -122.875 26.637 -122.863 26.641
 -122.855 26.641 c -122.813 26.656 -122.785 26.59 -122.828 26.574 c -122.832
 26.57 -122.832 26.57 -122.832 26.574 c -122.848 26.566 -122.867 26.562 
-122.887 26.562 c h
-122.887 26.562 m S Q
q 0 1 1 0 0 124.515099 cm
-122.844 26.738 m -122.848 26.738 -122.848 26.738 -122.852 26.738 c -122.891
 26.746 -122.934 26.758 -122.973 26.789 c -123.008 26.816 -123.035 26.863
 -123.035 26.922 c -123.035 26.953 -123.027 26.984 -123.008 27.012 c -122.988
 27.043 -122.949 27.066 -122.902 27.066 c -122.875 27.066 -122.848 27.055
 -122.824 27.043 c -122.781 27.02 -122.82 26.953 -122.863 26.98 c -122.875
 26.988 -122.891 26.992 -122.902 26.992 c -122.93 26.992 -122.941 26.984
 -122.949 26.973 c -122.957 26.957 -122.965 26.938 -122.965 26.922 c -122.965
 26.883 -122.949 26.863 -122.926 26.844 c -122.902 26.828 -122.871 26.816
 -122.836 26.812 c -122.793 26.805 -122.797 26.738 -122.844 26.738 c h
-122.844 26.738 m S Q
q 0 1 1 0 0 124.515099 cm
-122.66 26.016 m -122.707 26.02 -122.699 26.094 -122.648 26.086 c -122.598
 26.082 -122.566 26.117 -122.563 26.145 c -122.559 26.191 l -122.551 26.238
 -122.477 26.23 -122.484 26.18 c -122.492 26.133 l -122.5 26.062 -122.57
 26.004 -122.66 26.016 c h
-122.66 26.016 m S Q
q 0 1 1 0 0 124.515099 cm
-121.941 25.965 m -121.988 25.965 -121.988 26.035 -121.941 26.035 c -121.906
 26.039 -121.871 26.047 -121.848 26.059 c -121.824 26.074 -121.805 26.094
 -121.801 26.129 c -121.801 26.145 -121.801 26.168 -121.809 26.18 c -121.816
 26.195 -121.824 26.203 -121.852 26.207 c -121.863 26.211 -121.879 26.207
 -121.895 26.199 c -121.938 26.18 -121.969 26.25 -121.922 26.27 c -121.898
 26.277 -121.871 26.285 -121.84 26.281 c -121.793 26.273 -121.762 26.246
 -121.746 26.215 c -121.727 26.184 -121.727 26.148 -121.73 26.121 c -121.738
 26.062 -121.77 26.02 -121.813 25.996 c -121.852 25.973 -121.898 25.965 
-121.938 25.965 c -121.938 25.965 -121.941 25.965 -121.941 25.965 c h
-121.941 25.965 m S Q
q 0 1 1 0 0 124.515099 cm
-122.734 26.125 m -122.762 26.125 -122.789 26.129 -122.82 26.137 c -122.875
 26.148 -122.934 26.191 -122.949 26.266 c -122.957 26.293 -122.957 26.328
 -122.945 26.359 c -122.93 26.395 -122.898 26.422 -122.852 26.434 c -122.813
 26.441 -122.773 26.43 -122.742 26.418 c -122.715 26.406 -122.695 26.391
 -122.695 26.391 c -122.656 26.359 -122.699 26.301 -122.738 26.332 c -122.738
 26.332 -122.75 26.34 -122.773 26.352 c -122.793 26.359 -122.82 26.367 -122.836
 26.363 c -122.863 26.355 -122.871 26.348 -122.875 26.332 c -122.883 26.316
 -122.883 26.297 -122.879 26.281 c -122.867 26.234 -122.84 26.215 -122.801
 26.207 c -122.762 26.195 -122.711 26.199 -122.68 26.207 c -122.633 26.219
 -122.617 26.145 -122.664 26.137 c -122.684 26.133 -122.711 26.129 -122.734
 26.125 c h
-122.734 26.125 m S Q
0 j
q 0 1 1 0 0 124.515099 cm
-122.766 25.848 m -122.777 25.848 -122.789 25.852 -122.797 25.863 c -122.961
 26.078 l -122.992 26.117 -122.93 26.16 -122.902 26.121 c -122.738 25.906
 l -122.723 25.883 -122.738 25.848 -122.766 25.848 c h
-122.766 25.848 m S Q
q 0 1 1 0 0 124.515099 cm
-122.691 25.68 m -122.707 25.676 -122.719 25.676 -122.734 25.68 c -122.789
 25.684 -122.848 25.711 -122.906 25.75 c -122.949 25.773 -122.91 25.836 
-122.867 25.809 c -122.816 25.777 -122.762 25.758 -122.727 25.75 c -122.688
 25.746 -122.668 25.754 -122.652 25.777 c -122.641 25.797 -122.637 25.828
 -122.641 25.855 c -122.648 25.883 -122.656 25.906 -122.656 25.906 c -122.672
 25.949 -122.602 25.977 -122.586 25.93 c -122.586 25.93 -122.574 25.902 
-122.57 25.867 c -122.566 25.828 -122.563 25.781 -122.59 25.738 c -122.613
 25.703 -122.652 25.684 -122.691 25.68 c h
-122.691 25.68 m S Q
1 j
q 0 1 1 0 0 124.515099 cm
-122.5 25.758 m -122.52 25.758 -122.535 25.773 -122.539 25.793 c -122.539
 25.855 -122.531 25.902 -122.512 25.938 c -122.488 25.973 -122.453 25.992
 -122.418 25.992 c -122.387 25.992 -122.348 25.98 -122.324 25.945 c -122.297
 25.914 -122.285 25.867 -122.281 25.805 c -122.277 25.758 -122.352 25.754
 -122.352 25.801 c -122.355 25.855 -122.367 25.887 -122.379 25.902 c -122.391
 25.918 -122.402 25.922 -122.414 25.922 c -122.43 25.918 -122.441 25.918
 -122.449 25.898 c -122.461 25.883 -122.469 25.852 -122.465 25.797 c -122.465
 25.777 -122.48 25.758 -122.5 25.758 c h
-122.5 25.758 m S Q
q 0 1 1 0 0 124.515099 cm
-123.043 25.648 m -123.051 25.648 -123.059 25.66 -123.059 25.668 c -123.059
 26.508 l -123.059 26.531 -123.023 26.531 -123.023 26.508 c -123.023 25.668
 l -123.023 25.66 -123.031 25.648 -123.043 25.648 c h
-123.043 25.648 m S Q
q 0 1 1 0 0 124.515099 cm
-121.996 26.055 m -122.102 26.055 -122.156 26.16 -122.156 26.16 c -122.18
 26.199 -122.117 26.238 -122.094 26.195 c -122.094 26.195 -122.051 26.125
 -121.996 26.125 c -121.949 26.125 -121.949 26.055 -121.996 26.055 c h
-121.996 26.055 m S Q
q 0 1 1 0 0 124.515099 cm
-121.98 25.793 m -122.012 25.797 -122.043 25.812 -122.066 25.852 c -122.094
 25.891 -122.035 25.93 -122.008 25.891 c -121.988 25.859 -121.977 25.859
 -121.961 25.863 c -121.941 25.863 -121.922 25.879 -121.902 25.891 c -121.863
 25.918 -121.824 25.859 -121.863 25.832 c -121.883 25.816 -121.91 25.797
 -121.949 25.793 c -121.957 25.789 -121.969 25.789 -121.98 25.793 c h
-121.98 25.793 m S Q
q 0 1 1 0 0 124.515099 cm
-121.629 25.996 m -121.656 25.996 -121.672 26.023 -121.664 26.047 c -121.539
 26.383 l -121.523 26.43 -121.453 26.406 -121.473 26.359 c -121.598 26.02
 l -121.602 26.008 -121.617 25.996 -121.629 25.996 c h
-121.629 25.996 m S Q
q 0 1 1 0 0 124.515099 cm
-122.074 26.289 m -122.113 26.293 -122.125 26.34 -122.094 26.355 c -122.078
 26.367 -122.055 26.379 -122.055 26.379 c -122.055 26.379 -122.031 26.391
 -122.016 26.398 c -121.949 26.438 -121.883 26.453 -121.824 26.445 c -121.766
 26.438 -121.715 26.402 -121.684 26.348 c -121.66 26.305 -121.723 26.27 
-121.746 26.312 c -121.77 26.352 -121.797 26.371 -121.836 26.375 c -121.875
 26.379 -121.922 26.371 -121.98 26.336 c -121.996 26.332 -122.02 26.316 
-122.02 26.316 c -122.023 26.316 -122.047 26.301 -122.055 26.297 c -122.063
 26.293 -122.07 26.289 -122.074 26.289 c h
-122.074 26.289 m S Q
q 0 1 1 0 0 124.515099 cm
-121.531 25.816 m -121.598 25.812 -121.652 25.824 -121.691 25.852 c -121.73
 25.879 -121.754 25.926 -121.758 25.977 c -121.758 26.027 -121.688 26.027
 -121.688 25.98 c -121.684 25.945 -121.672 25.926 -121.652 25.91 c -121.629
 25.895 -121.59 25.887 -121.535 25.887 c -121.523 25.887 l -121.535 26.125
 l -121.535 26.172 -121.465 26.176 -121.461 26.125 c -121.453 25.855 l -121.449
 25.836 -121.465 25.82 -121.484 25.816 c h
-121.531 25.816 m S Q
2.4 w
q 0 1 1 0 0 124.515099 cm
-98.059 32.848 m -98.059 36.078 l S Q
q 0 1 1 0 0 124.515099 cm
-98.664 32.848 m -98.664 36.078 l S Q
Q Q
showpage
%%Trailer
end restore
%%EOF
